<svg xmlns="http://www.w3.org/2000/svg" width="76.308" height="93.918" viewBox="0 0 76.308 93.918">
  <g id="lock" transform="translate(-12)">
    <path id="Path_91889" data-name="Path 91889" d="M80.829,44.024V24.947C80.829,11.153,68.869,0,54.414,0h0C39.96,0,28,11.153,28,24.947V44.024h8.8V26.414A17.478,17.478,0,0,1,54.414,8.8h0a17.478,17.478,0,0,1,17.61,17.61v17.61Z" transform="translate(-4.26)" fill="#9e9e9e"/>
    <path id="Path_91890" data-name="Path 91890" d="M21,60h58.31a9,9,0,0,1,9,9v21.08A19.811,19.811,0,0,1,68.5,109.894H31.811A19.811,19.811,0,0,1,12,90.083V69a9,9,0,0,1,9-9Z" transform="translate(0 -15.976)" fill="#bdbdbd"/>
    <path id="Path_91891" data-name="Path 91891" d="M68.674,83.336A7.337,7.337,0,1,0,58.4,90.057v5.752a2.935,2.935,0,1,0,5.87,0V90.057A7.337,7.337,0,0,0,68.674,83.336Z" transform="translate(-11.183 -20.235)" fill="#757575"/>
  </g>
</svg>
