<svg xmlns="http://www.w3.org/2000/svg" width="120.076" height="38.443" viewBox="0 0 120.076 38.443">
  <g id="Ribbon" transform="translate(-287 -657)">
    <path id="Path_90677" data-name="Path 90677" d="M2.263,26v8.766L-15.871,26Z" transform="translate(302.871 660.677)" fill="#b5a50e"/>
    <g id="Ribbon-2" data-name="Ribbon" transform="translate(287 657)">
      <g id="Group_80324" data-name="Group 80324" transform="translate(0 0)">
        <path id="Path_90678" data-name="Path 90678" d="M0,0H107.183l12.893,14.506L107.183,29.677H0Z" fill="#ffed3d"/>
        <g id="Group_640" data-name="Group 640" transform="translate(2.637 8.009)">
          <g id="Ellipse_46" data-name="Ellipse 46" transform="translate(0 0.264)" fill="none" stroke="#000" stroke-width="1.1">
            <circle cx="6.363" cy="6.363" r="6.363" stroke="none"/>
            <circle cx="6.363" cy="6.363" r="5.813" fill="none"/>
          </g>
          <path id="Path_1372" data-name="Path 1372" d="M6.461,18.424,9.01,21.091l7.5-7.952" transform="translate(-3.061 -13.139)" fill="none" stroke="#000" stroke-width="1.1"/>
        </g>
        <g id="Group_80323" data-name="Group 80323" transform="translate(0.52 2.283)">
          <line id="Line_86" data-name="Line 86" x2="106.098" transform="translate(0 0)" fill="none" stroke="#000" stroke-width="0.5" stroke-dasharray="1 1"/>
          <line id="Line_87" data-name="Line 87" x2="106.098" transform="translate(0 25.111)" fill="none" stroke="#000" stroke-width="0.5" stroke-dasharray="1 1"/>
          <line id="Line_88" data-name="Line 88" x2="10.273" y2="11.414" transform="translate(106.203 0.571)" fill="none" stroke="#000" stroke-width="0.5" stroke-dasharray="1"/>
          <line id="Line_89" data-name="Line 89" x1="11.414" y2="13.697" transform="translate(105.062 11.985)" fill="none" stroke="#000" stroke-width="0.5" stroke-dasharray="1"/>
        </g>
      </g>
    </g>
  </g>
</svg>
