<svg xmlns="http://www.w3.org/2000/svg" width="16" height="16" viewBox="0 0 16 16">
  <path id="filter" d="M15.249,0H.751a.751.751,0,0,0-.53,1.28L6,7.061V13.5a.75.75,0,0,0,.32.614l2.5,1.749A.75.75,0,0,0,10,15.249V7.061l5.78-5.78A.751.751,0,0,0,15.249,0Z" fill="#0d4a69"/>
</svg>
