<svg xmlns="http://www.w3.org/2000/svg" width="25.334" height="28" viewBox="0 0 25.334 28">
  <g id="admin" transform="translate(-109.2 -13.722)">
    <path id="Path_92531" data-name="Path 92531" d="M132.354,17.419a17.848,17.848,0,0,1-8.926-3.122,2.409,2.409,0,0,0-3.122,0,18.009,18.009,0,0,1-8.926,3.122,2.407,2.407,0,0,0-2.18,2.416c0,16.408,11.223,21.475,11.695,21.681a2.393,2.393,0,0,0,1.944,0c.471-.206,11.695-5.273,11.695-21.681a2.407,2.407,0,0,0-2.18-2.416Zm-4.86,17.027-.118-1.06a4.073,4.073,0,0,0-2.416-3.27,5.98,5.98,0,0,1-3.064.854,6.061,6.061,0,0,1-3.064-.854,4.132,4.132,0,0,0-2.416,3.27l-.118,1.09c-2.357-2.975-4.566-7.6-4.625-14.523,6.54-.648,10.192-3.594,10.163-3.682a20.288,20.288,0,0,0,10.192,3.653c-.059,6.923-2.239,11.548-4.537,14.523Z" fill="#8ba1c0"/>
    <path id="Path_92532" data-name="Path 92532" d="M284.36,158.98a3.859,3.859,0,1,1-3.859-3.859,3.859,3.859,0,0,1,3.859,3.859" transform="translate(-158.634 -133.961)" fill="#8ba1c0"/>
  </g>
</svg>
