<svg xmlns="http://www.w3.org/2000/svg" width="22.724" height="28" viewBox="0 0 22.724 28">
  <g id="states" transform="translate(-133.96 -14.001)">
    <path id="Path_92533" data-name="Path 92533" d="M362.428,72.464a7.787,7.787,0,0,1-4.151-.206,8.021,8.021,0,0,0-5.506.059l-.53.206v8.745l1.119-.412a6.829,6.829,0,0,1,4.534,0,11.268,11.268,0,0,0,3,.471,6.887,6.887,0,0,0,1.973-.265l.618-.147V72.2Z" transform="translate(-206.804 -54.753)" fill="#8ba1c0"/>
    <path id="Path_92534" data-name="Path 92534" d="M144.229,36.407V16.886a1.546,1.546,0,0,0,.736-1.325,1.56,1.56,0,0,0-3.121,0,1.546,1.546,0,0,0,.736,1.325V36.407c-7.361.295-8.538,4.623-8.6,4.829a.583.583,0,0,0,.118.53.615.615,0,0,0,.471.236h17.607a.615.615,0,0,0,.471-.236.682.682,0,0,0,.118-.53c0-.206-1.178-4.534-8.538-4.829Z" transform="translate(0 0)" fill="#8ba1c0"/>
  </g>
</svg>
