<svg xmlns="http://www.w3.org/2000/svg" width="30" height="30" viewBox="0 0 30 30">
  <path id="beta_users_-_1" data-name="beta users - 1" d="M15,.562a15,15,0,1,0,15,15A15,15,0,0,0,15,.562Zm0,5.806a5.323,5.323,0,1,1-5.323,5.323A5.323,5.323,0,0,1,15,6.369Zm0,20.806A11.59,11.59,0,0,1,6.139,23.05,6.744,6.744,0,0,1,12.1,19.433a1.48,1.48,0,0,1,.429.067A8.008,8.008,0,0,0,15,19.917a7.978,7.978,0,0,0,2.474-.417,1.48,1.48,0,0,1,.429-.067,6.744,6.744,0,0,1,5.958,3.617A11.59,11.59,0,0,1,15,27.175Z" transform="translate(0 -0.563)" fill="#5ab43f"/>
</svg>
