<svg xmlns="http://www.w3.org/2000/svg" width="35.382" height="28" viewBox="0 0 35.382 28">
  <g id="user" transform="translate(-148.34 -120.412)">
    <path id="Path_92536" data-name="Path 92536" d="M201.511,175.4a6.295,6.295,0,1,0-6.295-6.295A6.3,6.3,0,0,0,201.511,175.4Z" transform="translate(-42.764 -38.68)" fill="#0097e6"/>
    <path id="Path_92537" data-name="Path 92537" d="M158.747,315.35a10.419,10.419,0,0,0-10.407,10.407.491.491,0,0,0,.491.491h19.841a.492.492,0,0,0,.481-.592,10.42,10.42,0,0,0-10.406-10.306Z" transform="translate(0 -177.837)" fill="#0097e6"/>
    <path id="Path_92538" data-name="Path 92538" d="M367.434,133a6.295,6.295,0,1,0-6.3-6.295A6.3,6.3,0,0,0,367.434,133Z" transform="translate(-194.13)" fill="#0097e6"/>
    <path id="Path_92539" data-name="Path 92539" d="M364.914,283.274a10.41,10.41,0,0,0-17.8-7.221.491.491,0,0,0,.068.749,13.827,13.827,0,0,1,5.127,6.735.492.492,0,0,0,.464.329h11.664a.491.491,0,0,0,.491-.491.507.507,0,0,0-.011-.1Z" transform="translate(-181.203 -139.175)" fill="#0097e6"/>
  </g>
</svg>
