<svg xmlns="http://www.w3.org/2000/svg" xmlns:xlink="http://www.w3.org/1999/xlink" width="82" height="38" viewBox="0 0 82 38">
  <defs>
    <clipPath id="clip-_10054">
      <rect width="82" height="38"/>
    </clipPath>
  </defs>
  <g id="_10054" data-name="10054" clip-path="url(#clip-_10054)">
    <g id="securian-bk-wordmark" transform="translate(-0.021 9.5)">
      <path id="Path_90866" data-name="Path 90866" d="M27.182,0a1.992,1.992,0,1,0,1.992,1.989A1.992,1.992,0,0,0,27.182,0Zm0,2.736a.755.755,0,1,1,.755-.755A.755.755,0,0,1,27.182,2.736Z" transform="translate(-18.282)" fill="#0aa147"/>
      <path id="Path_90867" data-name="Path 90867" d="M27.184,43.53a1.992,1.992,0,1,0,1.989,1.989A1.992,1.992,0,0,0,27.184,43.53Zm0,2.736a.313.313,0,1,1,0,.008Z" transform="translate(-18.282 -31.621)" fill="#0aa147"/>
      <path id="Path_90868" data-name="Path 90868" d="M18.475,17.246a6.5,6.5,0,0,0,3.535-4.418,4.4,4.4,0,0,0-1.677.528,5.048,5.048,0,0,1-1.942,2.3l-.088.055-.107.063a4.848,4.848,0,0,1-2.161.651H15.35a5,5,0,0,1-1.529-.347h0a5.056,5.056,0,0,1-.629-.306l-.068-.041-.082-.049a5.053,5.053,0,0,1-2-2.356,4.437,4.437,0,0,0-1.666-.506,6.5,6.5,0,0,0,3.535,4.426,6.506,6.506,0,0,0-3.537,4.44,4.416,4.416,0,0,0,1.669-.506,5.045,5.045,0,0,1,2-2.353l.082-.052.068-.041a4.925,4.925,0,0,1,.629-.306h0a4.974,4.974,0,0,1,1.529-.35h.684a5,5,0,0,1,1.529.35,5.1,5.1,0,0,1,.632.306l.109.066.088.055a5.053,5.053,0,0,1,1.94,2.3,4.418,4.418,0,0,0,1.68.528,6.492,6.492,0,0,0-3.537-4.435Z" transform="translate(-6.79 -9.313)" fill="#0aa147"/>
      <path id="Path_90869" data-name="Path 90869" d="M53.532,21.973a1.964,1.964,0,0,0-.895-.213,1.992,1.992,0,0,0,0,3.981,1.964,1.964,0,0,0,.895-.213h0a1.989,1.989,0,0,0,0-3.557ZM52.638,24.5a.762.762,0,1,1,.005,0Z" transform="translate(-36.828 -15.807)" fill="#95c93d"/>
      <path id="Path_90870" data-name="Path 90870" d="M2.005,21.76a1.964,1.964,0,0,0-.916.227,1.989,1.989,0,1,0,.916-.227Zm0,2.736a.759.759,0,1,1,0,.008Z" transform="translate(0 -15.807)" fill="#95c93d"/>
      <path id="Path_90871" data-name="Path 90871" d="M9.64,17.484a4.982,4.982,0,0,0,1.349-.334h0a5.058,5.058,0,0,0,3.029-3.5,5.154,5.154,0,0,0,.123-.785c0-.129.014-.26.014-.388a3.56,3.56,0,0,0-.014-.388A5.037,5.037,0,0,0,10.989,7.8h0A4.987,4.987,0,0,0,9.64,7.468,8.016,8.016,0,0,1,10.866,6.24h0a6.5,6.5,0,0,1,4.681,5.406c0,.066.016.137.022.205q.03.306.03.621t-.03.621a.656.656,0,0,1-.022.205,6.5,6.5,0,0,1-4.678,5.414A7.726,7.726,0,0,1,9.64,17.484Z" transform="translate(-6.987 -4.533)" fill="#95c93d"/>
      <path id="Path_90872" data-name="Path 90872" d="M39.5,17.484a4.982,4.982,0,0,1-1.349-.334h0a5.058,5.058,0,0,1-3.026-3.5A5.154,5.154,0,0,1,35,12.866c0-.129-.014-.26-.014-.388A3.559,3.559,0,0,1,35,12.089,5.037,5.037,0,0,1,38.147,7.8h0A4.987,4.987,0,0,1,39.5,7.468,8.016,8.016,0,0,0,38.27,6.24h0a6.5,6.5,0,0,0-4.678,5.406c0,.066-.016.137-.022.205q-.03.306-.03.621t.03.621a.656.656,0,0,0,.022.205,6.5,6.5,0,0,0,4.678,5.414A7.726,7.726,0,0,0,39.5,17.484Z" transform="translate(-24.348 -4.533)" fill="#95c93d"/>
      <path id="Path_90873" data-name="Path 90873" d="M34.988,26.3a5.154,5.154,0,0,0,.123.785,5,5,0,0,0-1.529-.35c0-.066-.016-.137-.022-.205q-.03-.306-.03-.621t.03-.621a.656.656,0,0,1,.022-.205,5,5,0,0,0,1.529-.35,5.051,5.051,0,0,0-.123.785c0,.129-.014.257-.014.388S34.98,26.172,34.988,26.3Z" transform="translate(-24.341 -17.964)" fill="#0c7b40"/>
      <path id="Path_90874" data-name="Path 90874" d="M27.221,25.891q0,.315-.03.621a.656.656,0,0,1-.022.205,4.974,4.974,0,0,0-1.529.35,5.154,5.154,0,0,0,.123-.785c0-.129.014-.26.014-.388a3.56,3.56,0,0,0-.014-.388,5.037,5.037,0,0,0-.123-.785,5,5,0,0,0,1.527.35c0,.066.016.137.022.205Q27.219,25.587,27.221,25.891Z" transform="translate(-18.609 -17.957)" fill="#0c7b40"/>
      <path id="Path_90875" data-name="Path 90875" d="M75.228,19.054a2.544,2.544,0,0,0,2.189,1.037c1.135,0,1.486-.49,1.486-.906,0-.692-.988-.856-2.271-1.316-1.217-.443-2.041-1.07-2.041-2.336,0-1.595,1.349-2.484,2.93-2.484A3.466,3.466,0,0,1,80.4,14.3L79.3,15.465a2.224,2.224,0,0,0-1.811-.725c-.626,0-1,.3-1,.741,0,.626.692.709,2.09,1.217,1.529.547,2.221,1.267,2.221,2.462,0,1.431-1.037,2.632-3.406,2.632a3.62,3.62,0,0,1-3.422-1.68Z" transform="translate(-53.717 -9.479)"/>
      <path id="Path_90876" data-name="Path 90876" d="M101.25,17.477a4.165,4.165,0,0,1,4.344-4.377,4,4,0,0,1,4.1,4.18s0,.361-.033.692h-6.459a2.27,2.27,0,0,0,2.5,2.172,2.859,2.859,0,0,0,2.238-.955l1.185,1.152a4.487,4.487,0,0,1-3.485,1.486,4.1,4.1,0,0,1-4.394-4.279Zm6.435-.889a1.976,1.976,0,0,0-2.09-1.811,2.216,2.216,0,0,0-2.336,1.811Z" transform="translate(-73.534 -9.516)"/>
      <path id="Path_90877" data-name="Path 90877" d="M139.651,13a4.361,4.361,0,0,1,3.324,1.431l-1.217,1.267a2.78,2.78,0,0,0-2.107-.906,2.592,2.592,0,1,0,0,5.184,2.78,2.78,0,0,0,2.107-.906l1.217,1.267A4.449,4.449,0,1,1,139.651,13Z" transform="translate(-98.153 -9.441)"/>
      <path id="Path_90878" data-name="Path 90878" d="M166.508,13.94H168.5v4.84a1.812,1.812,0,1,0,3.622-.016V13.94h1.992v4.941c0,2.4-1.745,3.557-3.83,3.557s-3.784-1.135-3.784-3.5Z" transform="translate(-120.933 -10.126)"/>
      <path id="Path_90879" data-name="Path 90879" d="M200.123,13.5h1.959v1.234a2.563,2.563,0,0,1,2.462-1.4,4.188,4.188,0,0,1,.594.049V15.3a3.969,3.969,0,0,0-.821-.082,2.077,2.077,0,0,0-2.238,2.221V21.8H200.12Z" transform="translate(-145.355 -9.69)"/>
      <path id="Path_90880" data-name="Path 90880" d="M223.18,13.94h1.975v8.295H223.18Z" transform="translate(-162.107 -10.126)"/>
      <path id="Path_90881" data-name="Path 90881" d="M243.651,13.461v8.295h-1.975v-1.2a2.639,2.639,0,0,1-2.648,1.382,4.174,4.174,0,0,1-4.147-4.328,4.17,4.17,0,0,1,4.137-4.328,2.648,2.648,0,0,1,2.648,1.382v-1.2Zm-1.828,4.147a2.484,2.484,0,0,0-2.533-2.533,2.438,2.438,0,0,0-2.462,2.533,2.438,2.438,0,0,0,2.462,2.533,2.484,2.484,0,0,0,2.533-2.533Z" transform="translate(-170.606 -9.647)"/>
      <path id="Path_90882" data-name="Path 90882" d="M272.45,13.5h1.959v1.185a2.688,2.688,0,0,1,2.517-1.349,2.982,2.982,0,0,1,3.143,3.324V21.8h-1.975V16.943a1.667,1.667,0,0,0-1.762-1.844,1.849,1.849,0,0,0-1.915,1.915V21.8h-1.959Z" transform="translate(-197.898 -9.69)"/>
      <path id="Path_90883" data-name="Path 90883" d="M76.86,54.8h2.6v.793h-1.74v.821h1.587v.774H77.719v1.568H76.86Z" transform="translate(-55.817 -39.808)"/>
      <path id="Path_90884" data-name="Path 90884" d="M91.45,54.8h.873v3.945H91.45Z" transform="translate(-66.415 -39.808)"/>
      <path id="Path_90885" data-name="Path 90885" d="M100.35,54.8h.774l1.89,2.462V54.8h.843v3.945h-.714l-1.951-2.522v2.52h-.843Z" transform="translate(-72.88 -39.808)"/>
      <path id="Path_90886" data-name="Path 90886" d="M119.262,54.8h.774l1.641,3.945h-.952l-.274-.662h-1.641l-.274.662h-.927Zm.963,2.588-.572-1.439-.569,1.436Z" transform="translate(-85.418 -39.808)"/>
      <path id="Path_90887" data-name="Path 90887" d="M137,54.8h.774l1.89,2.462V54.8h.843v3.945h-.714l-1.972-2.522v2.52H137Z" transform="translate(-99.504 -39.808)"/>
      <path id="Path_90888" data-name="Path 90888" d="M157.058,54.57a2.093,2.093,0,0,1,1.595.736l-.594.5a1.341,1.341,0,0,0-1-.446,1.242,1.242,0,0,0,0,2.484,1.338,1.338,0,0,0,1.007-.451l.594.5a2.093,2.093,0,0,1-1.6.741,2.035,2.035,0,0,1,0-4.071Z" transform="translate(-112.594 -39.641)"/>
      <path id="Path_90889" data-name="Path 90889" d="M173,54.8h.873v3.945H173Z" transform="translate(-125.655 -39.808)"/>
      <path id="Path_90890" data-name="Path 90890" d="M182.438,54.8h.774l1.641,3.945h-.927l-.274-.662h-1.641l-.274.662h-.927Zm.963,2.588-.572-1.439-.577,1.431Z" transform="translate(-131.328 -39.808)"/>
      <path id="Path_90891" data-name="Path 90891" d="M200.07,54.8h.873v3.152h1.54v.793h-2.41Z" transform="translate(-145.319 -39.808)"/>
    </g>
  </g>
</svg>
