<svg xmlns="http://www.w3.org/2000/svg" xmlns:xlink="http://www.w3.org/1999/xlink" width="82" height="38" viewBox="0 0 82 38">
  <defs>
    <clipPath id="clip-_60176">
      <rect width="82" height="38"/>
    </clipPath>
  </defs>
  <g id="_60176" data-name="60176" clip-path="url(#clip-_60176)">
    <g id="svgviewer-output" transform="translate(-0.715 6.116)">
      <path id="Path_90861" data-name="Path 90861" d="M279.024,3.206V2.616h.394c.2,0,.416.044.416.28,0,.293-.219.311-.464.311Zm0,.245h.333l.5.827h.324l-.543-.84a.5.5,0,0,0,.494-.525c0-.377-.223-.543-.674-.543h-.727V4.279h.289Zm-1-.131a1.344,1.344,0,1,1,2.687,0,1.344,1.344,0,1,1-2.687,0Zm1.348,1.659a1.655,1.655,0,1,0-1.681-1.659,1.652,1.652,0,0,0,1.681,1.659Z" transform="translate(-198.331 -0.724)" fill="#004789"/>
      <path id="Path_90862" data-name="Path 90862" d="M67.9,25.868H81.241c8.741-.141,11.641-3.591,11.641-6.549,0-4.014-4.35-5.775-7.83-6.268v-.07c1.74-.458,6.421-1.373,6.421-5.281,0-5.493-8.451-5.634-10.771-5.634H67.9v.88c1.906.105,3.646.176,3.646,2.5V22.488c0,2.148-1.326,2.289-3.646,2.5ZM78.176,4.848c.042-.81.083-1.725,2.2-1.725,3.355,0,4.267,2.077,4.267,4.542,0,3.591-.911,5.07-6.462,5.07Zm0,8.943h1.243c2.693.106,6.338.634,6.338,5.669,0,2.148-.539,5.281-5.1,5.281-1.74,0-2.486-.563-2.486-2.148v-8.8Z" transform="translate(-48.109 -1.007)" fill="#004789"/>
      <path id="Path_90863" data-name="Path 90863" d="M19.043,8.121V.659H17.818c-.2.654-.408,1.169-1.347,1.169-1.184,0-3.1-1.135-6.368-1.135-7.756,0-9.022,4.677-9.022,6.775,0,1.582,0,4.539,6.98,7.359l2.735,1.1c2.653,1.066,4.572,1.891,4.572,4.2,0,.447-.2,3.852-5.1,3.852-5.184,0-7.552-3.886-8.368-7.359H.715V25.11H1.9c.163-.55.367-1.169,1.224-1.169,1.266,0,3.1,1.169,6.98,1.169,7.51,0,10.123-4.161,10.123-7.188,0-3.748-3.1-5.743-4.49-6.327l-6-2.511c-3.429-1.444-4.2-2.2-4.2-4.058C5.532,2.791,7.777,1.76,9.9,1.76c4.817,0,7.266,3.955,8,6.362h1.143" fill="#004789"/>
      <path id="Path_90864" data-name="Path 90864" d="M171.853,16.92h-.971c-1.54,3.959-2.28,6.867-7.336,6.867-2.243,0-2.431.086-2.431-1.6V5.655c0-3.083,1.771-3.485,4.115-3.59V1.189h-14.1v.876c1.506.105,3.612.541,3.612,2.854V21.877c0,2.137-1.737,2.242-3.612,2.487v.876H170.48l1.373-8.32" transform="translate(-107.704 -0.38)" fill="#004789"/>
      <path id="Path_90865" data-name="Path 90865" d="M234.7,21.208V5.751c0-3.083,1.771-3.485,4.114-3.59V1.285h-14.1v.876c1.507.105,3.612.541,3.612,2.854,0,0-.023,16.028,0,16.028v.536c0,2.312-2.105,2.749-3.612,2.854v.876h14.1v-.876c-2.326-.1-4.088-.5-4.114-3.52v.3" transform="translate(-160.397 -0.448)" fill="#004789"/>
    </g>
  </g>
</svg>
