<svg xmlns="http://www.w3.org/2000/svg" xmlns:xlink="http://www.w3.org/1999/xlink" width="82" height="38" viewBox="0 0 82 38">
  <defs>
    <clipPath id="clip-_62200">
      <rect width="82" height="38"/>
    </clipPath>
  </defs>
  <g id="_62200" data-name="62200" clip-path="url(#clip-_62200)">
    <g id="accordia-life-seeklogo" transform="translate(-135 -210.002)">
      <path id="Path_90911" data-name="Path 90911" d="M154.11,216h-.177l1.015,5.8-7.148-1.074a4.589,4.589,0,0,0,.485.6l1,1.177c.176.206.324.412.515.618l2.044,2.412c.162.176.324.456.574.515a9.081,9.081,0,0,0,.912.162c.632.118,1.25.235,1.868.353.721.132,3.206.632,3.736.691-.074-.25-1.647-2.883-1.765-3.236l4.03,1.03-.029-7.9L154.11,216Z" transform="translate(-10.917 0)" fill="#57cbf5" fill-rule="evenodd"/>
      <path id="Path_90912" data-name="Path 90912" d="M135,297.413h0l5.869,1.633c.353.1.515-.029.838-.132,2.118-.721,4.265-1.5,6.383-2.177-.191-.1-6.634-1.088-6.825-1.044L135,297.413Z" transform="translate(0 -67.969)" fill="#00aeef" fill-rule="evenodd"/>
      <path id="Path_90913" data-name="Path 90913" d="M146.1,320.542c.53-.1,1.162-.324,1.691-.485.574-.162,1.147-.338,1.721-.5l3.486-1a12.834,12.834,0,0,0,1.133-1.088c.4-.382.75-.735,1.147-1.118.324-.324,2.147-2.044,2.25-2.25-.824.265-5.457,2.162-6.413,2.53a18.5,18.5,0,0,0-2.559,1.927l-2.456,1.986Z" transform="translate(-9.467 -83.671)" fill="#000b33" fill-rule="evenodd"/>
      <path id="Path_90914" data-name="Path 90914" d="M181.833,333.839c.265-.25.206-.221.382-.6.221-.471.412-.927.632-1.412.221-.515,1.162-2.5,1.25-2.824a9.644,9.644,0,0,0-1.015,1.03l-2.5,2.6c-.53.6-2.074,3.456-2.648,4.442l-.735,1.309,4.633-4.545Z" transform="translate(-35.993 -96.379)" fill="#000b33" fill-rule="evenodd"/>
      <path id="Path_90915" data-name="Path 90915" d="M458.975,280.254a1.421,1.421,0,0,1,1.544,1.4,1.494,1.494,0,0,1-1.25,1.75c-1.868.177-2.133-2.9-.294-3.148Zm1.515-.588a2.371,2.371,0,0,0-1.265-.75c-3.265-.662-4.324,4.28-1.662,5.633a2.577,2.577,0,0,0,1.677.206,2.239,2.239,0,0,0,1.25-.824l.015.78h1.647V276.9H460.5l-.015,2.765Z" transform="translate(-273.834 -51.942)" fill="#000b33" fill-rule="evenodd"/>
      <path id="Path_90916" data-name="Path 90916" d="M249.1,283c.118-.309.868-2.221,1-2.353l.971,2.353Zm-3,3.148h1.721l.662-1.677H251.6c.235.118.574,1.368.78,1.677h1.706c-.015-.206-2.03-4.81-2.4-5.648-.25-.574-.6-1.309-.809-1.9h-1.559l-3.221,7.545Z" transform="translate(-94.759 -53.392)" fill="#000b33" fill-rule="evenodd"/>
      <path id="Path_90917" data-name="Path 90917" d="M383.256,291.634c2.015-.427,2.559,2.662.706,3.074-2.015.456-2.6-2.677-.706-3.074Zm-.162-1.4a2.971,2.971,0,0,0-2.574,3.471,3.065,3.065,0,0,0,3.618,2.412,2.988,2.988,0,0,0,2.559-3.486,3.074,3.074,0,0,0-3.6-2.4Z" transform="translate(-209.366 -63.279)" fill="#000b33" fill-rule="evenodd"/>
      <path id="Path_90918" data-name="Path 90918" d="M529.41,294.1a1.013,1.013,0,0,1-.721,1.133c-1.162.382-1.721-.485-1.324-1.03a1.732,1.732,0,0,1,2.044-.1Zm-3.251-3.074.4,1.221a4.694,4.694,0,0,1,1.794-.294.99.99,0,0,1,1.044,1.1,11.678,11.678,0,0,0-1.221-.206c-1.265-.059-2.633.412-2.515,2.015s2.118,1.971,3.309,1.221c.147-.088.265-.25.412-.309v.574h1.589V293.58a3.16,3.16,0,0,0-.515-2.28c-.838-1.177-3.78-.75-4.295-.279Z" transform="translate(-333.193 -63.578)" fill="#000b33" fill-rule="evenodd"/>
      <path id="Path_90919" data-name="Path 90919" d="M307.437,295.115l-.941-.956-.324.25a1.373,1.373,0,0,1-.382.221c-2.044.78-2.853-2.28-1.147-2.942a1.629,1.629,0,0,1,1.765.529l1.015-1.074a2.617,2.617,0,0,0-1.456-.868,3.022,3.022,0,1,0,1.471,4.839Z" transform="translate(-142.52 -63.274)" fill="#000b33" fill-rule="evenodd"/>
      <path id="Path_90920" data-name="Path 90920" d="M346.553,295.169l-.941-.956a1.845,1.845,0,0,1-1.78.515c-1.839-.588-.927-3.765.985-2.971a2.042,2.042,0,0,1,.706.515l1.015-1.059c-1.25-1.691-5.369-1.25-5.339,2.074a3.047,3.047,0,0,0,5.354,1.883Z" transform="translate(-175.87 -63.327)" fill="#000b33" fill-rule="evenodd"/>
      <path id="Path_90921" data-name="Path 90921" d="M657.445,294.083a1.883,1.883,0,0,1,1.809-1.839,1.781,1.781,0,0,1,1.736,1.839Zm4.4.677v-.721c-.162-.368-.265-2.339-2.368-2.486-3.118-.221-3.971,4.148-1.412,5.472a3.1,3.1,0,0,0,2.074.206,2.82,2.82,0,0,0,1.486-.956l-.5-.441a2.438,2.438,0,0,1-2.28.691,1.949,1.949,0,0,1-1.427-1.765Z" transform="translate(-444.843 -64.434)" fill="#00aeef" fill-rule="evenodd"/>
      <path id="Path_90922" data-name="Path 90922" d="M431.247,291.4v-.985L429.6,290.4v5.736l1.647.015c.177-1.441-.677-4.133,1.839-4.133V290.3a1.647,1.647,0,0,0-1.5.662c-.191.206-.177.294-.338.441Z" transform="translate(-251.269 -63.372)" fill="#000b33" fill-rule="evenodd"/>
      <path id="Path_90923" data-name="Path 90923" d="M573.515,286.325l.015.162h5.06a4.724,4.724,0,0,0,.029-.794c-1.221,0-3.089.029-4.236,0L574.368,279H573.5v7.325Z" transform="translate(-374.003 -53.734)" fill="#00aeef" fill-rule="evenodd"/>
      <path id="Path_90924" data-name="Path 90924" d="M507.8,296.622l1.662.015V290.9H507.8Z" transform="translate(-317.967 -63.883)" fill="#000b33" fill-rule="evenodd"/>
      <path id="Path_90925" data-name="Path 90925" d="M631.2,278.807v.706l.765.015v4.795h.838v-4.78l1.765-.015v-.691a13.849,13.849,0,0,0-1.765-.029c-.221-2.147,1.28-1.515,1.78-1.486v-.706a1.712,1.712,0,0,0-2.6,1.486c-.073,1.044.177.574-.78.706Z" transform="translate(-423.216 -51.57)" fill="#00aeef" fill-rule="evenodd"/>
      <path id="Path_90926" data-name="Path 90926" d="M617,297.745h.824l.029-5.545h-.838Z" transform="translate(-411.105 -64.992)" fill="#00aeef" fill-rule="evenodd"/>
      <path id="Path_90927" data-name="Path 90927" d="M507.6,278.256h1.736V276.8h-1.721Z" transform="translate(-317.796 -51.857)" fill="#000b33" fill-rule="evenodd"/>
      <path id="Path_90928" data-name="Path 90928" d="M616.7,278.812h.956l-.015-.912h-.927Z" transform="translate(-410.849 -52.795)" fill="#00aeef" fill-rule="evenodd"/>
      <path id="Path_90929" data-name="Path 90929" d="M338.147,366.877h-.4l-.221-.574H336.6l-.206.574H336l.868-2.177h.4l.882,2.177Zm-.706-.838-.324-.868a.393.393,0,0,1-.029-.162h-.015a.521.521,0,0,1-.044.162l-.324.868Z" transform="translate(-171.436 -126.828)" fill="#00aeef" fill-rule="evenodd"/>
      <path id="Path_90930" data-name="Path 90930" d="M360.627,366.474a1.758,1.758,0,0,1-.794.191,1.175,1.175,0,0,1-.824-.294,1.052,1.052,0,0,1-.309-.794,1.142,1.142,0,0,1,.338-.838,1.235,1.235,0,0,1,.883-.324,1.629,1.629,0,0,1,.632.1v.353a1.3,1.3,0,0,0-.662-.162.865.865,0,0,0-.618,1.441.776.776,0,0,0,.574.221.9.9,0,0,0,.412-.088v-.544h-.485v-.294h.853v1.03Zm2.015.147h-1.265v-2.177h.353v1.9h.9v.279Zm.324-1.059a1.181,1.181,0,0,1,.309-.838,1.131,1.131,0,0,1,.824-.324,1.019,1.019,0,0,1,.78.309,1.126,1.126,0,0,1,.294.794,1.18,1.18,0,0,1-.309.838,1.1,1.1,0,0,1-.809.324,1.075,1.075,0,0,1-.794-.309,1.126,1.126,0,0,1-.294-.794Zm.382-.029a.859.859,0,0,0,.191.588.643.643,0,0,0,.529.235.688.688,0,0,0,.544-.221.874.874,0,0,0,.191-.6.94.94,0,0,0-.191-.618.657.657,0,0,0-.53-.221.673.673,0,0,0-.544.235.926.926,0,0,0-.191.6Zm2.5,1.088v-2.177h.721a.859.859,0,0,1,.515.132.423.423,0,0,1,.191.368.547.547,0,0,1-.118.324.558.558,0,0,1-.309.191h0a.65.65,0,0,1,.382.162.467.467,0,0,1,.147.368.551.551,0,0,1-.221.456.89.89,0,0,1-.574.176h-.735Zm.368-1.9v.632h.265a.559.559,0,0,0,.324-.088.314.314,0,0,0,.118-.25c0-.191-.147-.294-.427-.294h-.279Zm0,.912v.706h.338a.467.467,0,0,0,.338-.1.323.323,0,0,0,.118-.265c0-.235-.162-.353-.5-.353h-.294Zm3.736.985h-.4l-.221-.574h-.927l-.206.574h-.4l.868-2.177h.4l.883,2.177Zm-.721-.838-.324-.868a.394.394,0,0,1-.029-.162h-.015a.521.521,0,0,1-.044.162l-.324.868Zm2.545.838h-1.265v-2.177h.353v1.9h.9v.279Z" transform="translate(-190.797 -126.573)" fill="#00aeef" fill-rule="evenodd"/>
      <path id="Path_90931" data-name="Path 90931" d="M457.133,366.877h-.4l-.221-.574h-.927l-.206.574H455l.868-2.177h.4l.868,2.177Zm-.706-.838-.324-.868a.393.393,0,0,1-.029-.162h-.015a.522.522,0,0,1-.044.162l-.324.868Z" transform="translate(-272.933 -126.828)" fill="#00aeef" fill-rule="evenodd"/>
      <path id="Path_90932" data-name="Path 90932" d="M471.891,364.994h-.662v1.883h-.368v-1.883H470.2V364.7h1.691Z" transform="translate(-285.897 -126.828)" fill="#00aeef" fill-rule="evenodd"/>
      <path id="Path_90933" data-name="Path 90933" d="M486.965,366.877H485.7V364.7h.368v1.9h.9Z" transform="translate(-299.117 -126.828)" fill="#00aeef" fill-rule="evenodd"/>
      <path id="Path_90934" data-name="Path 90934" d="M499.247,366.877h-.4l-.221-.574H497.7l-.206.574h-.4l.868-2.177h.4l.883,2.177Zm-.721-.838-.324-.868a.393.393,0,0,1-.029-.162h-.015a.521.521,0,0,1-.044.162l-.324.868Z" transform="translate(-308.84 -126.828)" fill="#00aeef" fill-rule="evenodd"/>
      <path id="Path_90935" data-name="Path 90935" d="M517.442,366.962h-.4l-1.1-1.6a.551.551,0,0,1-.088-.147h-.015a1.709,1.709,0,0,1,.015.324v1.441H515.5V364.8h.427L517,366.374c.044.074.088.132.1.162h.015a1.782,1.782,0,0,1-.015-.309V364.8h.353v2.162Z" transform="translate(-324.534 -126.914)" fill="#00aeef" fill-rule="evenodd"/>
      <path id="Path_90936" data-name="Path 90936" d="M534.491,364.994h-.677v1.883h-.353v-1.883H532.8V364.7h1.691Z" transform="translate(-339.289 -126.828)" fill="#00aeef" fill-rule="evenodd"/>
      <path id="Path_90937" data-name="Path 90937" d="M556.965,366.533a1.416,1.416,0,0,1-.647.118,1.138,1.138,0,0,1-.809-.294,1.053,1.053,0,0,1-.309-.794,1.142,1.142,0,0,1,.338-.838,1.176,1.176,0,0,1,.868-.324,1.538,1.538,0,0,1,.559.088v.338a1.1,1.1,0,0,0-.544-.132.776.776,0,0,0-.6.235.893.893,0,0,0-.235.618.811.811,0,0,0,.221.588.776.776,0,0,0,.574.221,1.129,1.129,0,0,0,.588-.147v.324Z" transform="translate(-358.395 -126.573)" fill="#00aeef" fill-rule="evenodd"/>
      <path id="Path_90938" data-name="Path 90938" d="M577.765,366.533a1.416,1.416,0,0,1-.647.118,1.138,1.138,0,0,1-.809-.294,1.052,1.052,0,0,1-.309-.794,1.142,1.142,0,0,1,.338-.838,1.176,1.176,0,0,1,.868-.324,1.538,1.538,0,0,1,.559.088v.338a1.1,1.1,0,0,0-.544-.132.777.777,0,0,0-.6.235.894.894,0,0,0-.235.618.811.811,0,0,0,.221.588.776.776,0,0,0,.574.221,1.129,1.129,0,0,0,.588-.147v.324Zm.5-.971a1.18,1.18,0,0,1,.309-.838,1.131,1.131,0,0,1,.824-.324,1.019,1.019,0,0,1,.78.309,1.126,1.126,0,0,1,.294.794,1.18,1.18,0,0,1-.309.838,1.1,1.1,0,0,1-.809.324,1.075,1.075,0,0,1-.794-.309,1.126,1.126,0,0,1-.294-.794Zm.382-.029a.859.859,0,0,0,.191.588.644.644,0,0,0,.53.235.688.688,0,0,0,.544-.221.874.874,0,0,0,.191-.6.94.94,0,0,0-.191-.618.657.657,0,0,0-.53-.221.673.673,0,0,0-.544.235.926.926,0,0,0-.191.6Zm4.6,1.088v-1.4c0-.118,0-.265.015-.441h-.015a1.533,1.533,0,0,1-.074.235l-.706,1.6h-.235l-.706-1.589a1.961,1.961,0,0,1-.074-.25h-.015a4.577,4.577,0,0,1,.015.471v1.368h-.338v-2.177h.5l.632,1.441a2.359,2.359,0,0,1,.1.279h.015c.015-.059.059-.147.1-.279l.633-1.441h.485v2.177Zm1.544-.794v.794h-.353v-2.177h.706a.921.921,0,0,1,.6.177.588.588,0,0,1,.206.5.656.656,0,0,1-.25.53.94.94,0,0,1-.618.191H584.8Zm0-1.1v.824h.25c.338,0,.515-.147.515-.427s-.162-.4-.5-.4Zm3.427,1.9h-.4l-.221-.574h-.927l-.206.574h-.4l.868-2.177h.4l.883,2.177Zm-.721-.838-.324-.868a.394.394,0,0,1-.029-.162h-.015a.521.521,0,0,1-.044.162l-.324.868Zm3.221.838h-.4l-1.1-1.6a.552.552,0,0,1-.088-.147h-.015a1.709,1.709,0,0,1,.015.324v1.441h-.353v-2.177h.427l1.074,1.574c.044.074.088.132.1.162h.015a1.8,1.8,0,0,1-.015-.309v-1.427h.353v2.162Zm2.412-2.177-.765,1.383v.794h-.353v-.794l-.735-1.4h.412l.471.927s.015.044.059.147h0a.618.618,0,0,1,.059-.147l.485-.927h.368Z" transform="translate(-376.135 -126.573)" fill="#00aeef" fill-rule="evenodd"/>
      <path id="Path_90939" data-name="Path 90939" d="M548.2,364.7h.353v2.177H548.2Z" transform="translate(-352.424 -126.828)" fill="#00aeef" fill-rule="evenodd"/>
    </g>
  </g>
</svg>
