<svg xmlns="http://www.w3.org/2000/svg" xmlns:xlink="http://www.w3.org/1999/xlink" width="82" height="38" viewBox="0 0 82 38">
  <defs>
    <clipPath id="clip-_63126">
      <rect width="82" height="38"/>
    </clipPath>
  </defs>
  <g id="_63126" data-name="63126" clip-path="url(#clip-_63126)">
    <g id="american-national-insurance-seeklogo.com_Converted_" data-name="american-national-insurance-seeklogo.com [Converted]" transform="translate(-58.411 -141.85)">
      <path id="Path_90940" data-name="Path 90940" d="M105.246,158.707h-.158c-.088.667-.158,1.317-.263,2,.088.141.158.263.246.422a10.872,10.872,0,0,1,.527,1c-.738-.088-1.458-.193-2.2-.263-.193.263-.351.509-.527.773-.035.053-.141.246-.193.263-.193-.316-.369-.615-.562-.931-.246-.053-.509-.141-.738-.193-.141.035-.263.053-.4.088-.246.053-.474.105-.72.141a3.5,3.5,0,0,1-.826.141h-.457a8.869,8.869,0,0,0-.931-.211c-.088,0-.193-.035-.263-.035a3.947,3.947,0,0,0-.422-.053.733.733,0,0,0-.141.105c-.053.053-.141.105-.193.158-.105.193-.211.4-.316.58a2.193,2.193,0,0,1-.141.211c-.211-.316-.422-.632-.632-.931h-2c0-.158-.035-.3-.035-.457.211-.211.422-.4.632-.615-.088-.615-.158-1.212-.246-1.792-.053-.351,0-.58-.246-.773a2.933,2.933,0,0,1-.053.9,1.53,1.53,0,0,1-.562.79c-.141.105-.246.246-.369.351a1.282,1.282,0,0,1-1.142.4,3.682,3.682,0,0,1-1.317-.72,2.226,2.226,0,0,1-.4.211c-.193.105-.369.193-.58.3a2.43,2.43,0,0,1-.474.246,1.312,1.312,0,0,1-.826-.035c-.351-.158-.509-.474-.773-.685-.263.193-.527.369-.826.562a3.253,3.253,0,0,1-.58.369,1.21,1.21,0,0,1-.9-.035,1.844,1.844,0,0,1-.369-.211,3.841,3.841,0,0,1-.615-.773c-.053-.088-.105-.158-.158-.246a.034.034,0,0,0-.035.035c-.105.211-.474.351-.72.457q-.4.158-.738.316a2.063,2.063,0,0,1-.527.211,1.441,1.441,0,0,1-1-.141,3.821,3.821,0,0,1-.878-1.229l-.158.316a4.675,4.675,0,0,1-.369.58,2.674,2.674,0,0,1-1.37.615c-.3.088-.615.158-.9.246a1.4,1.4,0,0,1-1.054-.263,1.154,1.154,0,0,1-.422-.773c-.035-.193-.035-.4-.053-.58-.053.088-.141.193-.193.263a2.21,2.21,0,0,1-.509.562,5.427,5.427,0,0,1-.948.509,10.738,10.738,0,0,1-1.3.562,1.5,1.5,0,0,1-1.036,0c-.509-.211-.632-.773-.79-1.352a3.707,3.707,0,0,1-.105-.509c-.3.246-.58.474-.878.72-.4.158-.826.3-1.212.457-.193.088-.369.141-.562.211-.035.035-.158.088-.193.053-.105-.193-.246-.351-.351-.527v-1c4.127-4.04,8.22-8.062,12.347-12.1,2.564-.369,5.146-.72,7.711-1.089.316.211.632.457.948.667.509.351.984.667,1.475,1,.316.246.667.457.984.685.158.053.316.141.474.193.3.105.562.246.843.351.457-.105.878-.211,1.317-.351.3-.158.615-.316.9-.474.4-.211.79-.4,1.194-.615.351-.263.685-.562,1.036-.826.826-.632,1.616-1.3,2.424-1.95a6.452,6.452,0,0,1,.509-.4l1.107-.79c.246-.158.457-.351.685-.509.158-.035.316-.053.474-.088.351-.088.685-.105,1.054-.193.211-.035.4-.053.615-.105l1.9.79a1.559,1.559,0,0,0,.667.141h.667a1.541,1.541,0,0,0,.263.211c.141.105.263.193.4.3.158.351.316.667.457,1h-1.686c-.211.141-.4.263-.615.4-.193.105-.351.211-.527.316-.158.158-.316.3-.474.457-.105.088-.211.193-.3.263-.088.158-.141.3-.211.457-.105.193-.193.4-.3.58.035.105.053.211.088.316a1.229,1.229,0,0,1,.053.246c.158.105.316.193.474.3.246.158.474.3.72.457h1.405c1.423-.9,2.88-1.827,4.3-2.722,2.652.369,5.252.72,7.9,1.089,1.107,1.089,2.248,2.16,3.355,3.249,1.317,1.265,2.652,2.564,3.969,3.829.246.246.474.457.72.685a4.777,4.777,0,0,1,.422.422,4.976,4.976,0,0,1,.527.527c.369.4.773.79,1.142,1.194.685.72,1.37,1.423,2.055,2.16v.984a6.032,6.032,0,0,0-.211.685c-.562-.211-1.107-.474-1.669-.72-.246-.105-.474-.211-.685-.3-.193-.211-.369-.422-.58-.632-.053.193-.088.369-.141.562-.158.615-.3,1.142-.826,1.37a1.87,1.87,0,0,1-1.352-.141c-.4-.158-.773-.351-1.142-.509a4.154,4.154,0,0,1-.826-.457,2.591,2.591,0,0,1-.457-.527c-.053-.088-.141-.193-.193-.263-.035.72-.193,1.194-.667,1.458a1.642,1.642,0,0,1-.9.158q-.448-.132-.843-.211a4.022,4.022,0,0,1-1.265-.474,2.383,2.383,0,0,1-.527-.72c-.053-.105-.141-.246-.193-.351-.053.105-.141.246-.193.351a2.211,2.211,0,0,1-.72.878,1.319,1.319,0,0,1-.984.105,3.416,3.416,0,0,1-.509-.211c-.263-.105-.509-.211-.773-.316a1.618,1.618,0,0,1-.773-.509h-.035c-.105.141-.193.263-.3.422-.3.4-.457.72-1,.843a1.409,1.409,0,0,1-.474.035.642.642,0,0,0-.263-.053,3.12,3.12,0,0,1-.474-.3c-.316-.211-.615-.422-.931-.632-.263.211-.422.527-.738.685a1.367,1.367,0,0,1-.878.053,2.292,2.292,0,0,1-.457-.246c-.14-.088-.3-.141-.422-.211-.193-.105-.369-.211-.562-.3a2.2,2.2,0,0,0-.211.158c-.158.088-.3.158-.457.263a1.774,1.774,0,0,1-.738.316,1.2,1.2,0,0,1-1-.369,4.712,4.712,0,0,0-.457-.4c0-.386-.211-.7-.211-1.335" transform="translate(-0.364 -0.865)" fill="none"/>
      <path id="Path_90941" data-name="Path 90941" d="M349.35,201.918l2.933,5.6a.689.689,0,0,0,.369.3c.141.053,1.528.4,1.528.4.351.035.509-.088.527-.369.053-.351.141-1.37.141-1.37a1.021,1.021,0,0,0-.158-.738c-.211-.193-3.653-4.918-3.653-4.918-.088-.088-.158-.088-.158.088s-.088.878-.088.878,0,.211-.105.263a.536.536,0,0,1-.4,0c-.141-.035-.826-.246-.826-.246s-.158-.035-.105.105" transform="translate(-232.453 -48.572)" fill="#000101"/>
      <path id="Path_90942" data-name="Path 90942" d="M332.645,210.032,334.067,214c.088.141.158.3.3.351s1.317.58,1.317.58a.5.5,0,0,0,.562-.141c.141-.193.685-1.159.685-1.159a.518.518,0,0,0-.035-.509c-.088-.141-1.721-3.618-1.721-3.618-.053-.105-.158-.105-.193-.035-.035.088-.422.738-.422.738a.623.623,0,0,1-.158.193c-.088.035-.246-.053-.457-.105s-1.212-.4-1.212-.4-.141.035-.088.141" transform="translate(-218.682 -55.703)" fill="#000101"/>
      <path id="Path_90943" data-name="Path 90943" d="M315.476,214.262c.193.105,1,.562,1,.562a.346.346,0,0,0,.4-.088c.088-.105.527-.738.527-.738.053-.088.193-.035.246.105s1.142,3.2,1.142,3.2a.408.408,0,0,1,0,.351c-.088.105-.773,1.107-.773,1.107a.492.492,0,0,1-.632.105c-.246-.193-.948-.685-.948-.685a.849.849,0,0,1-.246-.351c-.035-.141-.9-3.46-.9-3.46,0-.123.07-.176.176-.105" transform="translate(-204.393 -59.441)" fill="#000101"/>
      <path id="Path_90944" data-name="Path 90944" d="M299.793,215.91s.878.562,1,.615c.105.053.193.105.263.035.088-.088.4-.369.509-.457s.246.053.246.141c.035.088.738,2.933.738,3.021a.272.272,0,0,1-.035.3c-.105.141-.58.615-.667.72a.317.317,0,0,1-.422,0c-.158-.105-.948-.509-1.089-.58-.141-.088-.246-.158-.263-.316-.035-.193-.457-3.2-.474-3.284,0-.193.105-.246.193-.193" transform="translate(-191.451 -61.036)" fill="#000101"/>
      <path id="Path_90945" data-name="Path 90945" d="M286.87,214.914l.474,3.653c.035.105-.105.246-.193.3l-.667.4c-.193.105-.3.141-.474.035a8.1,8.1,0,0,1-.685-.632.458.458,0,0,1-.158-.316c0-.141,0-1-.035-1.616a13.2,13.2,0,0,0-.193-1.669c-.035-.105,0-.263.105-.158a7.116,7.116,0,0,0,.632.457c.105.053.193.141.369-.035.193-.158.58-.422.632-.474.123-.053.176-.035.193.053" transform="translate(-179.353 -60.163)" fill="#000101"/>
      <path id="Path_90946" data-name="Path 90946" d="M201.948,214.914l-.474,3.653c-.035.105.105.246.193.3l.667.4c.193.105.3.141.474.035a8.1,8.1,0,0,0,.685-.632.458.458,0,0,0,.158-.316c0-.141,0-1,.035-1.616a13.183,13.183,0,0,1,.193-1.669c.035-.105,0-.263-.105-.158a7.121,7.121,0,0,1-.632.457c-.105.053-.193.141-.369-.035-.193-.158-.58-.422-.632-.474-.123-.053-.176-.035-.193.053" transform="translate(-110.555 -60.163)" fill="#000101"/>
      <path id="Path_90947" data-name="Path 90947" d="M186.422,215.91s-.878.562-1,.615c-.105.053-.193.105-.263.035-.088-.088-.4-.369-.509-.457s-.246.053-.246.141c-.035.088-.738,2.933-.738,3.021a.272.272,0,0,0,.035.3c.088.141.58.615.667.72a.317.317,0,0,0,.422,0c.158-.105.948-.509,1.089-.58.141-.088.246-.158.263-.316.035-.193.457-3.2.474-3.284,0-.193-.105-.246-.193-.193" transform="translate(-95.855 -61.036)" fill="#000101"/>
      <path id="Path_90948" data-name="Path 90948" d="M168.052,214.262c-.193.105-1,.562-1,.562a.346.346,0,0,1-.4-.088c-.088-.105-.527-.738-.527-.738-.053-.088-.193-.035-.246.105-.053.088-1.159,3.179-1.159,3.179a.408.408,0,0,0,0,.351c.088.105.773,1.107.773,1.107a.492.492,0,0,0,.632.105c.246-.193.984-.685.984-.685a.849.849,0,0,0,.246-.351c.035-.141.9-3.46.9-3.46-.018-.105-.088-.158-.193-.088" transform="translate(-80.224 -59.441)" fill="#000101"/>
      <path id="Path_90949" data-name="Path 90949" d="M147.147,210.032,145.724,214c-.088.141-.158.3-.3.351s-1.317.58-1.317.58a.492.492,0,0,1-.562-.141c-.141-.193-.685-1.159-.685-1.159a.518.518,0,0,1,.035-.509c.088-.141,1.721-3.618,1.721-3.618.053-.105.141-.105.193-.035.035.088.4.738.4.738a.623.623,0,0,0,.158.193c.088.035.246-.053.422-.105.211-.053,1.212-.4,1.212-.4s.193.035.141.141" transform="translate(-62.199 -55.703)" fill="#000101"/>
      <path id="Path_90950" data-name="Path 90950" d="M124.939,201.836l-2.933,5.6a.688.688,0,0,1-.369.3c-.141.053-1.528.4-1.528.4-.351.035-.509-.088-.527-.369-.053-.351-.141-1.37-.141-1.37a1.021,1.021,0,0,1,.158-.738c.158-.176,3.618-4.935,3.618-4.935.088-.088.158-.088.158.088s.088.878.088.878,0,.211.105.263a.581.581,0,0,0,.422,0c.105-.035.826-.246.826-.246s.176-.018.123.123" transform="translate(-42.925 -48.49)" fill="#000101"/>
      <path id="Path_90951" data-name="Path 90951" d="M339.52,174.293l2.424,2.055a2.689,2.689,0,0,0,.422.246c.211.088,1.247.457,1.247.457.105.035.158-.053.141-.158-.053-.105-.211-1.089-.263-1.142a.38.38,0,0,0-.211-.193l-3.091-1.827c-.053-.035-.088-.088-.141-.035-.053.035-.422.422-.509.509.018-.018-.07.035-.018.088" transform="translate(-224.345 -26.233)" fill="#000101"/>
      <path id="Path_90952" data-name="Path 90952" d="M333.266,179.775l2.143,3.074a.5.5,0,0,0,.211.158c.088.035.948.316.948.316a.225.225,0,0,0,.246-.105c.035-.088.141-1.089.141-1.159,0-.088,0-.158-.088-.211-.053-.053-2.863-2.617-2.863-2.617-.053-.035-.105-.088-.158-.035s-.4.316-.562.457a.133.133,0,0,0-.018.123" transform="translate(-219.198 -30.767)" fill="#000101"/>
      <path id="Path_90953" data-name="Path 90953" d="M322.412,184.672l1.581,3.091c.035.088.053.105.193.158s1.159.316,1.159.316a.15.15,0,0,0,.211-.088c.035-.088.457-.9.457-.9a.274.274,0,0,0-.035-.3c-.088-.088-2.09-3.179-2.09-3.179-.053-.053-.088-.105-.158-.035-.105.088-1.054.632-1.247.72-.053.053-.123.105-.07.211" transform="translate(-210.241 -34.505)" fill="#000101"/>
      <path id="Path_90954" data-name="Path 90954" d="M309.949,190.647l.9,2.722a.256.256,0,0,0,.141.158c.088.035.948.457.948.457a.343.343,0,0,0,.3-.088c.053-.053.615-.9.615-.9a.383.383,0,0,0,.035-.263c-.035-.053-1.247-2.67-1.247-2.67-.035-.053-.105-.141-.158-.105a8.261,8.261,0,0,1-1.405.474c-.105.053-.158.141-.123.211" transform="translate(-199.973 -39.655)" fill="#000101"/>
      <path id="Path_90955" data-name="Path 90955" d="M298.6,197.42s-.931-.369-1-.4c-.088-.035-.053-.053-.088-.105l-.509-2.7c0-.035.035-.053.105-.088a14.008,14.008,0,0,0,1.528-.263c.053-.035.105.035.141.053,0,0,.773,2.529.79,2.617a.2.2,0,0,1-.053.211s-.632.58-.685.615a.2.2,0,0,1-.228.07" transform="translate(-189.307 -42.862)" fill="#000101"/>
      <path id="Path_90956" data-name="Path 90956" d="M280.17,196.035a14.276,14.276,0,0,0,2.266-.035c.088,0,.105.105.105.105s.351,2.09.351,2.143.035.158-.053.211-.667.422-.826.527-.263.088-.316.035c-.053-.035-.79-.422-.843-.474a.555.555,0,0,1-.088-.105l-.667-2.3c.018.053-.018-.105.07-.105" transform="translate(-175.376 -44.639)" fill="#000101"/>
      <path id="Path_90957" data-name="Path 90957" d="M206.89,196.035a14.276,14.276,0,0,1-2.266-.035c-.088,0-.105.105-.105.105s-.351,2.09-.351,2.143-.035.158.053.211.667.422.826.527.263.088.316.035c.053-.035.79-.422.843-.474a.557.557,0,0,0,.088-.105l.667-2.3c-.018.053.018-.105-.07-.105" transform="translate(-112.774 -44.639)" fill="#000101"/>
      <path id="Path_90958" data-name="Path 90958" d="M189.5,197.42s.931-.369,1-.4c.088-.035.053-.053.088-.105l.509-2.7c0-.035-.035-.053-.105-.088a14.007,14.007,0,0,1-1.528-.263c-.053-.035-.105.035-.141.053,0,0-.773,2.529-.79,2.617a.2.2,0,0,0,.053.211s.632.58.685.615a.2.2,0,0,0,.228.07" transform="translate(-99.88 -42.862)" fill="#000101"/>
      <path id="Path_90959" data-name="Path 90959" d="M176.384,190.647l-.9,2.722a.256.256,0,0,1-.141.158c-.088.035-.948.457-.948.457a.343.343,0,0,1-.3-.088c-.053-.053-.615-.9-.615-.9a.383.383,0,0,1-.035-.263c.035-.053,1.247-2.67,1.247-2.67.035-.053.105-.141.158-.105a8.262,8.262,0,0,0,1.405.474c.105.053.158.141.123.211" transform="translate(-87.449 -39.655)" fill="#000101"/>
      <path id="Path_90960" data-name="Path 90960" d="M160.665,184.672l-1.581,3.091c-.035.088-.053.105-.193.158s-1.159.316-1.159.316a.15.15,0,0,1-.211-.088c-.035-.088-.457-.9-.457-.9a.274.274,0,0,1,.035-.3c.088-.088,2.09-3.179,2.09-3.179.053-.053.088-.105.158-.035a13.514,13.514,0,0,0,1.265.72c.035.053.105.105.053.211" transform="translate(-73.927 -34.505)" fill="#000101"/>
      <path id="Path_90961" data-name="Path 90961" d="M149.588,179.775l-2.143,3.074a.5.5,0,0,1-.211.158c-.088.035-.948.316-.948.316a.225.225,0,0,1-.246-.105c-.035-.088-.141-1.089-.141-1.159,0-.088,0-.158.088-.211.053-.053,2.863-2.617,2.863-2.617.053-.035.105-.088.158-.035s.4.316.562.457a.133.133,0,0,1,.018.123" transform="translate(-64.746 -30.767)" fill="#000101"/>
      <path id="Path_90962" data-name="Path 90962" d="M140.717,174.293l-2.424,2.055a2.689,2.689,0,0,1-.422.246c-.211.088-1.247.457-1.247.457-.105.035-.158-.053-.141-.158.053-.105.193-1.089.246-1.142a.38.38,0,0,1,.211-.193l3.091-1.827c.053-.035.088-.088.141-.035a6.959,6.959,0,0,1,.527.509c-.018-.018.07.035.018.088" transform="translate(-56.982 -26.233)" fill="#000101"/>
      <path id="Path_90963" data-name="Path 90963" d="M105.058,149.517a4.7,4.7,0,0,1-1.089.053c-.158,0-.211.088-.246.263-.035.193-.193,1.194-.211,1.37-.035.193-.141.246-.351.14a5.378,5.378,0,0,1-.738-.562.228.228,0,0,0-.351.053c-.105.158-.562.948-.667,1.159-.141.211-.246.193-.369.053a10.167,10.167,0,0,1-.58-.984c-.088-.141-.193-.193-.351-.035s-.738.948-.878,1.107-.263.105-.369-.053c-.105-.193-.316-.984-.369-1.107a.191.191,0,0,0-.316-.105c-.158.088-.931.826-1.089.948-.158.105-.211.035-.3-.158a7.384,7.384,0,0,1-.246-1.036c-.035-.193-.088-.246-.3-.263-.211-.035-1.3-.105-1.563-.141-.246-.035-.158-.105-.035-.316a10.4,10.4,0,0,1,1.142-1.054c.158-.105.088-.211-.035-.263-.105-.053-1.089-.509-1.159-.58-.105-.088.088-.246.3-.4a12.335,12.335,0,0,1,1.317-.615,1.987,1.987,0,0,0,.685-.509c.246-.246,1.458-1.37,2.529-2.213l.105-.088A7.034,7.034,0,0,1,102.6,142.4a3.2,3.2,0,0,1,2.424.369l.088.088a1.078,1.078,0,0,0,.422.3,1.152,1.152,0,0,0,.4.035,4.8,4.8,0,0,1,.878.088,1.188,1.188,0,0,1,.878.843,2.755,2.755,0,0,0-.509.035h-.105a3.662,3.662,0,0,0-2.037.773,3.75,3.75,0,0,0-1.3,1.985.827.827,0,0,0,.211.843l.105.105c.193.193.9,1.054,1.036,1.247.176.193.263.351-.035.4m-.632,9.414a.833.833,0,0,1-.158.615c-.105.105-.351.035-.509,0-.141-.035-.316,0-.422-.141a.924.924,0,0,0-.826-.457h-.158a.854.854,0,0,0-.826.457c-.105.141-.263.105-.422.141-.141.035-.4.088-.509,0a.862.862,0,0,1-.158-.615c-.035-2.863.878-5.392,1.985-5.392,1.124,0,2.02,2.547,2,5.392m.316,1.9a8.03,8.03,0,0,0-1.159-.141c-.422.035-.79.105-.843.263a3.2,3.2,0,0,1-.211.562.106.106,0,0,1-.141,0,2.379,2.379,0,0,1-.211-.562c-.053-.158-.369-.3-.826-.3-.369,0-.948.141-1.194.141-.211.035,0-.3.141-.369a4.258,4.258,0,0,1,1.107-.3,1.314,1.314,0,0,0,.58-.369.541.541,0,0,1,.457-.211h.035a.655.655,0,0,1,.457.211.819.819,0,0,0,.58.369,4.258,4.258,0,0,1,1.107.3c.123.088.369.422.123.4m-6.007,0a6.363,6.363,0,0,0-1.194-.141c-.457.035-.738.141-.826.3a3.2,3.2,0,0,1-.211.562.106.106,0,0,1-.141,0,2.378,2.378,0,0,1-.211-.562c-.053-.158-.4-.263-.843-.263a8.722,8.722,0,0,0-1.159.141c-.211.035,0-.3.141-.369a4.258,4.258,0,0,1,1.107-.3,1.127,1.127,0,0,0,.58-.369.541.541,0,0,1,.457-.211h.035a.656.656,0,0,1,.457.211.819.819,0,0,0,.58.369,4.258,4.258,0,0,1,1.107.3c.105.018.334.351.123.334m-2.266-7.289h0c1.089,0,2,2.564,1.985,5.392a.833.833,0,0,1-.158.615c-.105.105-.351.035-.509,0-.141-.035-.316,0-.422-.141a.924.924,0,0,0-.826-.457h-.158a.854.854,0,0,0-.826.457c-.105.141-.263.105-.422.141-.141.035-.4.088-.509,0a.862.862,0,0,1-.158-.615c0-2.845.9-5.392,2-5.392m34.689,4.619c-.474-.474-11.241-11.153-11.469-11.4a2.021,2.021,0,0,0-.984-.562c-.3-.053-6.955-.948-7.271-.984a1.514,1.514,0,0,0-.931.211l-.035.035c-.141.088-3.021,2-3.3,2.213-.263.193-.369.211-.457.211h-1.247a1.325,1.325,0,0,1-.984-.422l-.105-.105a.256.256,0,0,1-.053-.3,3.156,3.156,0,0,1,2.88-2.354h.105a1.323,1.323,0,0,1,.527,0c.211,0,.457.035.509-.035a.562.562,0,0,0,.035-.351v.018c-.316-1.159-.878-1.423-1.37-1.528-.3-.053-.685-.088-.948-.105a.689.689,0,0,1-.3-.035c-.035,0-.105-.088-.158-.141l-.105-.105a3.8,3.8,0,0,0-2.863-.509,7.424,7.424,0,0,0-3.337,1.9l-.105.088c-1.089.878-2.3,2-2.564,2.266a2.245,2.245,0,0,1-.562.4s-1.036.474-1.528.685a4.5,4.5,0,0,0-.773.474c-.105.088-.246.158-.316.211H92.236c-.088,0-.193-.035-.457-.211-.3-.193-3.179-2.108-3.3-2.213l-.035-.035a1.4,1.4,0,0,0-.931-.211c-.351-.035-7.008.878-7.289.931a2.235,2.235,0,0,0-.984.562c-.263.246-10.995,10.925-11.469,11.4a1.336,1.336,0,0,0-.4,1c.141,1.089.351,1.212.457,1.265a.473.473,0,0,0,.263.088,2.465,2.465,0,0,0,.9-.263,10.106,10.106,0,0,0,1.475-.773,10.183,10.183,0,0,0,.9-.9,1.218,1.218,0,0,1,.211-.193c.088,0,.105.105.105.141s.211.948.211.984c.088.246.105.351.211.457s.3.088.58-.035c.3-.105,1.51-.667,1.686-.773a1.089,1.089,0,0,0,.422-.369s4.918-6.867,5.023-7.026.035-.158-.088-.158c0,0-.58.088-.826.105-.246.035-.263-.088-.263-.3l.053-.984c0-.158-.105-.158-.246-.053-2.2,2.266-8.167,8.466-8.413,8.641a5.087,5.087,0,0,1-1.247.685c-.211.088-.667.316-.738.211a3.1,3.1,0,0,1-.193-.843c-.035-.193.088-.351.246-.562,3.864-3.829,11.206-11.153,11.452-11.346a1.253,1.253,0,0,1,.72-.422c1.932-.263,6.973-.948,7.219-.984a.8.8,0,0,1,.615.141c.193.141,3.021,2,3.284,2.2a1.3,1.3,0,0,0,.773.316s1.528,0,1.844.035a1.645,1.645,0,0,1,.527.211c.141.105.158.211.105.3a6.093,6.093,0,0,0-.457.58.332.332,0,0,1-.246.141H92.289a2.262,2.262,0,0,1-1.247-.369c-.615-.316-3.3-2.055-3.565-2.2a1.484,1.484,0,0,0-.878-.141l-2.16.211c-.211.035-.457.3-.211.527a13.291,13.291,0,0,0,2.758,1.633,25.437,25.437,0,0,0,4.3,1.51,8.7,8.7,0,0,0,2.863-.088c.246-.035.509-.035.58.053a.315.315,0,0,1,.035.369,17.075,17.075,0,0,0-1.265,5.638,7.979,7.979,0,0,0,.422,3.039.27.27,0,0,1-.105.193,2.691,2.691,0,0,0-.615.931c-.088.263-.141.527-.053.58s.826-.105,1.528-.158a3.591,3.591,0,0,1,.948,0c.088.053.141.088.158.193a2.8,2.8,0,0,0,.474.773.132.132,0,0,0,.158,0,3.227,3.227,0,0,0,.474-.773.353.353,0,0,1,.158-.193,2.937,2.937,0,0,1,.9-.035,10.061,10.061,0,0,0,1.405.193,10.061,10.061,0,0,0,1.405-.193,1.826,1.826,0,0,1,.9.035.353.353,0,0,1,.158.193,3.45,3.45,0,0,0,.474.773.132.132,0,0,0,.158,0,2.651,2.651,0,0,0,.474-.773.353.353,0,0,1,.158-.193,2.5,2.5,0,0,1,.948,0c.72.053,1.475.211,1.528.158.088-.053.035-.316-.053-.58a2.691,2.691,0,0,0-.615-.931.22.22,0,0,1-.105-.193,8.422,8.422,0,0,0,.422-3.039,17.883,17.883,0,0,0-1.265-5.638.29.29,0,0,1,.035-.369.75.75,0,0,1,.58-.053,8.7,8.7,0,0,0,2.863.088,23.047,23.047,0,0,0,4.3-1.51,14.331,14.331,0,0,0,2.758-1.633c.211-.211,0-.474-.211-.527l-2.16-.211a1.484,1.484,0,0,0-.878.14c-.263.158-2.968,1.879-3.565,2.2a2.639,2.639,0,0,1-1.317.369c-.246,0-.351-.053-.4-.193a9.749,9.749,0,0,0-.509-.843c-.141-.141-.105-.211,0-.211h1.159a1.3,1.3,0,0,0,.773-.316c.263-.193,3.074-2.055,3.284-2.2a.888.888,0,0,1,.615-.141c.246.035,5.287.72,7.219.984a1.831,1.831,0,0,1,.72.422c.211.211,7.588,7.5,11.452,11.346a.7.7,0,0,1,.246.562,2.915,2.915,0,0,1-.193.843c-.053.105-.527-.141-.738-.211a4.565,4.565,0,0,1-1.247-.685c-.246-.211-6.218-6.376-8.413-8.641-.105-.105-.246-.105-.246.053l.053.984c0,.193-.035.316-.263.3-.246-.035-.826-.105-.826-.105-.105-.035-.193,0-.088.158s5.023,7.026,5.023,7.026a1.677,1.677,0,0,0,.422.369c.193.105,1.405.667,1.686.773.3.105.474.141.58.035a.792.792,0,0,0,.211-.457c0-.035.211-.984.211-.984,0-.035.035-.141.105-.141.088,0,.211.193.211.193a8.18,8.18,0,0,0,.9.9,9.29,9.29,0,0,0,1.475.773,3.013,3.013,0,0,0,.9.263.431.431,0,0,0,.263-.088c.088-.053.316-.193.457-1.265a.847.847,0,0,0-.211-1.019" fill="#000101"/>
      <path id="Path_90964" data-name="Path 90964" d="M264.209,151.24a3,3,0,0,1,1.985-.422,1.035,1.035,0,0,1,.369.088c.053.053.035.141-.088.141-.141,0-.3-.035-.351.105s-.053.509-.369.615a.623.623,0,0,1-.685-.158.83.83,0,0,0-.615-.141c-.211,0-.351.035-.4-.035-.035-.035.018-.123.158-.193" transform="translate(-162.136 -7.379)" fill="#000101"/>
      <path id="Path_90965" data-name="Path 90965" d="M255.318,242.063a.759.759,0,0,0-.527-.263.667.667,0,0,0-.527.263,1.09,1.09,0,0,1-.632.422,4.266,4.266,0,0,0-1.247.316c-.141.088-.4.562-.158.527a6.652,6.652,0,0,1,1.352-.158c.509.035.843.035.931.211.088.193.193.562.246.615s.105.035.158,0a1.709,1.709,0,0,0,.246-.615c.088-.193.457-.193.948-.193a10.5,10.5,0,0,1,1.3.141c.263.035,0-.457-.158-.527a3.588,3.588,0,0,0-1.247-.316.944.944,0,0,1-.685-.422" transform="translate(-152.315 -82.395)" fill="none"/>
      <path id="Path_90966" data-name="Path 90966" d="M222.832,242.9a3.589,3.589,0,0,0-1.247-.316,1.016,1.016,0,0,1-.632-.422.759.759,0,0,0-.527-.263h-.035a.64.64,0,0,0-.527.263.984.984,0,0,1-.632.422,4.267,4.267,0,0,0-1.247.316c-.141.088-.4.562-.158.527a8.165,8.165,0,0,1,1.3-.141c.509.035.878,0,.948.193.088.193.193.562.246.615.053.035.105.053.158,0a1.709,1.709,0,0,0,.246-.615c.088-.193.422-.211.931-.211.422,0,1.089.141,1.352.158.211.035-.053-.439-.176-.527" transform="translate(-123.957 -82.477)" fill="none"/>
      <path id="Path_90967" data-name="Path 90967" d="M287.511,267.313a1.678,1.678,0,0,0-.369-.422,3.535,3.535,0,0,0-.509-.3,1.309,1.309,0,0,0-.58-.105,2.082,2.082,0,0,0-.931.211,1.829,1.829,0,0,0-.632.58,3.162,3.162,0,0,0-.351.826,3.494,3.494,0,0,0-.105.948,4.089,4.089,0,0,0,.105.931,3.438,3.438,0,0,0,.351.826,1.828,1.828,0,0,0,.632.58,1.967,1.967,0,0,0,.931.211,1.423,1.423,0,0,0,1.159-.474,2.133,2.133,0,0,0,.527-1.212h1.581a4.447,4.447,0,0,1-.316,1.265,3.642,3.642,0,0,1-.685.984,3.081,3.081,0,0,1-1,.615,3.535,3.535,0,0,1-1.265.211,3.763,3.763,0,0,1-1.528-.3,3.481,3.481,0,0,1-1.159-.826,3.522,3.522,0,0,1-.72-1.247,4.8,4.8,0,0,1-.246-1.528,5.024,5.024,0,0,1,.246-1.563,3.761,3.761,0,0,1,.72-1.265,3.142,3.142,0,0,1,1.159-.843,3.661,3.661,0,0,1,1.528-.316,3.215,3.215,0,0,1,1.159.193,3.774,3.774,0,0,1,.984.527,3.013,3.013,0,0,1,.72.843,2.8,2.8,0,0,1,.351,1.159h-1.581a1.468,1.468,0,0,0-.176-.509" transform="translate(-177.272 -101.602)" fill="#ee3124"/>
      <rect id="Rectangle_20698" data-name="Rectangle 20698" width="1.633" height="7.535" transform="translate(102.915 163.708)" fill="#ee3124"/>
      <path id="Path_90968" data-name="Path 90968" d="M233.672,269.707a1.183,1.183,0,0,0,.843-.263,1.049,1.049,0,0,0,.3-.826.969.969,0,0,0-.3-.79,1.3,1.3,0,0,0-.843-.246h-1.792v2.108h1.792Zm.58-3.407a2.331,2.331,0,0,1,.9.158,1.876,1.876,0,0,1,.685.457,1.965,1.965,0,0,1,.457.667,2.048,2.048,0,0,1,.158.79,2.287,2.287,0,0,1-.263,1.142,1.66,1.66,0,0,1-.9.738v.035a1.174,1.174,0,0,1,.509.263,1.07,1.07,0,0,1,.316.422,2.7,2.7,0,0,1,.193.527c.035.193.053.369.088.58,0,.105.035.263.035.422s.035.316.035.509c.035.158.053.316.088.474a1.761,1.761,0,0,0,.158.4h-1.633a2.484,2.484,0,0,1-.158-.843c-.035-.316-.053-.632-.105-.948a1.7,1.7,0,0,0-.351-.878,1.192,1.192,0,0,0-.9-.263h-1.633v2.933H230.3v-7.552h3.952Z" transform="translate(-134.322 -102.592)" fill="#ee3124"/>
      <path id="Path_90969" data-name="Path 90969" d="M199.985,266.3v1.405h-3.952v1.616h3.6v1.265h-3.6v1.844h4.022v1.405H194.4V266.3Z" transform="translate(-104.728 -102.592)" fill="#ee3124"/>
      <path id="Path_90970" data-name="Path 90970" d="M145.836,266.3l1.721,5.181h.018l1.651-5.181h2.318v7.535h-1.528V268.5h-.035l-1.827,5.339H146.89l-1.827-5.287h-.018v5.287H143.5V266.3Z" transform="translate(-62.768 -102.592)" fill="#ee3124"/>
      <path id="Path_90971" data-name="Path 90971" d="M106.167,270.919l-.931-2.758H105.2l-.984,2.758Zm-.105-4.619,2.775,7.535H107.15l-.562-1.669h-2.775l-.58,1.669H101.6l2.81-7.535Z" transform="translate(-28.227 -102.592)" fill="#ee3124"/>
      <path id="Path_90972" data-name="Path 90972" d="M364.333,314.5v6.13h3.618V322H362.7v-7.5Z" transform="translate(-243.468 -142.326)" fill="#005daa"/>
      <path id="Path_90973" data-name="Path 90973" d="M153.784,319.084l-.931-2.74h-.035l-.984,2.758h1.95ZM153.7,314.5l2.775,7.535h-1.686l-.562-1.669h-2.81l-.58,1.669H149.2l2.81-7.535Z" transform="translate(-67.467 -142.326)" fill="#005daa"/>
      <path id="Path_90974" data-name="Path 90974" d="M281.233,314.5l3.091,5.006h.035V314.5h1.528V322h-1.633l-3.091-5.023h-.035V322H279.6v-7.5Z" transform="translate(-174.964 -142.326)" fill="#005daa"/>
      <path id="Path_90975" data-name="Path 90975" d="M235.739,318.2a2.7,2.7,0,0,0,.351.79,1.829,1.829,0,0,0,.632.58,1.967,1.967,0,0,0,.931.211,2.082,2.082,0,0,0,.931-.211,1.829,1.829,0,0,0,.632-.58,2.96,2.96,0,0,0,.457-1.721,4.131,4.131,0,0,0-.105-.948,2.926,2.926,0,0,0-.351-.826,1.829,1.829,0,0,0-.632-.58,1.967,1.967,0,0,0-.931-.211,2.082,2.082,0,0,0-.931.211,1.829,1.829,0,0,0-.632.58,2.925,2.925,0,0,0-.351.826,3.494,3.494,0,0,0-.105.948,3.872,3.872,0,0,0,.105.931m-1.493-2.477a3.76,3.76,0,0,1,.72-1.265,3.142,3.142,0,0,1,1.159-.843,3.661,3.661,0,0,1,1.528-.316,3.493,3.493,0,0,1,1.528.316,3.227,3.227,0,0,1,1.142.843,3.6,3.6,0,0,1,.72,1.265,4.943,4.943,0,0,1,.246,1.563,4.724,4.724,0,0,1-.246,1.528,3.521,3.521,0,0,1-.72,1.247,3.184,3.184,0,0,1-1.142.826,3.545,3.545,0,0,1-1.528.3,3.763,3.763,0,0,1-1.528-.3,3.481,3.481,0,0,1-1.159-.826,3.521,3.521,0,0,1-.72-1.247,4.8,4.8,0,0,1-.246-1.528,4.491,4.491,0,0,1,.246-1.563" transform="translate(-137.373 -141.337)" fill="#005daa"/>
      <rect id="Rectangle_20699" data-name="Rectangle 20699" width="1.633" height="7.535" transform="translate(94.309 172.174)" fill="#005daa"/>
      <path id="Path_90976" data-name="Path 90976" d="M182.2,315.87V314.5h6.112v1.37h-2.231V322h-1.633v-6.13Z" transform="translate(-94.671 -142.326)" fill="#005daa"/>
      <path id="Path_90977" data-name="Path 90977" d="M322.849,319.084l-.931-2.758h-.035l-.984,2.758Zm-.088-4.584,2.775,7.535H323.85l-.562-1.669h-2.775l-.58,1.669H318.3l2.81-7.535Z" transform="translate(-206.866 -142.326)" fill="#005daa"/>
      <path id="Path_90978" data-name="Path 90978" d="M112.516,314.5l3.109,5.006h.035V314.5h1.528V322h-1.633l-3.091-5.023h-.035V322H110.9v-7.5Z" transform="translate(-35.894 -142.326)" fill="#005daa"/>
      <path id="Path_90979" data-name="Path 90979" d="M364.616,266.3l3.109,5.041V266.3h1.528v7.535h-1.6l-3.126-5.058v5.058H363V266.3Z" transform="translate(-243.715 -102.592)" fill="#ee3124"/>
      <path id="Path_90980" data-name="Path 90980" d="M325.384,270.919l-.931-2.758h-.035l-.984,2.758ZM325.3,266.3l2.775,7.535h-1.686l-.562-1.669h-2.81l-.58,1.669H320.8l2.81-7.535Z" transform="translate(-208.927 -102.592)" fill="#ee3124"/>
      <path id="Path_90981" data-name="Path 90981" d="M390.208,315.073c.088,0,.158,0,.193-.035a.125.125,0,0,0,.053-.105.336.336,0,0,0-.053-.141c-.035-.035-.105-.035-.193-.035h-.141v.316Zm.211.07.211.422h-.211l-.193-.4h-.193v.4h-.158v-.931h.351a.908.908,0,0,1,.3.053.268.268,0,0,1,.105.193.229.229,0,0,1-.053.158.173.173,0,0,1-.158.105m.527,0a1.773,1.773,0,0,0-.053-.3.688.688,0,0,0-.4-.4.568.568,0,0,0-.3-.053,1,1,0,0,0-.263.053.967.967,0,0,0-.246.158.489.489,0,0,0-.158.246.779.779,0,0,0-.053.263,1,1,0,0,0,.053.263.967.967,0,0,0,.158.246.489.489,0,0,0,.246.158.779.779,0,0,0,.263.053,1.773,1.773,0,0,0,.3-.053.967.967,0,0,0,.246-.158c.088-.053.105-.141.158-.246a.623.623,0,0,0,.053-.228m-.738-.843a1,1,0,0,1,.263.053,1.757,1.757,0,0,1,.246.141.97.97,0,0,1,.246.3.877.877,0,0,1,.088.369,1.985,1.985,0,0,1-.053.316.733.733,0,0,1-.193.263,1.973,1.973,0,0,1-.263.193.668.668,0,0,1-.316.053,1.979,1.979,0,0,1-.316-.053.734.734,0,0,1-.263-.193.926.926,0,0,1-.193-.263.668.668,0,0,1-.053-.316,1.169,1.169,0,0,1,.053-.263,1.755,1.755,0,0,1,.141-.246.97.97,0,0,1,.3-.246.49.49,0,0,1,.316-.105" transform="translate(-265.478 -142.161)" fill="#000101"/>
    </g>
  </g>
</svg>
