<svg xmlns="http://www.w3.org/2000/svg" xmlns:xlink="http://www.w3.org/1999/xlink" width="82" height="38" viewBox="0 0 82 38">
  <defs>
    <clipPath id="clip-_65676">
      <rect width="82" height="38"/>
    </clipPath>
  </defs>
  <g id="_65676" data-name="65676" clip-path="url(#clip-_65676)">
    <g id="layer1" transform="translate(43.586 -132.52)">
      <g id="g9893" transform="translate(-43.587 138.4)">
        <path id="path7483" d="M-30.89,153.421h.767v-2.439h1.988v-.677h-1.988V148.74h2.079v-.675H-30.89Z" transform="translate(56.821 -128.797)" fill="#231f20"/>
        <path id="path7487" d="M-29.009,148.758h.814v-.814h-.814Zm.046,4.787h.721v-3.913h-.721Z" transform="translate(58.742 -128.92)" fill="#231f20"/>
        <path id="path7499" d="M-28.007,152.738h.723v-1.812c0-.951.367-1.609,1.188-1.609.63.039.828.483.828,1.4v2.024h.721v-2.325c0-1.052-.452-1.68-1.465-1.68a1.412,1.412,0,0,0-1.282.714h-.014v-.623h-.7Z" transform="translate(59.765 -128.114)" fill="#231f20"/>
        <path id="path7503" d="M-23.263,151.218a.987.987,0,0,1-1.087,1.03.689.689,0,0,1-.728-.636c0-.692.965-.754,1.356-.754.154,0,.307.018.458.018Zm-2.1-1.5a1.842,1.842,0,0,1,1.136-.4c.721,0,.965.346.965,1.022-.282-.016-.482-.016-.767-.016-.742,0-1.817.309-1.817,1.291,0,.85.591,1.217,1.435,1.217a1.452,1.452,0,0,0,1.212-.6h.016v.508h.673a6.463,6.463,0,0,1-.029-.768v-1.62c0-1.066-.453-1.617-1.573-1.617a2.469,2.469,0,0,0-1.288.37Z" transform="translate(61.971 -128.114)" fill="#231f20"/>
        <path id="path7507" d="M-23.637,152.738h.721v-1.812c0-.951.367-1.609,1.187-1.609.632.039.829.483.829,1.4v2.024h.723v-2.325c0-1.052-.454-1.68-1.465-1.68a1.4,1.4,0,0,0-1.281.714h-.016v-.623h-.7Z" transform="translate(64.228 -128.114)" fill="#231f20"/>
        <path id="path7511" d="M-18.64,148.887a2.706,2.706,0,0,0-.875-.153,1.93,1.93,0,0,0-1.993,2.047,1.977,1.977,0,0,0,1.993,2.049,2.239,2.239,0,0,0,.906-.158l-.053-.647a1.505,1.505,0,0,1-.777.224,1.326,1.326,0,0,1-1.3-1.467,1.34,1.34,0,0,1,1.261-1.463,2.08,2.08,0,0,1,.782.17Z" transform="translate(66.403 -128.115)" fill="#231f20"/>
        <path id="path7515" d="M-18.858,147.944h-.812v.814h.812Zm-.769,5.6h.723v-3.913h-.723Z" transform="translate(68.28 -128.921)" fill="#231f20"/>
        <path id="path7519" d="M-16.212,151.218a.989.989,0,0,1-1.089,1.03.691.691,0,0,1-.729-.636c0-.692.965-.754,1.358-.754.152,0,.306.018.461.018Zm-2.1-1.5a1.831,1.831,0,0,1,1.134-.4c.723,0,.969.346.969,1.022-.285-.016-.485-.016-.767-.016-.745,0-1.818.309-1.818,1.291,0,.85.588,1.217,1.435,1.217a1.449,1.449,0,0,0,1.21-.6h.015v.508h.677a5.786,5.786,0,0,1-.034-.768v-1.62c0-1.066-.453-1.617-1.572-1.617a2.484,2.484,0,0,0-1.289.37Z" transform="translate(69.171 -128.114)" fill="#231f20"/>
        <path id="path7523" d="M-16.543,153.622h.719v-5.753h-.719Z" transform="translate(71.473 -128.998)" fill="#231f20"/>
        <path id="path7527" d="M-10.36,148.288a4.027,4.027,0,0,0-1.573-.267,2.668,2.668,0,0,0-2.831,2.745,2.638,2.638,0,0,0,2.825,2.791,4.933,4.933,0,0,0,1.634-.236v-2.784H-12.2v.628h1.124v1.624a3.018,3.018,0,0,1-.859.093,2,2,0,0,1-2.017-2.093,1.993,1.993,0,0,1,2.055-2.095,2.458,2.458,0,0,1,1.472.369Z" transform="translate(73.29 -128.843)" fill="#231f20"/>
        <path id="path7531" d="M-12.017,152.738h.72v-1.78c0-.983.421-1.6,1.067-1.6a1.062,1.062,0,0,1,.4.071v-.646a2.089,2.089,0,0,0-.476-.053,1.193,1.193,0,0,0-1.022.7h-.013v-.607h-.675Z" transform="translate(76.096 -128.114)" fill="#231f20"/>
        <path id="path7535" d="M-10,150.78a1.335,1.335,0,0,1,1.228-1.463,1.333,1.333,0,0,1,1.218,1.463,1.311,1.311,0,0,1-1.218,1.467A1.312,1.312,0,0,1-10,150.78m-.767,0a1.977,1.977,0,0,0,2,2.049,1.975,1.975,0,0,0,1.986-2.049,1.928,1.928,0,0,0-1.986-2.046,1.931,1.931,0,0,0-2,2.046" transform="translate(77.373 -128.115)" fill="#231f20"/>
        <path id="path7539" d="M-4.954,148.779h-.722v1.812c0,.949-.37,1.611-1.191,1.611-.627-.041-.825-.485-.825-1.4v-2.027h-.723V151.1c0,1.051.454,1.679,1.465,1.679a1.406,1.406,0,0,0,1.281-.713h.014v.622h.7Z" transform="translate(79.774 -128.068)" fill="#231f20"/>
        <path id="path7543" d="M-3.239,150.766c.016.614-.307,1.482-1.081,1.482-.813,0-1.152-.806-1.152-1.459,0-.727.377-1.472,1.161-1.472s1.089.745,1.072,1.449m-2.952,3.585h.719V152.2h.016a1.4,1.4,0,0,0,1.306.628c1.178,0,1.679-1.042,1.679-2.116a1.75,1.75,0,0,0-1.688-1.98,1.564,1.564,0,0,0-1.326.645H-5.5v-.553h-.691Z" transform="translate(82.045 -128.115)" fill="#231f20"/>
        <path id="path7547" d="M-41.542,138.92h18.925a2.179,2.179,0,0,1,2.178,2.177v19.531a2.178,2.178,0,0,1-2.178,2.176h-4.325c-.483-.419-1.06-.909-1.281-1.057-.3-.2-.546-.342-.41-.615.238-.475.459-1.092.623-1.038a10.934,10.934,0,0,1,1.148.274,1.481,1.481,0,0,0,.984-.164,2.567,2.567,0,0,0,.985-.928,1.805,1.805,0,0,0,.327-.382.61.61,0,0,0,.164-.384,1.716,1.716,0,0,0-.109-1.147,2.191,2.191,0,0,0-.819-.767c-.384-.164-.493-.273-.493-.546-.055-.218.437-.274.493-.656,0-.232-.13-.439-.357-.439v-.085c.2-.023.521-.131.466-.459a1.1,1.1,0,0,0-.272-.546s-.055-.327.108-.438c.219-.109.71,0,1.092-.054s.767-.109.767-.492c0-.6-.383-.983-.767-1.584s-.764-.983-.819-1.094a1.8,1.8,0,0,1-.069-.37s.344-.291.449-.391c.2-.19.437-.453.275-.78-.056-.163-.274-.163-.384-.327-.164-.165-.109-.493-.273-.657-.11-.163-.11-.492-.273-.764-.11-.327-.27-.878-.27-.878s.592-.381.646-.546a2.6,2.6,0,0,0,.228-1.134,1.629,1.629,0,0,0-.328-1.421,1.87,1.87,0,0,0-.6-.545,10.133,10.133,0,0,0-.874-.547,10.635,10.635,0,0,0-1.253-.4,1.516,1.516,0,0,0-.711-.165.894.894,0,0,1-.545,0,5.785,5.785,0,0,0-1.2-.163c-.326,0-.764.219-1.475.272-.709.11-1.311-.054-1.693.056-.383.164-.6.108-.82.219a2.813,2.813,0,0,1-.5.177s-.382.111-.545.163a4.3,4.3,0,0,1-.437.329l-.329.329a.894.894,0,0,0-.491.271l-.219.22a.811.811,0,0,0-.273.164,4.12,4.12,0,0,1-.437.491,2.966,2.966,0,0,0-.724.547,5.369,5.369,0,0,0-.875,1.093,4.637,4.637,0,0,0-.327.766,3.6,3.6,0,0,1-.273.818,5.987,5.987,0,0,0-.383.876c-.054.163-.054.71-.11.873a4.886,4.886,0,0,0-.273,1.313c0,.437.273.764.273.929a6.925,6.925,0,0,1,.164,1.256,10.97,10.97,0,0,0,.424,1.422,1.668,1.668,0,0,0,.275.492,2.194,2.194,0,0,0,.468.861,7.255,7.255,0,0,0,.819.888,1.753,1.753,0,0,1,.41.955,2,2,0,0,0-.615.205c-.109.164-.559,1.328-1.024,2.118-.441.75-1.224,1.5-1.275,1.83-.046.3.359.574.25.628-.063.033-.527.63-.906,1.125h-.323a2.178,2.178,0,0,1-2.177-2.176V141.1a2.178,2.178,0,0,1,2.177-2.177" transform="translate(43.719 -138.137)" fill="#960a2c"/>
        <path id="path7551" d="M-28.909,147.807c0,.791-.017,1.987-.054,2.908-.019.5-.13.811-1.584.811-.424,0-.424.111-.424.313,0,.165,0,.239.148.239.127,0,.2-.036,2.906-.036,7.2,0,6.631.036,6.833.036a.161.161,0,0,0,.183-.147c.315-1.859.7-3.37.7-3.46,0-.166-.034-.222-.384-.222-.165,0-.133.128-.257.515-.777,2.377-1.7,2.706-4.256,2.706-1.4,0-1.913-.091-1.935-.754-.035-.921-.053-2.117-.053-2.908V143.3c0-1.307.018-1.749.037-2.6.016-1.085.331-1.233,1.932-1.233.2,0,.2-.148.2-.314,0-.109-.036-.239-.166-.239s-1.748.073-2.925.073c-1.16,0-2.669-.073-2.816-.073-.13,0-.167.13-.167.239,0,.166,0,.314.2.314,1.51,0,1.823.148,1.84,1.233.02.847.037,1.289.037,2.6Z" transform="translate(56.719 -138.142)" fill="#960a2c"/>
        <path id="path7555" d="M-24.146,140.9a.978.978,0,0,0,.958-.975.978.978,0,0,0-.958-.976.979.979,0,0,0-.958.976.979.979,0,0,0,.958.975" transform="translate(62.73 -138.105)" fill="#960a2c"/>
        <path id="path7559" d="M-14.187,148.821a2.921,2.921,0,0,1-3.129-3.13c0-3.018,1.435-3.9,2.6-3.9.956,0,1.087.589,1.14.864.2,1.014.277,1.2.864,1.2a.952.952,0,0,0,.976-.792c0-.386-.476-1.748-3-1.748a4.065,4.065,0,0,0-4.18,4.38c0,2.633,1.675,4.161,3.812,4.161a4.146,4.146,0,0,0,3.219-1.565.392.392,0,0,0,.148-.275c0-.13-.22-.257-.273-.257-.094,0-.167.165-.315.293a3.366,3.366,0,0,1-1.859.774" transform="translate(69.047 -135.696)" fill="#960a2c"/>
        <path id="path7563" d="M-6.633,145.581a4.146,4.146,0,0,0-4.29-4.27,4.169,4.169,0,0,0-4.268,4.27,4.118,4.118,0,0,0,4.268,4.271,4.036,4.036,0,0,0,4.29-4.271m-1.753,0c0,1.564-.366,3.791-2.538,3.791-2.155,0-2.521-2.228-2.521-3.791,0-1.8.606-3.791,2.521-3.791,1.934,0,2.538,1.988,2.538,3.791" transform="translate(72.853 -135.696)" fill="#960a2c"/>
        <path id="path7567" d="M-22.713,144.036v3.976c0,1.049.037,1.27.847,1.27h1.158a.691.691,0,0,0,.755-.442,18.953,18.953,0,0,0,.11-2.651v-2.522c0-.642-.166-1.013-1.085-1.1-.149-.02-.168-.091-.168-.222,0-.146.056-.237.148-.257a8.229,8.229,0,0,0,2.576-.9c.038,0,.058.055.058.2,0,.109-.038.516-.038,1.327a5.566,5.566,0,0,1,2.889-1.271c.625,0,2.431.128,2.431,2.76v4.417c0,.314.056.665,1.2.665.185,0,.185.111.185.24,0,.11,0,.237-.258.237-.552,0-.885-.035-1.859-.035-1.492,0-1.788.035-1.932.035-.114,0-.13-.128-.13-.22a.238.238,0,0,1,.258-.257c.883,0,1.048-.073,1.048-.681v-3.3c0-1.711-.148-2.853-2.061-2.853a2.736,2.736,0,0,0-1.766.846v4.713c0,1.049.038,1.27.846,1.27.5,0,.536.018.536.24,0,.11,0,.237-.186.237-.091,0-2.556-.035-4.191-.035-1.665,0-4,.035-4.273.035-.149,0-.149-.109-.149-.2,0-.237.019-.274.7-.274a.689.689,0,0,0,.754-.442,18.52,18.52,0,0,0,.111-2.651v-2.522c0-.642-.167-1.013-1.087-1.1-.148-.02-.165-.091-.165-.222,0-.146.056-.237.149-.257a8.262,8.262,0,0,0,2.576-.9c.072,0,.111.091.111.2a16.523,16.523,0,0,0-.093,2.651" transform="translate(62.051 -135.826)" fill="#960a2c"/>
        <path id="path7571" d="M-8.122,141.385v9.333c0,1.05.038,1.271.849,1.271h.958a.686.686,0,0,0,.753-.442,18.369,18.369,0,0,0,.112-2.651v-2.522c0-.643-.165-1.013-1.086-1.1-.148-.02-.164-.092-.164-.221,0-.148.054-.238.145-.257a8.243,8.243,0,0,0,2.578-.9c.037,0,.056.054.056.2,0,.109-.037.516-.037,1.326a5.586,5.586,0,0,1,2.89-1.271c.625,0,2.429.128,2.429,2.761v4.417c0,.314.028.665,1.169.665.184,0,.184.11.184.24,0,.11,0,.237-.257.237-.553,0-.854-.035-1.829-.035-1.491,0-1.788.035-1.935.035-.112,0-.128-.128-.128-.22a.237.237,0,0,1,.259-.257c.883,0,1.05-.073,1.05-.681v-3.3c0-1.711-.15-2.853-2.063-2.853a2.734,2.734,0,0,0-1.768.846v4.713c0,1.05.037,1.271.847,1.271.5,0,.535.016.535.24,0,.11,0,.237-.183.237-.1,0-2.491-.035-4.082-.035s-3.91.035-4.1.035c-.146,0-.146-.109-.146-.2,0-.237.019-.275.7-.275a.641.641,0,0,0,.662-.442c.074-.166.11-2.6.11-3.388v-6.442c0-1.6-.054-1.823-1.067-1.914a.194.194,0,0,1-.166-.22c0-.148.056-.24.148-.259a14.76,14.76,0,0,0,2.56-.791c.072,0,.109.092.109.2a16.537,16.537,0,0,0-.093,2.651" transform="translate(77.047 -138.533)" fill="#960a2c"/>
        <path id="path7575" d="M-30.89,146.747H22.679v.384H-30.89Z" transform="translate(56.821 -130.143)" fill="#960a2c"/>
        <path id="path7635" d="M-4.114,149.511a.975.975,0,0,0,.975.976.976.976,0,0,0,.973-.976.975.975,0,0,0-.973-.974.975.975,0,0,0-.975.974m.18,0a.8.8,0,0,1,.8-.838.8.8,0,0,1,.794.838.8.8,0,0,1-.794.838.8.8,0,0,1-.8-.838m.62-.4h.206c.114,0,.22.036.22.158,0,.138-.084.167-.22.167h-.206Zm-.173.931h.173v-.471h.146l.3.471h.183l-.3-.471a.269.269,0,0,0,.275-.3c0-.2-.121-.3-.365-.3h-.408Z" transform="translate(84.166 -128.315)" fill="#231f20"/>
      </g>
    </g>
  </g>
</svg>
