<svg xmlns="http://www.w3.org/2000/svg" xmlns:xlink="http://www.w3.org/1999/xlink" width="82" height="38" viewBox="0 0 82 38">
  <defs>
    <clipPath id="clip-_65935">
      <rect width="82" height="38"/>
    </clipPath>
  </defs>
  <g id="_65935" data-name="65935" clip-path="url(#clip-_65935)">
    <g id="massachusetts-mutual-life-insurance-company-massmutual-logo-vector" transform="translate(1.059 14.267)">
      <path id="Path_90007" data-name="Path 90007" d="M290.164,32.467c-.871-.172-1.226-.269-1.226-.516,0-.226.194-.463.753-.463a1.138,1.138,0,0,1,1.022.527.157.157,0,0,0,.215.054l1.108-.613a.171.171,0,0,0,.086-.108.176.176,0,0,0-.022-.129,2.659,2.659,0,0,0-2.4-1.119h-.054a2.687,2.687,0,0,0-1.893.688A1.71,1.71,0,0,0,287.217,32c0,1.3,1.1,1.678,2.173,1.872l.086.022c.656.118,1.173.215,1.173.506,0,.258-.247.516-.8.516a1.218,1.218,0,0,1-1.173-.667.148.148,0,0,0-.108-.086.18.18,0,0,0-.129.011l-1.226.678a.137.137,0,0,0-.075.1.181.181,0,0,0,.011.129,2.731,2.731,0,0,0,2.625,1.3h.054a2.616,2.616,0,0,0,1.915-.71,1.9,1.9,0,0,0,.592-1.323c.011-1.248-1.043-1.635-2.173-1.883" transform="translate(-256.268 -26.916)" fill="#002f6c"/>
      <path id="Path_90008" data-name="Path 90008" d="M341.864,32.467c-.871-.172-1.226-.269-1.226-.516,0-.226.194-.463.753-.463a1.138,1.138,0,0,1,1.022.527.157.157,0,0,0,.215.054l1.108-.613a.171.171,0,0,0,.086-.108.176.176,0,0,0-.022-.129,2.659,2.659,0,0,0-2.4-1.119h-.054a2.687,2.687,0,0,0-1.893.688A1.71,1.71,0,0,0,338.917,32c0,1.3,1.1,1.678,2.173,1.872l.086.022c.656.118,1.173.215,1.173.506,0,.258-.247.516-.8.516a1.218,1.218,0,0,1-1.173-.667.148.148,0,0,0-.108-.086.18.18,0,0,0-.129.011l-1.226.678a.137.137,0,0,0-.075.1.18.18,0,0,0,.011.129,2.731,2.731,0,0,0,2.625,1.3h.054a2.616,2.616,0,0,0,1.915-.71,1.9,1.9,0,0,0,.592-1.323c.022-1.248-1.033-1.635-2.173-1.883" transform="translate(-302.406 -26.916)" fill="#002f6c"/>
      <path id="Path_90009" data-name="Path 90009" d="M553.314,17.364V15.6a.119.119,0,0,1,.118-.118h1.011a.147.147,0,0,0,.151-.151v-1.14a.147.147,0,0,0-.151-.151h-1.011a.122.122,0,0,1-.118-.129V12.093a.156.156,0,0,0-.226-.14l-1.409.775a.146.146,0,0,0-.075.14v1.043a.131.131,0,0,1-.129.129h-.624a.147.147,0,0,0-.151.151v1.14a.147.147,0,0,0,.151.151h.624a.131.131,0,0,1,.129.129v2.151a2.3,2.3,0,0,0,2.3,2.291,2.873,2.873,0,0,0,.613-.022.129.129,0,0,0,.1-.129V18.494a.079.079,0,0,0-.108-.075,1.079,1.079,0,0,1-.258.043.9.9,0,0,1-.882-.688,1.133,1.133,0,0,1-.054-.409" transform="translate(-491.481 -10.705)" fill="#002f6c"/>
      <path id="Path_90010" data-name="Path 90010" d="M595.421,34.366V31.451a.147.147,0,0,0-.151-.151h-1.42a.147.147,0,0,0-.151.151v3.077a3.108,3.108,0,0,0,.732,2.119,2.536,2.536,0,0,0,1.925.8,2.626,2.626,0,0,0,1.732-.57l.032-.022v.312a.147.147,0,0,0,.151.151h1.42a.147.147,0,0,0,.151-.151V31.451a.147.147,0,0,0-.151-.151h-1.42a.147.147,0,0,0-.151.151v2.883c0,.968-.505,1.538-1.355,1.538s-1.345-.559-1.345-1.506" transform="translate(-529.855 -27.987)" fill="#002f6c"/>
      <path id="Path_90011" data-name="Path 90011" d="M488.621,34.366V31.451a.147.147,0,0,0-.151-.151h-1.42a.147.147,0,0,0-.151.151v3.077a3.108,3.108,0,0,0,.731,2.119,2.536,2.536,0,0,0,1.926.8,2.626,2.626,0,0,0,1.732-.57l.032-.022v.344a.131.131,0,0,0,.129.129h1.484a.122.122,0,0,0,.118-.129V31.451a.147.147,0,0,0-.151-.151h-1.431a.147.147,0,0,0-.151.151v2.883c0,.968-.506,1.538-1.356,1.538s-1.345-.559-1.345-1.506" transform="translate(-434.544 -27.987)" fill="#002f6c"/>
      <path id="Path_90012" data-name="Path 90012" d="M728.2.5h-1.452a.147.147,0,0,0-.151.151V9.708a.131.131,0,0,0,.129.129h1.484a.131.131,0,0,0,.129-.129V.618A.149.149,0,0,0,728.2.5" transform="translate(-648.459 -0.5)" fill="#002f6c"/>
      <path id="Path_90013" data-name="Path 90013" d="M223.359,31.674a1.513,1.513,0,0,1,1.528,1.624,1.544,1.544,0,1,1-3.077,0,1.512,1.512,0,0,1,1.549-1.624M220.1,33.3a2.976,2.976,0,0,0,3.206,3.163,2.648,2.648,0,0,0,1.571-.592v.312a.147.147,0,0,0,.151.151h1.42a.147.147,0,0,0,.151-.151V30.469a.147.147,0,0,0-.151-.151h-1.42a.147.147,0,0,0-.151.151v.312l-.032-.022A2.605,2.605,0,0,0,223.2,30.2a2.936,2.936,0,0,0-3.1,3.1" transform="translate(-196.445 -27.005)" fill="#002f6c"/>
      <path id="Path_90014" data-name="Path 90014" d="M660.56,31.762a1.513,1.513,0,0,1,1.527,1.624,1.544,1.544,0,1,1-3.076,0,1.512,1.512,0,0,1,1.549-1.624M657.3,33.387a2.976,2.976,0,0,0,3.206,3.163,2.648,2.648,0,0,0,1.57-.592V36.3a.131.131,0,0,0,.129.129h1.485a.122.122,0,0,0,.118-.129V30.536a.119.119,0,0,0-.118-.118h-1.485a.129.129,0,0,0-.129.118v.344l-.032-.022A2.605,2.605,0,0,0,660.4,30.3a2.922,2.922,0,0,0-3.1,3.087" transform="translate(-586.614 -27.094)" fill="#002f6c"/>
      <path id="Path_90015" data-name="Path 90015" d="M136.87.575,133.74,5.2,130.609.575A.163.163,0,0,0,130.459.5h-1.076a.181.181,0,0,0-.183.183V9.654a.181.181,0,0,0,.183.183h1.377a.181.181,0,0,0,.183-.183V4.168L133.6,8.095a.181.181,0,0,0,.3,0l2.657-3.926V9.654a.181.181,0,0,0,.183.183h1.377a.181.181,0,0,0,.183-.183V.683A.181.181,0,0,0,138.118.5h-1.076a.2.2,0,0,0-.172.075" transform="translate(-115.323 -0.5)" fill="#002f6c"/>
      <path id="Path_90016" data-name="Path 90016" d="M401.37.575,398.239,5.2,395.109.575A.163.163,0,0,0,394.959.5h-1.076a.181.181,0,0,0-.183.183V9.654a.181.181,0,0,0,.183.183h1.377a.181.181,0,0,0,.183-.183V4.168L398.1,8.095a.181.181,0,0,0,.3,0l2.657-3.926V9.654a.181.181,0,0,0,.183.183H402.6a.181.181,0,0,0,.183-.183V.683A.181.181,0,0,0,402.6.5h-1.076a.188.188,0,0,0-.151.075" transform="translate(-351.37 -0.5)" fill="#002f6c"/>
      <path id="Path_90017" data-name="Path 90017" d="M85.118,63.709a1.409,1.409,0,1,0-1.409,1.409,1.414,1.414,0,0,0,1.409-1.409" transform="translate(-73.468 -55.652)" fill="#002f6c"/>
      <path id="Path_90018" data-name="Path 90018" d="M44.018,63.709a1.409,1.409,0,1,0-1.409,1.409,1.414,1.414,0,0,0,1.409-1.409" transform="translate(-36.79 -55.652)" fill="#002f6c"/>
      <path id="Path_90019" data-name="Path 90019" d="M3.018,63.709a1.409,1.409,0,1,0-1.409,1.409,1.414,1.414,0,0,0,1.409-1.409" transform="translate(-0.2 -55.652)" fill="#002f6c"/>
      <path id="Path_90020" data-name="Path 90020" d="M64.618,31.509a1.409,1.409,0,1,0-1.409,1.409,1.414,1.414,0,0,0,1.409-1.409" transform="translate(-55.174 -26.916)" fill="#002f6c"/>
      <path id="Path_90021" data-name="Path 90021" d="M23.618,31.509a1.409,1.409,0,1,0-1.409,1.409,1.414,1.414,0,0,0,1.409-1.409" transform="translate(-18.584 -26.916)" fill="#002f6c"/>
    </g>
  </g>
</svg>
