<svg xmlns="http://www.w3.org/2000/svg" xmlns:xlink="http://www.w3.org/1999/xlink" width="82" height="38" viewBox="0 0 82 38">
  <defs>
    <clipPath id="clip-_68772">
      <rect width="82" height="38"/>
    </clipPath>
  </defs>
  <g id="_68772" data-name="68772" clip-path="url(#clip-_68772)">
    <g id="Group_81544" data-name="Group 81544" transform="translate(23647 -20928)">
      <g id="Group_81542" data-name="Group 81542" transform="translate(-23647 20933.09)">
        <path id="Path_91664" data-name="Path 91664" d="M254.492,259.165v-1.532c0-4.515-.055-9.031.015-13.544a10.844,10.844,0,0,0-7.678-10.516,12.474,12.474,0,0,0-11.413,1.766,9.182,9.182,0,0,0-4.029,7.671c-.051,4.869-.013,9.74-.014,14.61,0,.355.014.711-.005,1.065-.023.424-.355.626-.7.4a4.05,4.05,0,0,1-2.029-3.018,7.448,7.448,0,0,1-.015-.76q0-9.968,0-19.936a4,4,0,0,1,4.242-4.235c6.646,0,13.291-.009,19.936.006a3.83,3.83,0,0,1,3.928,2.686,3.348,3.348,0,0,1,.211,1.166q.019,10.349,0,20.7A3.244,3.244,0,0,1,254.492,259.165Z" transform="translate(-228.617 -231.128)" fill="#00448c"/>
        <path id="Path_91665" data-name="Path 91665" d="M271.55,274.236c-.336.016-.532.035-.727.033-1.648-.012-1.368.145-1.372-1.357-.012-4.664-.113-9.331.035-13.99a7,7,0,0,0-4.928-6.774,8.114,8.114,0,0,0-6.83.529,6.443,6.443,0,0,0-3.557,5.864c.027,4.968.008,9.936.008,14.9v.773h-2.137V273q0-7.528,0-15.056a7.251,7.251,0,0,1,2-5.03,9.354,9.354,0,0,1,5.35-3.137c4.023-.722,7.639.046,10.307,3.387a7.831,7.831,0,0,1,1.842,4.819C271.576,263.352,271.55,268.722,271.55,274.236Z" transform="translate(-247.487 -245.951)" fill="#00478e"/>
        <path id="Path_91666" data-name="Path 91666" d="M280.963,289.647c0-4.719.011-9.277-.011-13.835a15.63,15.63,0,0,0-.239-2.229,3.16,3.16,0,0,0-2.482-2.7,4.17,4.17,0,0,0-4.535,1.5,3.8,3.8,0,0,0-.615,2.274q.013,6.693,0,13.386v1.543h-2.109c0-.5,0-.94,0-1.384,0-4.563.058-9.128-.028-13.69a5.617,5.617,0,0,1,5.962-5.893,8.5,8.5,0,0,1,1.8.13,5.491,5.491,0,0,1,4.075,4.2,10.522,10.522,0,0,1,.27,2.528c.026,4.36.014,8.721.011,13.082,0,1.069-.01,1.07-1.045,1.084C281.727,289.651,281.427,289.647,280.963,289.647Z" transform="translate(-262.72 -261.328)" fill="#00468d"/>
        <path id="Path_91667" data-name="Path 91667" d="M291.127,296.021c0-2.379-.018-4.758.006-7.137a2.145,2.145,0,0,1,3.254-2.021,2.061,2.061,0,0,1,1,1.441,2.855,2.855,0,0,1,.031.756c.007,4.758.005,9.516.027,14.274,0,.55-.084.839-.736.794-.856-.059-1.72-.018-2.58-.013-1.06.006-1.013.052-1.007-.957.014-2.379,0-4.758,0-7.137Z" transform="translate(-278.967 -275.796)" fill="#00438b"/>
      </g>
      <text id="SECURITY_MUTUAL_LIFE" data-name="SECURITYMUTUALLIFE" transform="translate(-23616 20942)" fill="#21201e" font-size="10" font-family="Georgia"><tspan x="0" y="0">SECURITY</tspan><tspan x="0" y="9">MUTUAL</tspan><tspan x="0" y="18">LIFE</tspan></text>
    </g>
  </g>
</svg>
