<svg xmlns="http://www.w3.org/2000/svg" xmlns:xlink="http://www.w3.org/1999/xlink" width="82" height="38" viewBox="0 0 82 38">
  <defs>
    <clipPath id="clip-_70688">
      <rect width="82" height="38"/>
    </clipPath>
  </defs>
  <g id="_70688" data-name="70688" clip-path="url(#clip-_70688)">
    <g id="Layer_1_1_" transform="translate(0 3)">
      <path id="Path_90892" data-name="Path 90892" d="M4.43.029v30.4H0L4.341,0,4.43.029m1.4,9.462-.441,8.035H5.239L4.8,9.492h1.03" fill="#e32526"/>
      <path id="Path_90893" data-name="Path 90893" d="M15.43,64.5l-.441,8.035h-.147L14.4,64.5h1.03m1.045,20.941h4.488l-.088-.589H16.5l-.029.589m-.206-1.4h4.488l-.088-.589H16.3l-.029.589m-.177-1.4h4.488l-.088-.589H16.122l-.029.589m-.206-1.4h4.488l-.088-.589H15.916l-.029.589m-.221-1.369h4.488l-.088-.589H15.7l-.029.589m-.177-1.4h4.488l-.088-.589H15.518l-.029.589m-.206-1.4h4.488l-.088-.589H15.312l-.029.589m-.206-1.4h4.488l-.088-.589H15.106l-.029.589m-.177-1.4h4.488L19.3,73.7H14.93l-.029.589" transform="translate(-12.281 -55.008)" fill="#e32526"/>
      <path id="Path_90894" data-name="Path 90894" d="M16.4,77.579h4.488L20.8,76.99H16.429l-.029.589m1.53-1.4h1.3l-.029-.589H17.93v.589m-.029-1.4h1.3l-.029-.589H17.9v.589m-.015-1.427h1.3l-.029-.589H17.886v.589m-.029-1.369h1.3l-.029-.589H17.857v.589m0-1.4h1.3L19.122,70H17.857v.589m2.134,5.592h.677l-.088-.589H20.02l-.029.589m.088-1.4h.412l-.088-.589h-.294l-.029.589" transform="translate(-13.987 -59.699)" fill="#e32526"/>
      <path id="Path_90895" data-name="Path 90895" d="M134.881,162.794a2.672,2.672,0,0,0-.544.059v2.678a2.48,2.48,0,0,0,.486.044,1.4,1.4,0,0,0,1.56-1.4C136.382,163.383,135.97,162.794,134.881,162.794Zm-.544,3.076v2.119c0,.647.353.647.824.662v.235c-.441,0-.824-.015-1.236-.015-.441,0-.868.015-1.324.015v-.235c.456.029.839-.088.839-.618V163.4c0-.633-.353-.647-.839-.662V162.5c.5.015.942.015,1.383.015.324,0,.648-.015,1.221-.015,1.722,0,2.1.971,2.1,1.619a1.676,1.676,0,0,1-1.3,1.56,27.781,27.781,0,0,0,1.663,2.384,1.35,1.35,0,0,0,1.03.574v.235c-.235,0-.456-.015-.692-.015s-.515.015-.78.015a21.292,21.292,0,0,1-2.1-3.017h-.795" transform="translate(-116.274 -138.586)" fill="#1d4485"/>
      <path id="Path_90896" data-name="Path 90896" d="M170.528,164.57h1.884l-.971-2.693h-.015l-.9,2.693Zm3.12.957a10.275,10.275,0,0,0,.515,1.339.883.883,0,0,0,.706.25v.235c-.353,0-.706-.015-1.045-.015-.441,0-.883.015-1.339.015v-.235h.162c.235,0,.5-.044.5-.309a2.5,2.5,0,0,0-.132-.53l-.456-1.324H170.41l-.206.633a4.523,4.523,0,0,0-.25,1.089c0,.427.309.412.618.427h.206v.235c-.353,0-.721-.015-1.074-.015s-.736.015-1.1.015V167.1c.559-.059.662-.132.883-.648.147-.324.25-.692.368-1.03l1.177-3.267a2.712,2.712,0,0,0,.191-.824,1.189,1.189,0,0,0-.015-.235,1.152,1.152,0,0,0,.53-.4h.162l1.751,4.827" transform="translate(-146.977 -137.051)" fill="#1d4485"/>
      <path id="Path_90897" data-name="Path 90897" d="M216.59,167.425h-.206l-4.783-5.254v3.414c0,1.266.1,1.516,1.089,1.516v.235c-.4,0-.809-.015-1.221-.015s-.809.015-1.221.015V167.1c.559,0,.971,0,.971-1.163V162.26c0-.78-.338-1.074-1.118-1.074v-.235c.28.015.559.015.839.015.25,0,.5-.015.751-.015.368.559,1.221,1.383,2.266,2.546.78.854,1.633,1.766,2.252,2.443V162.3c0-.839-.191-1.1-1.1-1.1v-.235c.427.015.854.015,1.266.015.353,0,.706-.015,1.06-.015v.235c-.559,0-.854.044-.854.942v5.283m1.236-1.589h.206a1.579,1.579,0,0,0,1.427,1.354,1.2,1.2,0,0,0,1.251-1.221c0-1.692-2.708-1.192-2.708-3.355a1.753,1.753,0,0,1,1.957-1.8,9.656,9.656,0,0,1,1.118.132l.147,1.163H221a1.112,1.112,0,0,0-1.177-1.015,1.079,1.079,0,0,0-1.1,1.177c0,1.707,2.811,1.236,2.811,3.341a1.974,1.974,0,0,1-2.149,1.854,3.283,3.283,0,0,1-1.4-.309l-.177-1.324m5.783-1.266h1.884l-.971-2.693h-.015Zm3.12.957a10.273,10.273,0,0,0,.515,1.339.884.884,0,0,0,.706.25v.235c-.353,0-.706-.015-1.045-.015-.456,0-.883.015-1.339.015v-.235h.162c.235,0,.5-.044.5-.309a2.5,2.5,0,0,0-.132-.53l-.456-1.324h-2.149l-.206.633a4.523,4.523,0,0,0-.25,1.089c0,.427.294.412.618.427h.206v.235c-.353,0-.721-.015-1.074-.015s-.736.015-1.1.015V167.1c.559-.059.662-.132.883-.648.147-.324.25-.692.368-1.03l1.177-3.267a2.712,2.712,0,0,0,.191-.824,1.19,1.19,0,0,0-.015-.235,1.152,1.152,0,0,0,.53-.4h.162l1.751,4.827" transform="translate(-182.37 -137.051)" fill="#1d4485"/>
      <path id="Path_90898" data-name="Path 90898" d="M335.185,167.636c.824-1.707,1.707-3.385,2.472-5.121.25.015.5.015.751.015s.544-.015.809-.015v.235a1.138,1.138,0,0,0-.633.1c-.118.088-.177.25-.177.544,0,1.442.088,2.987.118,4.356.015.692.088.883,1,.883v.235c-.5,0-1-.015-1.516-.015-.441,0-.883.015-1.339.015v-.235a1.551,1.551,0,0,0,.706-.088c.162-.088.235-.265.235-.618l-.059-4.356h-.015l-2.163,4.474a8.391,8.391,0,0,0-.353.912h-.177c-.78-1.751-1.648-3.458-2.516-5.18h-.015l-.074,3.311c0,.118-.015.441-.015.574,0,.441.044.692.191.824a1.092,1.092,0,0,0,.736.162v.235c-.383,0-.765-.015-1.133-.015-.4,0-.809.015-1.221.015v-.235c.647,0,1.045-.162,1.089-1.383.029-1.251.1-2.5.1-3.753,0-.324-.044-.53-.177-.633a1,1,0,0,0-.633-.147V162.5c.324.015.647.015.971.015.191,0,.4-.015.589-.015l2.443,5.136m6.593-2.252h1.207c.736,0,.736-.574.765-.78h.177c-.015.206-.044.692-.044,1.03,0,.294.044.721.044,1.015h-.177c0-.883-.294-.883-1-.883h-.971v1.56c0,1.015.029,1.266.942,1.266h.559c.9-.044,1.295-.162,1.648-1.148l.221.029a11.5,11.5,0,0,0-.368,1.4c-.912,0-1.825-.015-2.737-.015-.677,0-1.354,0-2.031.015v-.235c.795,0,.868-.147.868-1.03v-4.062c0-.751-.147-.78-.868-.809V162.5c.618.015,1.236.015,1.854.015.883,0,1.751,0,2.634-.015v1.369l-.177.044c-.132-.854-.544-1.118-1.457-1.118h-1.074v2.59m6.063-2.59a2.672,2.672,0,0,0-.544.059v2.678a2.48,2.48,0,0,0,.486.044,1.4,1.4,0,0,0,1.56-1.4C349.357,163.383,348.945,162.794,347.856,162.794Zm-.544,3.076v2.119c0,.647.353.647.839.662v.235c-.441,0-.839-.015-1.236-.015-.441,0-.868.015-1.324.015v-.235c.456.029.839-.088.839-.618V163.4c0-.633-.353-.647-.839-.662V162.5c.5.015.942.015,1.383.015.324,0,.647-.015,1.221-.015,1.722,0,2.1.971,2.1,1.619a1.676,1.676,0,0,1-1.3,1.56c.839,1.221,1.266,1.943,1.663,2.384a1.326,1.326,0,0,0,1.03.574v.235c-.235,0-.456-.015-.692-.015s-.515.015-.78.015a21.3,21.3,0,0,1-2.1-3.017h-.809" transform="translate(-285.307 -138.586)" fill="#1d4485"/>
      <path id="Path_90901" data-name="Path 90901" d="M158.3,161.863c0-.633-.353-.647-.839-.662v-.235c.427.015.854.015,1.266.015s.839-.015,1.295-.015v.235c-.486.015-.839.015-.839.662v4.591c0,.648.353.648.839.662v.235c-.441,0-.839-.015-1.236-.015-.441,0-.868.015-1.324.015v-.235c.486-.015.839-.015.839-.662v-4.591m8.05.765h-.235a1.735,1.735,0,0,0-1.957-1.5,2.609,2.609,0,0,0-2.575,2.9,2.985,2.985,0,0,0,2.722,3.179,1.858,1.858,0,0,0,1.84-1.575l.206.059-.206,1.339a5.145,5.145,0,0,1-2.016.486,3.256,3.256,0,0,1-3.488-3.444,3.37,3.37,0,0,1,3.458-3.223,6.586,6.586,0,0,1,2.163.486l.088,1.295m2,1.943h1.884l-.986-2.693h-.015Zm3.105.957a10.275,10.275,0,0,0,.515,1.339.884.884,0,0,0,.706.25v.235c-.353,0-.706-.015-1.045-.015-.456,0-.883.015-1.339.015v-.235h.162c.221,0,.5-.044.5-.309a2.5,2.5,0,0,0-.132-.53l-.456-1.324H168.22l-.206.633a4.524,4.524,0,0,0-.25,1.089c0,.427.309.412.618.427h.206v.235c-.353,0-.721-.015-1.074-.015s-.736.015-1.1.015V167.1c.559-.059.662-.132.883-.648.147-.324.25-.692.368-1.03l1.177-3.267a2.711,2.711,0,0,0,.191-.824,1.19,1.19,0,0,0-.015-.235,1.152,1.152,0,0,0,.53-.4h.162l1.751,4.827" transform="translate(-91.102 -137.051)" fill="#1d4485"/>
      <path id="Path_90900" data-name="Path 90900" d="M43.454,92.56H43.13c-.029-.662,0-1.1-.971-1.1H40.3v6.814c0,.854.456.868,1.1.883v.324c-.589,0-1.1-.029-1.648-.029-.589,0-1.163.015-1.766.029v-.324c.648-.015,1.1-.029,1.1-.883V91.456H37.524c-1.089,0-1.148.309-1.354,1.1h-.324l.132-1.943h.25c.132.324.456.338.765.338h5.533c.441,0,.751-.1.795-.338h.25l-.118,1.943" transform="translate(-26.113 -69.176)" fill="#1d4485"/>
      <path id="Path_90899" data-name="Path 90899" d="M63.695,169.065h.132c.147,0,.265-.059.265-.191,0-.1-.074-.191-.265-.191a.326.326,0,0,0-.132.015Zm0,.618h-.177v-1.118a1.69,1.69,0,0,1,.309-.029.566.566,0,0,1,.353.088.243.243,0,0,1,.1.235.27.27,0,0,1-.221.265v.015c.1.015.162.1.191.265a1.269,1.269,0,0,0,.074.28h-.191a.589.589,0,0,1-.074-.28.2.2,0,0,0-.235-.191h-.118v.471Zm.191-1.427a.847.847,0,0,0,.015,1.692.811.811,0,0,0,.795-.839A.846.846,0,0,0,63.886,168.256Zm0-.147a1,1,0,1,1-.986,1,.989.989,0,0,1,.986-1" transform="translate(17.128 -144.837)" fill="#1d4485"/>
    </g>
  </g>
</svg>
