<svg xmlns="http://www.w3.org/2000/svg" xmlns:xlink="http://www.w3.org/1999/xlink" width="82" height="38" viewBox="0 0 82 38">
  <defs>
    <linearGradient id="linear-gradient" x1="0.542" y1="1" x2="0.611" gradientUnits="objectBoundingBox">
      <stop offset="0" stop-color="#0073c0"/>
      <stop offset="0.134" stop-color="#007ac3"/>
      <stop offset="0.261" stop-color="#0b81c7"/>
      <stop offset="0.335" stop-color="#1688cb"/>
      <stop offset="0.4" stop-color="#218fcf"/>
      <stop offset="0.5" stop-color="#2d97d3"/>
      <stop offset="0.6" stop-color="#2ea1d5"/>
      <stop offset="0.7" stop-color="#30abd6"/>
      <stop offset="0.8" stop-color="#32b4d7"/>
      <stop offset="0.9" stop-color="#35bed7"/>
      <stop offset="1" stop-color="#37c7d8"/>
    </linearGradient>
    <clipPath id="clip-_71161">
      <rect width="82" height="38"/>
    </clipPath>
  </defs>
  <g id="_71161" data-name="71161" clip-path="url(#clip-_71161)">
    <g id="Principal_Financial_Group_logo" transform="translate(-444.395 -22.418)">
      <path id="Path_90858" data-name="Path 90858" d="M569.552,36.492l-.706.959-.7-.959h-.3v2.067h.313V37.008l.6.819h.186l.6-.82v1.552h.313V36.492Zm-2.221,1.518a.659.659,0,0,1-.747.584,2.227,2.227,0,0,1-.76-.173l.086-.274a1.979,1.979,0,0,0,.657.163c.263,0,.433-.119.433-.3,0-.22-.22-.282-.481-.358-.314-.091-.673-.2-.673-.621,0-.339.3-.562.738-.573a1.994,1.994,0,0,1,.688.148l-.087.273a1.782,1.782,0,0,0-.584-.139c-.259.009-.427.114-.427.291,0,.207.219.272.473.342C566.968,37.465,567.331,37.569,567.331,38.01Z" transform="translate(-43.461 -2.348)" fill="#58595d"/>
      <path id="Path_90859" data-name="Path 90859" d="M528.552,44.188a1.747,1.747,0,0,1-1.885,1.917c-.864,0-1.39-.464-1.39-1.205,0-.833.68-1.33,1.822-1.33a6.871,6.871,0,0,1,1.453.156Zm0-1.513a6.736,6.736,0,0,0-1.638-.185c-1.977,0-3.153.957-3.153,2.533,0,1.392,1.114,2.318,2.72,2.318a2.789,2.789,0,0,0,2.256-1.02,1.491,1.491,0,0,0,1.515,1.02,2.4,2.4,0,0,0,.865-.154l-.154-1.176a1.794,1.794,0,0,1-.4.063c-.372,0-.527-.186-.527-.556V42.272c0-1.73-1.142-2.782-3.028-2.782a6.861,6.861,0,0,0-2.875.68l.464,1.206a4.466,4.466,0,0,1,2.165-.589c1.172,0,1.792.527,1.792,1.546Zm-14.649-3H512.39v7.509H513.9Zm-.742-1.082a.958.958,0,1,0,0-1.915.958.958,0,1,0,0,1.915Zm21.075,7.446c-.524,0-.709-.214-.709-.8V36.492h-1.517v8.964a1.729,1.729,0,0,0,1.948,1.885,2.4,2.4,0,0,0,.864-.154l-.154-1.205A2.181,2.181,0,0,1,534.237,46.042Zm-25.774-5.193a3.422,3.422,0,0,1,1.919.713l.678-1.113a4.229,4.229,0,0,0-2.657-.959,3.736,3.736,0,0,0-3.8,3.925,3.6,3.6,0,0,0,3.708,3.925,4.172,4.172,0,0,0,2.751-.957l-.678-1.084a2.823,2.823,0,0,1-1.857.681,2.31,2.31,0,0,1-2.38-2.566A2.315,2.315,0,0,1,508.464,40.849Zm-7.879-1.358a3.023,3.023,0,0,0-2.41,1.144l-.123-.957h-1.268v7.509H498.3v-4.2a1.954,1.954,0,0,1,1.948-2.134,1.56,1.56,0,0,1,1.669,1.67v4.668h1.513V42.334A2.693,2.693,0,0,0,500.584,39.491Zm-5.779,7.7V39.677h-1.513v7.509Zm-.742-8.591a.958.958,0,1,0,0-1.915.958.958,0,1,0,0,1.915Zm-2.968.959a2.464,2.464,0,0,0-2.1,1.08l-.123-.957H487.6v7.509h1.515V43.138c0-1.453.681-2.224,1.977-2.224a4.724,4.724,0,0,1,.835.122l.186-1.3A2.738,2.738,0,0,0,491.1,39.554Zm-10.259-1.267h1.885c1.422,0,2.256.709,2.256,1.976s-.834,1.978-2.256,1.978h-1.885Zm-1.576-1.33V47.187h1.576V43.57h2.1a3.319,3.319,0,1,0,0-6.612Zm39.9,9.024a2.448,2.448,0,0,1-1.794-.8v-2.26a1.886,1.886,0,0,1,1.946-2.071c1.238,0,2.01.93,2.01,2.413C521.32,44.992,520.517,45.982,519.158,45.982Zm.462-6.491a2.976,2.976,0,0,0-2.41,1.144l-.123-.957H515.82V50.215h1.513V46.6a3.3,3.3,0,0,0,2.07.741c2.071,0,3.463-1.669,3.463-4.079C522.866,41.006,521.567,39.491,519.62,39.491Z" transform="translate(-12.479 -2.36)" fill="#5a5a5a"/>
      <path id="Path_90860" data-name="Path 90860" d="M444.394,40.644a12.382,12.382,0,0,0,11.243,12.3V44.825a5.3,5.3,0,0,1-5.017-5.388,4.533,4.533,0,0,1,4.49-4.863c2.384,0,4,1.487,4,3.686,0,1.951-1.239,3.222-3.469,3.561v3c4.583-.123,7.557-2.91,7.557-7.094,0-4.521-3.531-7.834-8.362-7.834A10.38,10.38,0,0,0,444.394,40.644Z" transform="translate(0 0)" fill="url(#linear-gradient)"/>
    </g>
  </g>
</svg>
