<svg xmlns="http://www.w3.org/2000/svg" xmlns:xlink="http://www.w3.org/1999/xlink" width="82" height="38" viewBox="0 0 82 38">
  <defs>
    <clipPath id="clip-_91642">
      <rect width="82" height="38"/>
    </clipPath>
  </defs>
  <g id="_91642" data-name="91642" clip-path="url(#clip-_91642)">
    <g id="Group_81543" data-name="Group 81543" transform="translate(-4.293 -5.528)">
      <g id="Group_81320" data-name="Group 81320" transform="translate(5.886 10.087)">
        <path id="Path_91668" data-name="Path 91668" d="M69.29,149.441l-6.623.025a13.729,13.729,0,0,1,6.771-6.647,22.654,22.654,0,0,1,9.267,1.013,16.555,16.555,0,0,0-9.415,5.609Z" transform="translate(-62.667 -140.285)" fill="#072243"/>
        <path id="Path_91669" data-name="Path 91669" d="M114.22,178.559H109.5a10.044,10.044,0,0,1,6-5.029,21.277,21.277,0,0,1,4.856.927,12.949,12.949,0,0,0-6.141,4.1Z" transform="translate(-102.556 -166.536)" fill="#0083c4"/>
        <path id="Path_91670" data-name="Path 91670" d="M159.5,166.6a17.034,17.034,0,0,0-5-1.223,10.145,10.145,0,0,1,5.782-.71,18.279,18.279,0,0,1,9.193,6.319l-.988.074a13.687,13.687,0,0,0-8.983-4.46Z" transform="translate(-140.884 -158.861)" fill="#5cc0e9"/>
        <path id="Path_91671" data-name="Path 91671" d="M124.833,127.436a20.449,20.449,0,0,1,8.97,2.4,19.33,19.33,0,0,1,10.774,5.708h1.31a24.483,24.483,0,0,0-13.344-9.094,17.183,17.183,0,0,0-7.71.988Z" transform="translate(-115.616 -126.36)" fill="#0083c4"/>
      </g>
      <text id="FORETHOUGHT" transform="translate(6.699 32.971)" fill="#002b55" font-size="11" font-family="Poppins-Bold, Poppins" font-weight="700"><tspan x="0" y="0">FORE</tspan><tspan y="0" fill="#188bbb" font-family="Poppins-Light, Poppins" font-weight="300">THOUGHT</tspan></text>
      <text id="A_GLOBAL_ATLANTIC_COMPANY" data-name="A GLOBAL ATLANTIC COMPANY" transform="translate(38.704 37.971)" fill="#188bbb" font-size="3" font-family="Poppins-Medium, Poppins" font-weight="500" letter-spacing="0.008em"><tspan x="0" y="0">A GLOBAL ATLANTIC COMPANY</tspan></text>
    </g>
  </g>
</svg>
