<svg xmlns="http://www.w3.org/2000/svg" xmlns:xlink="http://www.w3.org/1999/xlink" width="82" height="38" viewBox="0 0 82 38">
  <defs>
    <clipPath id="clip-_94250">
      <rect width="82" height="38"/>
    </clipPath>
  </defs>
  <g id="_94250" data-name="94250" clip-path="url(#clip-_94250)">
    <g id="banner_life-seeklogo" data-name="banner life-seeklogo" transform="translate(-138.229 -143.119)">
      <path id="Path_91081" data-name="Path 91081" d="M154.6,144a27.652,27.652,0,0,1,9.133,2.144,44.693,44.693,0,0,1,6.754,3.392,73.719,73.719,0,0,0,9.808,5.066,19.182,19.182,0,0,0,5.917,1.365c2.232.147,4.464.206,6.827.294.044.91.015,1.879.015,2.892-.793.294-1.733.22-2.246,1.219-.147-.514-.25-.822-.338-1.145h-2.511c-.073,2.393-.132,4.787-.206,7.283a27.4,27.4,0,0,0,2.922.044v-3.171c.044-1.38.969-1.982,2.335-1.483-.117,6.5-.235,13.024-.352,19.631-.793.117-1.556.22-2.335.338a4.562,4.562,0,0,0-.631.044c-.455,0-.822.044-1.277.044-.5-.073-1,.088-1.512.015-.4.073-.631-.015-1.2.029-.338,0-.617-.015-.969-.015a3.963,3.963,0,0,0-.573-.117,25.269,25.269,0,0,1-5.477-1.424,76.494,76.494,0,0,1-9.118-4.713,47.146,47.146,0,0,0-7.532-3.7,28.121,28.121,0,0,0-8.4-1.894c-3.01-.117-6.02-.132-9.03-.191V166.2a9.1,9.1,0,0,1,1.087-.117c1.248.015,2.5.117,3.744.059a7.842,7.842,0,0,0,2.232-.455,2.573,2.573,0,0,0,.191-4.8c-.132-.059-.25-.132-.411-.206a5.759,5.759,0,0,0,.617-.352,2.42,2.42,0,0,0,.94-2.848,2.621,2.621,0,0,0-2.32-1.865c-1.175-.132-2.379-.132-3.568-.162-.764-.015-1.512,0-2.364,0V144.529a6.85,6.85,0,0,1,.925-.162l4.052-.352m15.226,22.274c.029-.954.044-1.835.073-2.7.015-.617,0-1.248.059-1.865a1.225,1.225,0,0,1,1.263-1.131c.617.015.969.352,1,1.131.044,1.321.029,2.658.044,3.994,0,.191.029.367.044.573h2.775c0-1.689.029-3.3-.015-4.919a2.464,2.464,0,0,0-1.923-2.481,3.238,3.238,0,0,0-2.819.529c-.147.1-.294.206-.47.323-.059-.323-.088-.573-.147-.881h-2.658c-.1,2.525-.088,4.992-.044,7.459C163.115,166.288,163.967,166.288,164.95,166.288Zm8.9.029c.015-.323.044-.631.044-.925.015-1.131.015-2.276.059-3.406a1.236,1.236,0,0,1,1.292-1.277c.69.015,1.028.455,1.042,1.366v3.656c0,.22.044.426.059.661h2.7c0-1.806.029-3.524-.015-5.256a2.084,2.084,0,0,0-1.321-1.923,3.057,3.057,0,0,0-3.01.1c-.25.162-.5.323-.749.5-.088-.323-.162-.587-.25-.881h-2.687v7.4C171.983,166.318,172.879,166.318,173.848,166.318Zm-12.627-.132c0-1.791.029-3.539-.015-5.286a2.3,2.3,0,0,0-1.953-2.173,6.528,6.528,0,0,0-3.524-.015,1.872,1.872,0,0,0-1.527,2.232h2.408c.367-.91.6-1.131,1.087-1.013.587.132.778.543.661,1.468-.294.015-.6.044-.9.073a7.8,7.8,0,0,0-2.658.47,2.292,2.292,0,0,0-.338,3.832,3.135,3.135,0,0,0,3.715-.117.765.765,0,0,1,.22-.088c.088.235.176.44.25.646C159.532,166.186,160.384,166.186,161.221,166.186Zm26.238-2.731a16.118,16.118,0,0,0-.117-1.85,2.8,2.8,0,0,0-1.483-2.158,5.165,5.165,0,0,0-3.3-.543,3.329,3.329,0,0,0-2.658,1.879,5.156,5.156,0,0,0-.162,3.744,2.867,2.867,0,0,0,2.056,1.865,5.885,5.885,0,0,0,3.025.161,4.889,4.889,0,0,0,1.6-.7,1.725,1.725,0,0,0,.749-1.7c-.866-.044-1.674-.088-2.437-.132-.661.969-.969,1.131-1.659.9-.631-.206-.793-.543-.719-1.571.808,0,1.63-.015,2.437,0C185.638,163.352,186.475,163.411,187.459,163.455Z" transform="translate(0 -0.881)" fill="#0e6bac"/>
      <path id="Path_91083" data-name="Path 91083" d="M577.571,252.278h-5.154a1.979,1.979,0,0,0,1.175,2.584c1.175.411,2.041-.044,2.584-1.38a4.776,4.776,0,0,1,.485-.029c.191,0,.4.015.587.029a2.249,2.249,0,0,1-1.835,2.232,5.245,5.245,0,0,1-2.085.015,2.862,2.862,0,0,1-2.349-2.672,5.669,5.669,0,0,1,.426-3.069,2.508,2.508,0,0,1,1.351-1.336,3.6,3.6,0,0,1,3.348.161,2.832,2.832,0,0,1,1.292,2.1,6.031,6.031,0,0,0,.191.69C577.571,251.823,577.571,252.058,577.571,252.278Zm-1.454-.9a1.745,1.745,0,0,0-.852-1.967,1.958,1.958,0,0,0-2.158.117,1.738,1.738,0,0,0-.778,1.85Z" transform="translate(-363.727 -89.881)" fill="#1f6dae"/>
      <path id="Path_91085" data-name="Path 91085" d="M144.7,176.6h.147v4.434H144.7Z" transform="translate(-0.085 -28.694)" fill="#e6e9f4"/>
      <path id="Path_91086" data-name="Path 91086" d="M484.766,236.206h4.787v1.233H483.4V227h1.38C484.883,230.025,484.677,233.064,484.766,236.206Z" transform="translate(-289.055 -71.694)" fill="#236eae"/>
      <path id="Path_91087" data-name="Path 91087" d="M547.722,227.142v.661a.637.637,0,0,1-.235.1c-.25.015-.514-.015-.764.015-.558.044-.822.279-.852.852-.029.44,0,.9,0,1.38.558.059,1.057.1,1.615.161v.881h-1.733v6.225h-1.321v-6.181c-.426-.029-.807-.059-1.233-.088v-.881c.426-.029.822-.059,1.351-.088,0-.367-.015-.7,0-1.028.059-1.7,1.013-2.452,2.7-2.114A2.783,2.783,0,0,1,547.722,227.142Z" transform="translate(-340.074 -71.661)" fill="#216eae"/>
      <path id="Path_91088" data-name="Path 91088" d="M529.5,256.651V249.5h1.263v7.15Z" transform="translate(-328.386 -90.891)" fill="#246eaf"/>
      <path id="Path_91089" data-name="Path 91089" d="M531.845,229.116H530.7V228h1.219C531.889,228.411,531.86,228.749,531.845,229.116Z" transform="translate(-329.41 -72.547)" fill="#256faf"/>
      <path id="Path_91090" data-name="Path 91090" d="M166.4,265.715c-.352,1.175-1.1,1.468-3,1.116V264.7C165.044,264.291,165.969,264.614,166.4,265.715Z" transform="translate(-16.04 -103.714)" fill="#1e6dae"/>
      <path id="Path_91091" data-name="Path 91091" d="M165.668,238.15H163.7v-2.188c.47,0,.91-.015,1.366,0a1.2,1.2,0,0,1,1.233.749A1.117,1.117,0,0,1,165.668,238.15Z" transform="translate(-16.296 -79.335)" fill="#206dae"/>
      <path id="Path_91092" data-name="Path 91092" d="M227,271.14a5.031,5.031,0,0,1-.088.734,2.35,2.35,0,0,1-.279.69,1,1,0,0,1-1.131.382.821.821,0,0,1-.631-.808.923.923,0,0,1,.543-.969A1.6,1.6,0,0,1,227,271.14Z" transform="translate(-68.477 -109.183)" fill="#246eaf"/>
      <path id="Path_91093" data-name="Path 91093" d="M404.3,257.108h-2.2c0-.866.4-1.38,1.042-1.41S404.244,256.183,404.3,257.108Z" transform="translate(-219.692 -96.178)" fill="#3874b2"/>
    </g>
  </g>
</svg>
