<svg xmlns="http://www.w3.org/2000/svg" xmlns:xlink="http://www.w3.org/1999/xlink" width="135" height="70" viewBox="0 0 135 70">
  <defs>
    <clipPath id="clip-_10054">
      <rect width="135" height="70"/>
    </clipPath>
  </defs>
  <g id="_10054" data-name="10054" clip-path="url(#clip-_10054)">
    <g id="securian-bk-wordmark" transform="translate(2.182 19.898)">
      <path id="Path_90866" data-name="Path 90866" d="M28.356,0a3.166,3.166,0,1,0,3.166,3.162A3.166,3.166,0,0,0,28.356,0Zm0,4.349a1.2,1.2,0,1,1,1.2-1.2A1.2,1.2,0,0,1,28.356,4.349Z" transform="translate(-14.222)" fill="#0aa147"/>
      <path id="Path_90867" data-name="Path 90867" d="M28.36,43.53a3.166,3.166,0,1,0,3.162,3.162A3.166,3.166,0,0,0,28.36,43.53Zm0,4.349a.5.5,0,1,1,0,.013Z" transform="translate(-14.222 -24.598)" fill="#0aa147"/>
      <path id="Path_90868" data-name="Path 90868" d="M23.844,19.857a10.333,10.333,0,0,0,5.619-7.024,7,7,0,0,0-2.666.839,8.024,8.024,0,0,1-3.088,3.658l-.139.087-.17.1a7.707,7.707,0,0,1-3.436,1.035H18.877A7.95,7.95,0,0,1,16.446,18h0a8.037,8.037,0,0,1-1-.487l-.109-.065-.13-.078a8.033,8.033,0,0,1-3.184-3.745,7.054,7.054,0,0,0-2.649-.8,10.325,10.325,0,0,0,5.619,7.037A10.342,10.342,0,0,0,9.37,26.915a7.019,7.019,0,0,0,2.653-.8,8.02,8.02,0,0,1,3.184-3.74l.13-.083.109-.065a7.829,7.829,0,0,1,1-.487h0a7.907,7.907,0,0,1,2.431-.557h1.087a7.954,7.954,0,0,1,2.431.557,8.106,8.106,0,0,1,1,.487l.174.1.139.087A8.033,8.033,0,0,1,26.8,26.067a7.024,7.024,0,0,0,2.67.839,10.32,10.32,0,0,0-5.623-7.05Z" transform="translate(-5.282 -7.244)" fill="#0aa147"/>
      <path id="Path_90869" data-name="Path 90869" d="M55.191,22.1a3.123,3.123,0,0,0-1.422-.339,3.166,3.166,0,0,0,0,6.328,3.123,3.123,0,0,0,1.422-.339h0a3.162,3.162,0,0,0,0-5.654Zm-1.422,4.023a1.211,1.211,0,1,1,.009,0Z" transform="translate(-28.649 -12.296)" fill="#95c93d"/>
      <path id="Path_90870" data-name="Path 90870" d="M3.174,21.76a3.122,3.122,0,0,0-1.457.361,3.162,3.162,0,1,0,1.457-.361Zm0,4.349a1.207,1.207,0,1,1,0,.013Z" transform="translate(0 -12.296)" fill="#95c93d"/>
      <path id="Path_90871" data-name="Path 90871" d="M9.64,24.115a7.919,7.919,0,0,0,2.144-.531h0A8.041,8.041,0,0,0,16.6,18.022a8.193,8.193,0,0,0,.2-1.248c0-.2.022-.413.022-.618a5.658,5.658,0,0,0-.022-.618,8.007,8.007,0,0,0-5.01-6.815h0A7.928,7.928,0,0,0,9.64,8.193,12.743,12.743,0,0,1,11.588,6.24h0a10.333,10.333,0,0,1,7.441,8.594c0,.1.026.217.035.326q.048.487.048.987t-.048.987a1.043,1.043,0,0,1-.035.326,10.325,10.325,0,0,1-7.437,8.607A12.282,12.282,0,0,1,9.64,24.115Z" transform="translate(-5.435 -3.526)" fill="#95c93d"/>
      <path id="Path_90872" data-name="Path 90872" d="M43.008,24.115a7.92,7.92,0,0,1-2.144-.531h0a8.041,8.041,0,0,1-4.81-5.562,8.193,8.193,0,0,1-.2-1.248c0-.2-.022-.413-.022-.618a5.659,5.659,0,0,1,.022-.618,8.007,8.007,0,0,1,5.006-6.815h0a7.928,7.928,0,0,1,2.144-.531A12.743,12.743,0,0,0,41.06,6.24h0a10.333,10.333,0,0,0-7.437,8.594c0,.1-.026.217-.035.326q-.048.487-.048.987t.048.987a1.043,1.043,0,0,0,.035.326,10.325,10.325,0,0,0,7.437,8.607A12.282,12.282,0,0,0,43.008,24.115Z" transform="translate(-18.941 -3.526)" fill="#95c93d"/>
      <path id="Path_90873" data-name="Path 90873" d="M35.848,27.222a8.193,8.193,0,0,0,.2,1.248,7.95,7.95,0,0,0-2.431-.557c0-.1-.026-.217-.035-.326q-.048-.487-.048-.987t.048-.987a1.043,1.043,0,0,1,.035-.326,7.954,7.954,0,0,0,2.431-.557,8.029,8.029,0,0,0-.2,1.248c0,.2-.022.409-.022.618S35.835,27.022,35.848,27.222Z" transform="translate(-18.935 -13.975)" fill="#0c7b40"/>
      <path id="Path_90874" data-name="Path 90874" d="M28.154,26.581q0,.5-.048.987a1.043,1.043,0,0,1-.035.326,7.907,7.907,0,0,0-2.431.557,8.193,8.193,0,0,0,.2-1.248c0-.2.022-.413.022-.618a5.659,5.659,0,0,0-.022-.618,8.007,8.007,0,0,0-.2-1.248,7.95,7.95,0,0,0,2.427.557c0,.1.026.217.035.326Q28.149,26.1,28.154,26.581Z" transform="translate(-14.476 -13.969)" fill="#0c7b40"/>
      <path id="Path_90875" data-name="Path 90875" d="M75.971,22.6a4.044,4.044,0,0,0,3.479,1.648c1.8,0,2.362-.778,2.362-1.44,0-1.1-1.57-1.361-3.61-2.092-1.935-.7-3.244-1.7-3.244-3.714,0-2.536,2.144-3.949,4.658-3.949a5.511,5.511,0,0,1,4.571,1.983l-1.74,1.857a3.535,3.535,0,0,0-2.879-1.153c-1,0-1.6.47-1.6,1.179,0,1,1.1,1.126,3.323,1.935,2.431.87,3.531,2.014,3.531,3.914,0,2.275-1.648,4.184-5.415,4.184-2.749,0-4.632-1.1-5.441-2.67Z" transform="translate(-41.787 -7.374)"/>
      <path id="Path_90876" data-name="Path 90876" d="M101.25,20.059a6.621,6.621,0,0,1,6.906-6.959,6.364,6.364,0,0,1,6.524,6.645s0,.574-.052,1.1H104.36c.1,2.092,1.648,3.453,3.975,3.453a4.545,4.545,0,0,0,3.558-1.518l1.883,1.831a7.132,7.132,0,0,1-5.541,2.362c-4.132,0-6.985-2.67-6.985-6.8Zm10.229-1.413a3.141,3.141,0,0,0-3.323-2.879,3.523,3.523,0,0,0-3.714,2.879Z" transform="translate(-57.203 -7.403)"/>
      <path id="Path_90877" data-name="Path 90877" d="M142.312,13a6.932,6.932,0,0,1,5.284,2.275l-1.935,2.014a4.419,4.419,0,0,0-3.349-1.44,4,4,0,0,0-4.058,4.11,4,4,0,0,0,4.053,4.132,4.419,4.419,0,0,0,3.349-1.44l1.935,2.014A7.073,7.073,0,1,1,142.312,13Z" transform="translate(-76.354 -7.344)"/>
      <path id="Path_90878" data-name="Path 90878" d="M166.513,13.94h3.166v7.694a2.881,2.881,0,1,0,5.758-.026V13.94H178.6v7.854c0,3.818-2.775,5.654-6.089,5.654s-6.015-1.8-6.015-5.571Z" transform="translate(-94.075 -7.877)"/>
      <path id="Path_90879" data-name="Path 90879" d="M200.124,13.6h3.114v1.961a4.074,4.074,0,0,1,3.914-2.222,6.658,6.658,0,0,1,.944.078v3.044a6.31,6.31,0,0,0-1.3-.13,3.3,3.3,0,0,0-3.558,3.531v6.924H200.12Z" transform="translate(-113.074 -7.538)"/>
      <path id="Path_90880" data-name="Path 90880" d="M223.18,13.94h3.14V27.126h-3.14Z" transform="translate(-126.105 -7.877)"/>
      <path id="Path_90881" data-name="Path 90881" d="M248.823,13.567V26.753h-3.14V24.844c-.435,1.231-1.988,2.2-4.21,2.2a6.636,6.636,0,0,1-6.593-6.88,6.629,6.629,0,0,1,6.576-6.88c2.222,0,3.766.97,4.21,2.2V13.567Zm-2.905,6.593a3.949,3.949,0,0,0-4.027-4.027,3.875,3.875,0,0,0-3.914,4.027,3.875,3.875,0,0,0,3.914,4.027,3.949,3.949,0,0,0,4.027-4.027Z" transform="translate(-132.716 -7.504)"/>
      <path id="Path_90882" data-name="Path 90882" d="M272.45,13.6h3.114v1.883a4.274,4.274,0,0,1,4-2.144c3.166,0,5,2.04,5,5.284v8.163h-3.14v-7.72a2.65,2.65,0,0,0-2.8-2.931,2.94,2.94,0,0,0-3.044,3.044v7.607h-3.114Z" transform="translate(-153.947 -7.538)"/>
      <path id="Path_90883" data-name="Path 90883" d="M76.86,54.8h4.132v1.261H78.226v1.3h2.522V58.6H78.226v2.492H76.86Z" transform="translate(-43.42 -30.967)"/>
      <path id="Path_90884" data-name="Path 90884" d="M91.45,54.8h1.387v6.271H91.45Z" transform="translate(-51.665 -30.967)"/>
      <path id="Path_90885" data-name="Path 90885" d="M100.35,54.8h1.231l3.005,3.914V54.8h1.34v6.271H104.79l-3.1-4.01v4.006h-1.34Z" transform="translate(-56.695 -30.967)"/>
      <path id="Path_90886" data-name="Path 90886" d="M120.237,54.8h1.231l2.609,6.271h-1.513l-.435-1.052h-2.609l-.435,1.052H117.61Zm1.531,4.114-.909-2.288-.9,2.283Z" transform="translate(-66.448 -30.967)"/>
      <path id="Path_90887" data-name="Path 90887" d="M137,54.8h1.231l3.005,3.914V54.8h1.34v6.271H141.44l-3.136-4.01v4.006H137Z" transform="translate(-77.405 -30.967)"/>
      <path id="Path_90888" data-name="Path 90888" d="M158.26,54.57a3.327,3.327,0,0,1,2.536,1.17l-.944.8a2.131,2.131,0,0,0-1.592-.709,1.974,1.974,0,0,0,0,3.949,2.127,2.127,0,0,0,1.6-.718l.944.8a3.327,3.327,0,0,1-2.549,1.179,3.236,3.236,0,0,1,0-6.471Z" transform="translate(-87.588 -30.837)"/>
      <path id="Path_90889" data-name="Path 90889" d="M173,54.8h1.387v6.271H173Z" transform="translate(-97.748 -30.967)"/>
      <path id="Path_90890" data-name="Path 90890" d="M183.4,54.8h1.231l2.609,6.271h-1.474l-.435-1.052h-2.609l-.435,1.052H180.81Zm1.531,4.114-.909-2.288L183.1,58.9Z" transform="translate(-102.162 -30.967)"/>
      <path id="Path_90891" data-name="Path 90891" d="M200.07,54.8h1.387v5.01h2.449v1.261h-3.832Z" transform="translate(-113.046 -30.967)"/>
    </g>
  </g>
</svg>
