<svg xmlns="http://www.w3.org/2000/svg" xmlns:xlink="http://www.w3.org/1999/xlink" width="135" height="70" viewBox="0 0 135 70">
  <defs>
    <clipPath id="clip-_60488">
      <rect width="135" height="70"/>
    </clipPath>
  </defs>
  <g id="_60488" data-name="60488" clip-path="url(#clip-_60488)">
    <g id="AIG_logo" transform="translate(2.781 -0.037)">
      <rect id="rect2986" width="125.682" height="66.173" transform="translate(2.009 1.994)" fill="none" stroke="#1ca3db" stroke-width="0.361"/>
      <g id="g6" transform="translate(0 0.038)">
        <path id="path8" d="M0-94.754v35H129.437v-70H0Zm124.58,0v30.066H4.78v-60.131h119.8Z" transform="translate(0 129.753)" fill="#233776"/>
        <path id="path10" d="M158.308-102.527a24.2,24.2,0,0,0-5,.995,18.192,18.192,0,0,0-7.686,4.7,19.7,19.7,0,0,0-5.288,9.336,18.49,18.49,0,0,0-.64,5.581,17.761,17.761,0,0,0,.416,4.679,20.068,20.068,0,0,0,4.148,8.58,30.233,30.233,0,0,0,3.353,3.261,19.1,19.1,0,0,0,10.014,3.909,29.344,29.344,0,0,0,5.612-.146,17.62,17.62,0,0,0,7.678-3.215,18.526,18.526,0,0,0,6.507-9.39,21.864,21.864,0,0,0,.9-6.507l.046-2.02H162.009v5.628h4.934a37.129,37.129,0,0,1,4.934.093,17.334,17.334,0,0,1-.686,2.475,12.218,12.218,0,0,1-4.132,5.366,14.884,14.884,0,0,1-3.045,1.542,13.771,13.771,0,0,1-10.06-.809,14.176,14.176,0,0,1-7.624-10.192,17.589,17.589,0,0,1,.6-8.842,13.61,13.61,0,0,1,11.479-9.3,20.785,20.785,0,0,1,4.71.162,14.467,14.467,0,0,1,8.8,5.651l.447.6.547-.532c.3-.285,1.257-1.2,2.128-2.027s1.588-1.519,1.6-1.542a14.95,14.95,0,0,0-2.074-2.428,20.431,20.431,0,0,0-7.547-4.579,18.773,18.773,0,0,0-6.476-1.041C159.5-102.543,158.5-102.543,158.308-102.527Z" transform="translate(-64.334 117.221)" fill="#233776"/>
        <path id="path12" d="M47.916-100.487c-.1.224-4.3,9.143-9.336,19.812s-9.143,19.427-9.143,19.45,1.48.031,3.292.023l3.284-.023,2.166-4.8,2.166-4.8,8.4-.008H57.16l2.089,4.8,2.089,4.8,3.284.023c1.8.008,3.284-.008,3.284-.031,0-.062.247.486-12.527-27.977-1.765-3.947-3.654-8.141-4.178-9.328s-1-2.2-1.041-2.259a2.674,2.674,0,0,0-1.064-.093H48.1Zm3.839,17.137c1.55,3.508,2.806,6.4,2.791,6.414s-2.621.015-5.782.008l-5.751-.023,2.937-6.422c1.611-3.531,2.945-6.406,2.96-6.391S50.206-86.864,51.755-83.349Z" transform="translate(-13.557 116.46)" fill="#233776"/>
        <path id="path14" d="M113.32-80.344V-60.8h6.013V-99.887H113.32Z" transform="translate(-52.186 115.999)" fill="#233776"/>
      </g>
    </g>
  </g>
</svg>
