<svg xmlns="http://www.w3.org/2000/svg" xmlns:xlink="http://www.w3.org/1999/xlink" width="135" height="70" viewBox="0 0 135 70">
  <defs>
    <clipPath id="clip-_63495">
      <rect width="135" height="70"/>
    </clipPath>
  </defs>
  <g id="_63495" data-name="63495" clip-path="url(#clip-_63495)">
    <g id="foresters-financial-logo-vector" transform="translate(134.373 -152.736)">
      <path id="Path_90718" data-name="Path 90718" d="M381.547,166.435c2.456,1.422,2.3,8.4,2.2,10.513l-.022.215c-.022.431-.043.84-.065,1.185l-.043.452a3.1,3.1,0,0,0-.022.388.181.181,0,0,1-.151.151.147.147,0,0,1-.151-.151V179.1a1.055,1.055,0,0,0-.022-.237v-.129c-.022-.6-.065-1.723-.237-3.037-.474-3.619-1.4-6.1-2.671-7.174a3.5,3.5,0,0,0-3.231-.668l-.431.086.323-.3a4.988,4.988,0,0,1,3.21-1.551,2.359,2.359,0,0,1,1.314.345m4.976,5.838a.157.157,0,0,0,.151-.129c1.271-5.041,2.822-8.272,4.287-8.854a1.75,1.75,0,0,1,1.745.151l.388.237-.215-.409c-.366-.646-1.551-2.068-2.8-2.068a1.637,1.637,0,0,0-.969.323c-1.271.9-2.219,4.136-2.628,8.832a2.218,2.218,0,0,0-.022.366c-.022.151-.022.323-.043.517-.022.259-.043.646-.043.84a.158.158,0,0,0,.043.129.118.118,0,0,0,.108.065m9.694-.129c-.991-1.142-2.111-2.219-3.533-2.262-2.736-.086-4.869,2.779-6.4,8.466a72.713,72.713,0,0,0-1.96,10.9c-.022.259-.043.517-.065.732l-.022.172a.158.158,0,0,0,.043.129c.022.043.065.043.108.043a.157.157,0,0,0,.151-.129c.043-.172.086-.452.129-.732l.043-.194a52.6,52.6,0,0,1,3.3-11.353c1.659-3.791,3.921-5.795,6.527-5.795a5.721,5.721,0,0,1,1.551.215l.388.108" transform="translate(-398.722)" fill="#7dcdca"/>
      <path id="Path_90719" data-name="Path 90719" d="M-128.958,221.925H-131.5V202.3h10.663v2.348h-8.1v6.441h6.958v2.348h-6.958m16.049,8.811a7.421,7.421,0,0,1-7.5-7.5,7.353,7.353,0,0,1,7.5-7.367,7.353,7.353,0,0,1,7.5,7.367,7.394,7.394,0,0,1-7.5,7.5m0-12.538a4.938,4.938,0,0,0-4.933,5.019,5.021,5.021,0,0,0,4.933,5.192,5.025,5.025,0,0,0,4.955-5.192,4.943,4.943,0,0,0-4.955-5.019m25.614,12.538a7.186,7.186,0,0,1-7.432-7.432c0-4.395,2.887-7.454,7.023-7.454s5.989,3.318,5.989,6.592a6.878,6.878,0,0,1-.065.969l-.022.3h-10.34a4.758,4.758,0,0,0,4.89,4.7,5.882,5.882,0,0,0,3.878-1.551l.3-.3,1.185,2-.194.194a7.821,7.821,0,0,1-5.213,1.982m-.474-12.667a4.178,4.178,0,0,0-4.244,3.468h7.755a3.437,3.437,0,0,0-3.511-3.468m13.033,10.34a5.62,5.62,0,0,1-3.791-1.53l-.28-.3-1.4,1.853.172.215a7.225,7.225,0,0,0,5.256,2.09c2.887,0,4.976-1.745,4.976-4.136,0-2.693-2.456-3.641-4.416-4.416-1.551-.6-2.887-1.12-2.887-2.24,0-1.637,1.81-1.766,2.348-1.766a4.429,4.429,0,0,1,3.145,1.142l.3.323,1.185-2-.172-.194a6,6,0,0,0-4.438-1.594c-2.93,0-4.976,1.68-4.976,4.093,0,2.65,2.434,3.619,4.416,4.395,1.551.625,2.887,1.142,2.887,2.262.043,1.336-1.228,1.81-2.327,1.81m23.395,2.327a7.186,7.186,0,0,1-7.432-7.432c0-4.395,2.887-7.454,7.023-7.454s5.989,3.318,5.989,6.592a6.881,6.881,0,0,1-.065.969l-.022.3H-56.188a4.763,4.763,0,0,0,4.912,4.7,5.882,5.882,0,0,0,3.878-1.551l.3-.3,1.185,2-.194.194a7.757,7.757,0,0,1-5.213,1.982m-.452-12.667a4.178,4.178,0,0,0-4.244,3.468h7.755a3.462,3.462,0,0,0-3.511-3.468m22.684,10.34a5.62,5.62,0,0,1-3.791-1.53l-.28-.3-1.4,1.853.172.215a7.113,7.113,0,0,0,5.256,2.09c2.887,0,4.976-1.745,4.976-4.136,0-2.693-2.456-3.641-4.416-4.416-1.551-.6-2.887-1.12-2.887-2.24,0-1.637,1.81-1.766,2.348-1.766a4.429,4.429,0,0,1,3.145,1.142l.3.323,1.185-2-.172-.194a6.057,6.057,0,0,0-4.438-1.594c-2.93,0-4.976,1.68-4.976,4.093,0,2.65,2.434,3.619,4.416,4.395,1.551.625,2.887,1.142,2.887,2.262.043,1.336-1.228,1.81-2.327,1.81m-31.3-.345-.431.086a3.028,3.028,0,0,1-.539.043c-1.012,0-2.714-.431-2.714-3.253v-6.4h3.4v-2.219h-3.4v-3.9H-66.55v3.9h-1.81v2.219h1.788v6.592c0,4.847,3.533,5.386,5.062,5.386a5.035,5.035,0,0,0,.84-.065l.28-.043s.474-.086.754-.172c.194-.065.452-.172.452-.172m24.3-13.4s-.043-.022-.194-.108a6.947,6.947,0,0,0-1.012-.366l-.237-.065a4.482,4.482,0,0,0-.8-.086,4.534,4.534,0,0,0-3.942,2.37v-2.24h-2.477V221.9h2.5V215.85a8.625,8.625,0,0,1,.366-2.542c.6-2,1.982-3.253,3.619-3.253a5.011,5.011,0,0,1,.625.043l.388.065m-58.574-1.982s-.043-.022-.194-.108a6.139,6.139,0,0,0-1.012-.366l-.237-.065a4.481,4.481,0,0,0-.8-.086,4.534,4.534,0,0,0-3.942,2.37v-2.219h-2.5v14.218h2.5v-6.053a8.625,8.625,0,0,1,.366-2.542c.6-2,1.982-3.253,3.619-3.253a5.008,5.008,0,0,1,.625.043l.388.065m-35.674,32.077h1.4v-6.355h5.213v-1.249H-130.1v-5.342h6.075v-1.249H-131.5m9.414,1.723h1.443v-1.723h-1.443Zm.043,12.473h1.379V232.093h-1.379Zm4.222,0h1.379v-4.869a4.745,4.745,0,0,1,.172-1.379,3.866,3.866,0,0,1,3.705-2.865c1.96,0,2.2,1.422,2.2,3.016v6.1h1.379V235.8c0-2.5-.883-3.942-3.4-3.942a4.279,4.279,0,0,0-4.05,2.564h-.043a7.647,7.647,0,0,0,.043-.8v-1.508h-1.379m17,3.878c-1.766,0-6.226.086-6.226,3.511,0,2.025,1.766,3.016,3.447,3.016a3.694,3.694,0,0,0,3.4-2.2h.043a7.5,7.5,0,0,0-.043.84v1.12h1.314v-6.506c0-2.542-1.357-3.9-3.791-3.9a5.879,5.879,0,0,0-3.619,1.142l.646,1.056a4.918,4.918,0,0,1,2.865-.969c1.465,0,2.52.668,2.52,2.628v.259h-.56m-2.542,5.343a2.022,2.022,0,0,1-2.262-1.917c0-2.24,3.188-2.305,4.782-2.305h.582v.452c0,1.745-1.163,3.77-3.1,3.77m7.26.926h1.379v-4.869a4.745,4.745,0,0,1,.172-1.379,3.866,3.866,0,0,1,3.705-2.865c1.96,0,2.2,1.422,2.2,3.016v6.1h1.379V235.8c0-2.5-.883-3.942-3.4-3.942a4.279,4.279,0,0,0-4.05,2.564h-.043a7.647,7.647,0,0,0,.043-.8v-1.508h-1.357m16.264-.258a5.2,5.2,0,0,0-5.342,5.342,5.167,5.167,0,0,0,5.342,5.321,5.445,5.445,0,0,0,3.964-1.594l-.625-1.077a4.448,4.448,0,0,1-3.253,1.443,3.948,3.948,0,0,1-4.007-4.072,3.888,3.888,0,0,1,3.964-4.071,4.343,4.343,0,0,1,2.973,1.228l.711-1.034a4.977,4.977,0,0,0-3.727-1.486m5.795-2.068h1.443v-1.723h-1.443ZM-74,242.261h1.379V232.093H-74Zm9.629-6.269c-1.766,0-6.226.086-6.226,3.511,0,2.025,1.766,3.016,3.447,3.016a3.694,3.694,0,0,0,3.4-2.2h.043a7.494,7.494,0,0,0-.043.84v1.12h1.314v-6.506c0-2.542-1.357-3.9-3.791-3.9a5.879,5.879,0,0,0-3.619,1.142l.646,1.056a4.918,4.918,0,0,1,2.865-.969c1.465,0,2.52.668,2.52,2.628v.259h-.56m-2.542,5.343a2.022,2.022,0,0,1-2.262-1.917c0-2.24,3.188-2.305,4.782-2.305h.582v.452c.022,1.745-1.163,3.77-3.1,3.77m7.2-1.465c0,2.219,1.486,2.477,2.348,2.477a3.133,3.133,0,0,0,.5-.043v-1.228a2.708,2.708,0,0,1-.345.022c-.517,0-1.12-.194-1.12-1.53v-11.5h-1.379" transform="translate(0 -32.246)" fill="#6d2d5f"/>
    </g>
  </g>
</svg>
