<svg xmlns="http://www.w3.org/2000/svg" xmlns:xlink="http://www.w3.org/1999/xlink" width="135" height="70" viewBox="0 0 135 70">
  <defs>
    <clipPath id="clip-_65935">
      <rect width="135" height="70"/>
    </clipPath>
  </defs>
  <g id="_65935" data-name="65935" clip-path="url(#clip-_65935)">
    <g id="massachusetts-mutual-life-insurance-company-massmutual-logo-vector" transform="translate(-0.2 26.5)">
      <path id="Path_90007" data-name="Path 90007" d="M292.255,34.1c-1.473-.291-2.073-.455-2.073-.873,0-.382.327-.782,1.273-.782a1.924,1.924,0,0,1,1.727.891.265.265,0,0,0,.364.091l1.873-1.036a.289.289,0,0,0,.145-.182.3.3,0,0,0-.036-.218,4.494,4.494,0,0,0-4.054-1.891h-.091a4.541,4.541,0,0,0-3.2,1.164,2.89,2.89,0,0,0-.909,2.055c0,2.2,1.855,2.836,3.673,3.164l.145.036c1.109.2,1.982.364,1.982.855,0,.436-.418.873-1.345.873a2.058,2.058,0,0,1-1.982-1.127.25.25,0,0,0-.182-.145.3.3,0,0,0-.218.018l-2.073,1.145a.231.231,0,0,0-.127.164.3.3,0,0,0,.018.218c.836,1.473,2.273,2.2,4.436,2.2h.091a4.422,4.422,0,0,0,3.236-1.2,3.207,3.207,0,0,0,1-2.236c.018-2.109-1.764-2.764-3.673-3.182" transform="translate(-234.765 -24.218)" fill="#002f6c"/>
      <path id="Path_90008" data-name="Path 90008" d="M343.955,34.1c-1.473-.291-2.073-.455-2.073-.873,0-.382.327-.782,1.273-.782a1.924,1.924,0,0,1,1.727.891.265.265,0,0,0,.364.091l1.873-1.036a.289.289,0,0,0,.145-.182.3.3,0,0,0-.036-.218,4.494,4.494,0,0,0-4.055-1.891h-.091a4.542,4.542,0,0,0-3.2,1.164,2.89,2.89,0,0,0-.909,2.055c0,2.2,1.855,2.836,3.673,3.164l.145.036c1.109.2,1.982.364,1.982.855,0,.436-.418.873-1.345.873a2.058,2.058,0,0,1-1.982-1.127.25.25,0,0,0-.182-.145.3.3,0,0,0-.218.018l-2.073,1.145a.231.231,0,0,0-.127.164.3.3,0,0,0,.018.218c.836,1.473,2.273,2.2,4.436,2.2h.091a4.421,4.421,0,0,0,3.236-1.2,3.207,3.207,0,0,0,1-2.236c.036-2.109-1.745-2.764-3.673-3.182" transform="translate(-277.065 -24.218)" fill="#002f6c"/>
      <path id="Path_90009" data-name="Path 90009" d="M555.118,21.111V18.129a.2.2,0,0,1,.2-.2h1.709a.249.249,0,0,0,.255-.255V15.747a.249.249,0,0,0-.255-.255h-1.709a.206.206,0,0,1-.2-.218V12.2a.264.264,0,0,0-.382-.236l-2.382,1.309a.247.247,0,0,0-.127.236v1.764a.221.221,0,0,1-.218.218h-1.055a.249.249,0,0,0-.255.255v1.927a.249.249,0,0,0,.255.255h1.055a.221.221,0,0,1,.218.218v3.636a3.891,3.891,0,0,0,3.891,3.873,4.858,4.858,0,0,0,1.036-.036.218.218,0,0,0,.164-.218V23.02a.134.134,0,0,0-.182-.127,1.825,1.825,0,0,1-.436.073,1.524,1.524,0,0,1-1.491-1.164,1.914,1.914,0,0,1-.091-.691" transform="translate(-450.41 -9.356)" fill="#002f6c"/>
      <path id="Path_90010" data-name="Path 90010" d="M596.609,36.482V31.555a.249.249,0,0,0-.255-.255h-2.4a.249.249,0,0,0-.255.255v5.2a5.253,5.253,0,0,0,1.236,3.582,4.286,4.286,0,0,0,3.255,1.345,4.439,4.439,0,0,0,2.927-.964l.055-.036v.527a.249.249,0,0,0,.255.255h2.4a.249.249,0,0,0,.255-.255V31.555a.249.249,0,0,0-.255-.255h-2.4a.249.249,0,0,0-.255.255v4.873c0,1.636-.855,2.6-2.291,2.6-1.455,0-2.273-.945-2.273-2.545" transform="translate(-485.592 -25.2)" fill="#002f6c"/>
      <path id="Path_90011" data-name="Path 90011" d="M489.809,36.482V31.555a.249.249,0,0,0-.255-.255h-2.4a.249.249,0,0,0-.255.255v5.2a5.253,5.253,0,0,0,1.236,3.582,4.286,4.286,0,0,0,3.255,1.345,4.439,4.439,0,0,0,2.927-.964l.055-.036v.582a.221.221,0,0,0,.218.218H497.1a.206.206,0,0,0,.2-.218V31.555a.249.249,0,0,0-.255-.255h-2.418a.249.249,0,0,0-.255.255v4.873c0,1.636-.855,2.6-2.291,2.6-1.455,0-2.273-.945-2.273-2.545" transform="translate(-398.21 -25.2)" fill="#002f6c"/>
      <path id="Path_90012" data-name="Path 90012" d="M729.309.5h-2.455a.249.249,0,0,0-.255.255V16.063a.221.221,0,0,0,.218.218h2.509a.221.221,0,0,0,.218-.218V.7a.252.252,0,0,0-.236-.2" transform="translate(-594.329)" fill="#002f6c"/>
      <path id="Path_90013" data-name="Path 90013" d="M225.609,32.691a2.557,2.557,0,0,1,2.582,2.745,2.61,2.61,0,1,1-5.2,0,2.555,2.555,0,0,1,2.618-2.745M220.1,35.436a5.03,5.03,0,0,0,5.418,5.345,4.477,4.477,0,0,0,2.654-1v.527a.249.249,0,0,0,.255.255h2.4a.249.249,0,0,0,.255-.255V30.655a.249.249,0,0,0-.255-.255h-2.4a.249.249,0,0,0-.255.255v.527l-.055-.036a4.4,4.4,0,0,0-2.782-.945,4.962,4.962,0,0,0-5.236,5.236" transform="translate(-179.919 -24.3)" fill="#002f6c"/>
      <path id="Path_90014" data-name="Path 90014" d="M662.809,32.772a2.557,2.557,0,0,1,2.582,2.745,2.61,2.61,0,1,1-5.2,0,2.555,2.555,0,0,1,2.618-2.745M657.3,35.518a5.031,5.031,0,0,0,5.418,5.345,4.477,4.477,0,0,0,2.654-1v.582a.221.221,0,0,0,.218.218H668.1a.206.206,0,0,0,.2-.218V30.7a.2.2,0,0,0-.2-.2h-2.509a.218.218,0,0,0-.218.2v.582l-.055-.036a4.4,4.4,0,0,0-2.782-.945,4.939,4.939,0,0,0-5.236,5.218" transform="translate(-537.629 -24.381)" fill="#002f6c"/>
      <path id="Path_90015" data-name="Path 90015" d="M142.163.627l-5.291,7.818L131.582.627A.275.275,0,0,0,131.327.5h-1.818a.306.306,0,0,0-.309.309V15.973a.306.306,0,0,0,.309.309h2.327a.306.306,0,0,0,.309-.309V6.7l4.491,6.636a.306.306,0,0,0,.509,0L141.636,6.7v9.273a.306.306,0,0,0,.309.309h2.327a.306.306,0,0,0,.309-.309V.809A.306.306,0,0,0,144.273.5h-1.818a.341.341,0,0,0-.291.127" transform="translate(-105.546)" fill="#002f6c"/>
      <path id="Path_90016" data-name="Path 90016" d="M406.663.627l-5.291,7.818L396.082.627A.275.275,0,0,0,395.827.5h-1.818a.306.306,0,0,0-.309.309V15.973a.306.306,0,0,0,.309.309h2.327a.306.306,0,0,0,.309-.309V6.7l4.491,6.636a.306.306,0,0,0,.509,0L406.136,6.7v9.273a.306.306,0,0,0,.309.309h2.291a.306.306,0,0,0,.309-.309V.809A.306.306,0,0,0,408.736.5h-1.818a.318.318,0,0,0-.255.127" transform="translate(-321.956)" fill="#002f6c"/>
      <path id="Path_90017" data-name="Path 90017" d="M87.064,64.682a2.382,2.382,0,1,0-2.382,2.382,2.39,2.39,0,0,0,2.382-2.382" transform="translate(-67.173 -50.564)" fill="#002f6c"/>
      <path id="Path_90018" data-name="Path 90018" d="M45.964,64.682a2.382,2.382,0,1,0-2.382,2.382,2.39,2.39,0,0,0,2.382-2.382" transform="translate(-33.546 -50.564)" fill="#002f6c"/>
      <path id="Path_90019" data-name="Path 90019" d="M4.964,64.682a2.382,2.382,0,1,0-2.382,2.382,2.39,2.39,0,0,0,2.382-2.382" transform="translate(0 -50.564)" fill="#002f6c"/>
      <path id="Path_90020" data-name="Path 90020" d="M66.564,32.482a2.382,2.382,0,1,0-2.382,2.382,2.39,2.39,0,0,0,2.382-2.382" transform="translate(-50.4 -24.218)" fill="#002f6c"/>
      <path id="Path_90021" data-name="Path 90021" d="M25.564,32.482a2.382,2.382,0,1,0-2.382,2.382,2.39,2.39,0,0,0,2.382-2.382" transform="translate(-16.855 -24.218)" fill="#002f6c"/>
    </g>
  </g>
</svg>
