<svg xmlns="http://www.w3.org/2000/svg" xmlns:xlink="http://www.w3.org/1999/xlink" width="135" height="70" viewBox="0 0 135 70">
  <defs>
    <clipPath id="clip-_6616">
      <rect width="135" height="70"/>
    </clipPath>
  </defs>
  <g id="_6616" data-name="6616" clip-path="url(#clip-_6616)">
    <g id="Minnesota_Life" data-name="Minnesota Life" transform="translate(-97.103 -221.897)">
      <path id="Path_91932" data-name="Path 91932" d="M113.47,265.712h-4.222V255.126c-.082-.02-.143-.02-.224-.041q-1.836,5.323-3.651,10.585c-.693.265-.8-.2-.959-.632-1.081-3.141-2.162-6.282-3.426-9.423v10.076H98.5V247.58c1.346,0,2.672-.02,3.977.02.184,0,.428.306.51.53.877,2.447,1.713,4.895,2.57,7.342.143.388.306.755.53,1.346.979-2.917,1.917-5.629,2.774-8.342.224-.693.53-.938,1.244-.9,1.081.061,2.182.02,3.325.02C113.47,253.638,113.47,259.634,113.47,265.712Z" transform="translate(0 0)"/>
      <path id="Path_91933" data-name="Path 91933" d="M421.394,269.088a8.233,8.233,0,0,1-2.162,5.976,5.869,5.869,0,0,1-5,1.876c-3.365-.224-5.629-3.651-5.956-6.527a9.245,9.245,0,0,1,1.9-7.159,5.945,5.945,0,0,1,4.834-2.162c3.651-.1,6.425,4,6.384,7.465C421.394,268.68,421.394,268.823,421.394,269.088Zm-3.773-1.407c-.347-1.142-.653-2.223-.979-3.3a1.868,1.868,0,0,0-3.569-.061,20.951,20.951,0,0,0-.755,2.957,11.421,11.421,0,0,0,.632,6.241,2.1,2.1,0,0,0,1.876,1.469,1.932,1.932,0,0,0,1.774-1.224,3.948,3.948,0,0,0,.49-1.224C417.274,270.944,417.437,269.333,417.621,267.681Z" transform="translate(-246.532 -10.759)"/>
      <path id="Path_91934" data-name="Path 91934" d="M213.473,270.239v-7.118h1.958c.02.286.041.551.041.8,0,4.385.02,8.791-.02,13.176,0,.326-.245.938-.347.938-.653,0-1.468.449-1.938-.286-.693-1.081-1.265-2.223-1.876-3.365-1.183-2.182-2.386-4.365-3.753-6.547v9.137c0,1.122,0,1.122-1.081,1.122-.265,0-.551-.02-.857-.041V263.08c1.2,0,2.386-.02,3.569.02a1.033,1.033,0,0,1,.632.551c1.142,2.06,2.244,4.12,3.365,6.18C213.208,269.913,213.289,269.974,213.473,270.239Z" transform="translate(-85.256 -12.339)"/>
      <path id="Path_91935" data-name="Path 91935" d="M270.893,263.121h1.958v14.991a18.3,18.3,0,0,1-1.836-.02.892.892,0,0,1-.571-.49c-1-1.795-1.958-3.59-2.937-5.384-.8-1.428-1.591-2.876-2.488-4.528v10.422a12.2,12.2,0,0,0-1.224,0c-.653.082-.8-.2-.8-.816.02-4.12.02-8.219.02-12.339V263.08c1.285,0,2.468-.02,3.671.02.163,0,.367.286.49.49l3.426,6.18a.51.51,0,0,0,.347.286C270.893,267.771,270.893,265.487,270.893,263.121Z" transform="translate(-130.949 -12.339)"/>
      <path id="Path_91936" data-name="Path 91936" d="M595.017,266.648h-8.158c-.653,0-.51-.469-.51-.836V248.7h4.263v15.419h4.405Z" transform="translate(-388.338 -0.896)"/>
      <path id="Path_91937" data-name="Path 91937" d="M517.491,263.069c.755,2.509,1.468,5,2.243,7.465.755,2.447,1.53,4.895,2.386,7.546h-2.549c-1.57,0-1.57,0-1.978-1.509-.163-.653-.449-1.265-.551-1.917-.122-.816-.571-.938-1.285-.9-.959.061-1.917.02-2.937.02-.306,1.122-.653,2.2-.9,3.324-.163.816-.551,1.142-1.366,1.02-.245-.041-.49-.02-.857-.041.347-1.285.632-2.488.979-3.692q1.53-5.354,3.08-10.708a.947.947,0,0,1,.632-.551A30.95,30.95,0,0,1,517.491,263.069ZM514.7,266.76c-.469,1.774-.877,3.284-1.265,4.793h2.692C515.635,269.942,515.207,268.473,514.7,266.76Z" transform="translate(-327.333 -12.327)"/>
      <path id="Path_91938" data-name="Path 91938" d="M369.384,265.534a12.449,12.449,0,0,0-1.428-1.713c-.775-.653-1.367-.591-1.836-.02a1.644,1.644,0,0,0-.02,2.264,25.937,25.937,0,0,0,2.957,2c3.1,1.754,2.284,7.077-.041,8.383a4.9,4.9,0,0,1-6.751-2.019.866.866,0,0,1,.2-.775,10.735,10.735,0,0,1,1.326-1c.449.591.857,1.2,1.326,1.734a1.462,1.462,0,0,0,1.9.184,1.4,1.4,0,0,0,.49-1.713,3.287,3.287,0,0,0-.959-1.224,13.375,13.375,0,0,0-2.019-1.346c-2.733-1.489-2.488-5.14-1.489-7.138,1.305-2.611,5.915-2.672,7.342.163.326.653.388,1.122-.245,1.57A8.279,8.279,0,0,0,369.384,265.534Z" transform="translate(-209.942 -10.835)"/>
      <path id="Path_91939" data-name="Path 91939" d="M322.61,265.44v4.14h4.079v2.142H322.63v4.487h4.405v2.08H319V263.4h7.852v2.04Z" transform="translate(-175.527 -12.597)"/>
      <path id="Path_91940" data-name="Path 91940" d="M714.885,271.662h-4v4.446h4.528v2.08H707.4V263.3h7.669v2.244h-4.181V269.5h4.018C714.885,270.255,714.885,270.908,714.885,271.662Z" transform="translate(-484.71 -12.518)"/>
      <path id="Path_91941" data-name="Path 91941" d="M663.731,271.621v6.629c-1.122,0-2.162.041-3.182-.041-.163-.02-.428-.51-.428-.775-.02-3.059-.02-6.139-.02-9.2V263.3h7.873v2.2h-4.161v3.977h4v2.142Z" transform="translate(-447.058 -12.518)"/>
      <path id="Path_91942" data-name="Path 91942" d="M476.835,278.35h-3.2c-.51,0-.51-.306-.51-.673v-12.2H469.9V263.4h10.116v2.06h-3.161C476.835,269.743,476.835,273.985,476.835,278.35Z" transform="translate(-295.65 -12.597)"/>
      <path id="Path_91943" data-name="Path 91943" d="M635.9,278.35V263.4h3.447v.816c0,4.385-.02,8.791.02,13.176,0,.714-.143,1.04-.918.959C637.634,278.309,636.818,278.35,635.9,278.35Z" transform="translate(-427.793 -12.597)"/>
      <path id="Path_91944" data-name="Path 91944" d="M183.9,278.309h-3.3V263.4h3.3Z" transform="translate(-65.355 -12.597)"/>
    </g>
  </g>
</svg>
