<svg xmlns="http://www.w3.org/2000/svg" xmlns:xlink="http://www.w3.org/1999/xlink" width="135" height="70" viewBox="0 0 135 70">
  <defs>
    <clipPath id="clip-path">
      <path id="Path_90857" data-name="Path 90857" d="M0,0H133.08V23.956H0Z" transform="translate(-0.34)"/>
    </clipPath>
    <clipPath id="clip-_67644">
      <rect width="135" height="70"/>
    </clipPath>
  </defs>
  <g id="_67644" data-name="67644" clip-path="url(#clip-_67644)">
    <g id="pennmutual" transform="translate(1.34 23.023)" clip-path="url(#clip-path)">
      <path id="Path_90845" data-name="Path 90845" d="M21.737,0h-9.4A2.258,2.258,0,0,0,10.08,2.258V18.587a.9.9,0,0,1-.9.9H5.417a.9.9,0,0,1-.9-.9v-3.77a.9.9,0,0,1,.9-.9H9.37V9.74H2.6A2.258,2.258,0,0,0,.34,12v9.4A2.258,2.258,0,0,0,2.6,23.652h9.368a2.286,2.286,0,0,0,2.286-2.277V5.077a.9.9,0,0,1,.9-.9h3.758a.9.9,0,0,1,.9.9V8.835a.9.9,0,0,1-.9.9H14.953v4.173h6.781a2.258,2.258,0,0,0,2.258-2.258v-9.4A2.258,2.258,0,0,0,21.737,0" transform="translate(-0.575)" fill="#006a56"/>
      <g id="Group_80419" data-name="Group 80419" transform="translate(29.371 8.519)">
        <path id="Path_90846" data-name="Path 90846" d="M254.807,45.339H252.8q0-2.379-.331-6.887t-.353-5.4h-.1q-1.066,3.473-2.7,7.54a23.958,23.958,0,0,0-1.633,4.749h-1.44a25.055,25.055,0,0,0-1.527-4.842q-1.527-4.1-1.936-5.483t-.558-1.964h-.115q-.031,1.462-.421,5.9t-.387,6.385H239.46q0-.108.725-5.886a76.377,76.377,0,0,0,.725-8.023h2.81a25.945,25.945,0,0,0,1.707,5.886,28.051,28.051,0,0,1,1.71,5.691h.105q0-.994,1.921-5.706t1.921-5.855h2.742q0,2.252.493,7.986t.489,5.908" transform="translate(-194.99 -30.213)" fill="#231f20"/>
        <path id="Path_90847" data-name="Path 90847" d="M301.284,53.682l-1.654.065a4.256,4.256,0,0,1-.152-.982h-.105a5.177,5.177,0,0,1-3.448,1.2,3.516,3.516,0,0,1-2.686-.892q-.827-.892-.84-3.59,0-.384.022-1.143t.022-1.035q0-1.571-.183-3.7l1.986-.074q-.127,2.06-.127,3.522a13.748,13.748,0,0,0,.434,4.383,1.88,1.88,0,0,0,1.949,1.019,4.486,4.486,0,0,0,2.819-.855q0-5.932-.108-8h1.914c-.056,1.338-.081,3.113-.081,5.477a45.953,45.953,0,0,0,.235,4.6" transform="translate(-231.434 -38.564)" fill="#231f20"/>
        <path id="Path_90848" data-name="Path 90848" d="M329.874,45.586l-.127,1.388a4.646,4.646,0,0,1-1.592.31,3.05,3.05,0,0,1-2.627-.976,6.273,6.273,0,0,1-.706-3.5c0-1.087,0-2.664.016-4.414-.4,0-.254.025-1.744.068L323,36.971c1.406.015,1.428.025,1.964.025,0-.428.04-1.3.112-2.906l1.676-.17c-.121,1.5-.189,2.41-.189,3.058q1.047,0,3.073-.108l-.074,1.592q-1.921-.065-3.1-.065c0,1.075-.015,2.441-.015,3.786a6,6,0,0,0,.465,2.909,1.906,1.906,0,0,0,1.722.709,5.306,5.306,0,0,0,1.239-.214" transform="translate(-252.651 -31.931)" fill="#231f20"/>
        <path id="Path_90849" data-name="Path 90849" d="M356.631,53.682l-1.654.065a4.226,4.226,0,0,1-.149-.982h-.105a5.173,5.173,0,0,1-3.448,1.2,3.516,3.516,0,0,1-2.686-.892q-.827-.892-.839-3.59,0-.384.022-1.143c0-.5.022-.852.022-1.035q0-1.571-.183-3.7l1.986-.074q-.13,2.06-.127,3.522a13.748,13.748,0,0,0,.434,4.383,1.88,1.88,0,0,0,1.949,1.019,4.483,4.483,0,0,0,2.819-.855q0-5.932-.105-8l1.921-.074q-.081,2-.081,5.551a45.753,45.753,0,0,0,.235,4.6" transform="translate(-269.637 -38.564)" fill="#231f20"/>
        <path id="Path_90850" data-name="Path 90850" d="M386.456,50.873q-.053-1.623-.053-2.915a11.805,11.805,0,0,0-3.051.31,2.077,2.077,0,0,0-1.75,2.038q0,1.453,2.051,1.453a4.234,4.234,0,0,0,2.807-.874m1.89,2.069-1.676.065a4.122,4.122,0,0,1-.13-.991h-.105a5.11,5.11,0,0,1-3.575,1.2,3.24,3.24,0,0,1-2.116-.722,2.494,2.494,0,0,1-.886-2.054,3.1,3.1,0,0,1,1.388-2.642q1.388-1,5.155-1.05a4.815,4.815,0,0,0,.034-.589,1.916,1.916,0,0,0-.7-1.75,4.1,4.1,0,0,0-2.119-.452,13.234,13.234,0,0,0-3.3.415l.183-1.475a13.392,13.392,0,0,1,3.683-.458,4.783,4.783,0,0,1,2.937.784,3.147,3.147,0,0,1,1.035,2.673q0,.5-.05,1.822t-.047,1.753a18.645,18.645,0,0,0,.288,3.46" transform="translate(-291.894 -37.815)" fill="#231f20"/>
        <path id="Path_90851" data-name="Path 90851" d="M413.105,42.627h-2.048q.192-3.522.192-7.965a65.051,65.051,0,0,0-.31-7.057l2.168-.105q-.2,2.906-.2,7.162,0,4.387.2,7.965" transform="translate(-313.349 -27.5)" fill="#231f20"/>
        <path id="Path_90852" data-name="Path 90852" d="M422.079,68.776c0-.155-.1-.229-.31-.229a1.075,1.075,0,0,0-.192.015v.471h.108c.248,0,.369-.087.369-.26m.437,1.072h-.344a2.291,2.291,0,0,0-.208-.508.273.273,0,0,0-.232-.1h-.127v.6h-.31c0-.235.016-.5.016-.793s0-.524-.016-.722h.555q.533,0,.533.366a.409.409,0,0,1-.31.406v.015a.369.369,0,0,1,.2.183,3.752,3.752,0,0,1,.239.551m.514-.716a1.205,1.205,0,1,0-.353.855,1.162,1.162,0,0,0,.353-.855m.22,0a1.419,1.419,0,0,1-1.4,1.419,1.379,1.379,0,0,1-1.007-.415,1.354,1.354,0,0,1-.418-1,1.423,1.423,0,1,1,2.847,0" transform="translate(-319.878 -55.257)" fill="#231f20"/>
        <path id="Path_90853" data-name="Path 90853" d="M103.3,35.524q0-2.283-3.033-2.286a8.633,8.633,0,0,0-1.6.161q.115,2.017.118,4.569c.18,0,.387.022.62.022q3.9,0,3.9-2.478m2.754-.585a4.168,4.168,0,0,1-1.9,3.77,8.391,8.391,0,0,1-4.647,1.217,5.971,5.971,0,0,1-.716-.022q0,2.007.118,5.294h-3q.139-3.1.139-7.271,0-3.841-.139-6.629h1.859c.263,0,.768,0,1.515-.031s1.4-.031,1.942-.031a6.112,6.112,0,0,1,3.426.929,3.125,3.125,0,0,1,1.4,2.788" transform="translate(-95.91 -30.068)" fill="#231f20"/>
        <path id="Path_90854" data-name="Path 90854" d="M135.867,46.525q0-2.457-2.091-2.457-2,0-2.37,2.543Zm2.5.1c0,.362-.022.836-.065,1.419l-6.874.118a3.132,3.132,0,0,0,1.032,2.007,3.333,3.333,0,0,0,2.326.8,13.209,13.209,0,0,0,3.408-.483l-.214,2.072a10.821,10.821,0,0,1-3.662.533,5.541,5.541,0,0,1-4.222-1.549,5.22,5.22,0,0,1-1.468-3.717,5.97,5.97,0,0,1,1.391-3.944,4.766,4.766,0,0,1,3.869-1.67,4.265,4.265,0,0,1,3.361,1.239,4.6,4.6,0,0,1,1.1,3.172" transform="translate(-118.492 -37.653)" fill="#231f20"/>
        <path id="Path_90855" data-name="Path 90855" d="M173.16,52.949h-2.841q.235-2.7.235-5.465a3.757,3.757,0,0,0-.5-2.274,1.859,1.859,0,0,0-1.509-.6,3.742,3.742,0,0,0-2.308.833q.053,4.163.053,7.506h-2.751c.13-2.227.183-3.1.183-4.371a30.334,30.334,0,0,0-.477-5.712l2.574-.282.183,1.131h.17a5.006,5.006,0,0,1,3.361-1.258,4.157,4.157,0,0,1,2.636.784,3.456,3.456,0,0,1,.988,2.856c0,.208,0,.483-.028.827s-.025.7-.025,1.063q0,1.441.053,4.975" transform="translate(-142.389 -37.822)" fill="#231f20"/>
        <path id="Path_90856" data-name="Path 90856" d="M208.31,52.949h-2.841q.235-2.7.235-5.465a3.757,3.757,0,0,0-.5-2.274,1.859,1.859,0,0,0-1.509-.6,3.742,3.742,0,0,0-2.308.833q.053,4.163.053,7.506h-2.751c.13-2.227.183-3.1.183-4.371a30.334,30.334,0,0,0-.477-5.712l2.574-.282.183,1.131h.17a5,5,0,0,1,3.361-1.258,4.157,4.157,0,0,1,2.633.784,3.456,3.456,0,0,1,.988,2.856c0,.208,0,.483-.028.827s-.025.7-.025,1.063q0,1.441.053,4.975" transform="translate(-166.65 -37.822)" fill="#231f20"/>
      </g>
    </g>
  </g>
</svg>
