<svg xmlns="http://www.w3.org/2000/svg" xmlns:xlink="http://www.w3.org/1999/xlink" width="135" height="70" viewBox="0 0 135 70">
  <defs>
    <clipPath id="clip-_91642">
      <rect width="135" height="70"/>
    </clipPath>
  </defs>
  <g id="_91642" data-name="91642" clip-path="url(#clip-_91642)">
    <g id="Group_81543" data-name="Group 81543">
      <g id="Group_81320" data-name="Group 81320" transform="translate(-56.781 -116.273)">
        <path id="Path_91668" data-name="Path 91668" d="M71.741,151.933l-9.074.034a18.811,18.811,0,0,1,9.277-9.108,31.039,31.039,0,0,1,12.7,1.388,22.682,22.682,0,0,0-12.9,7.686Z" transform="translate(0 -13.027)" fill="#072243"/>
        <path id="Path_91669" data-name="Path 91669" d="M115.967,180.42H109.5a13.761,13.761,0,0,1,8.227-6.89,29.154,29.154,0,0,1,6.653,1.27,17.741,17.741,0,0,0-8.414,5.62Z" transform="translate(-37.319 -37.587)" fill="#0083c4"/>
        <path id="Path_91670" data-name="Path 91670" d="M161.356,167.365a23.34,23.34,0,0,0-6.856-1.676,13.9,13.9,0,0,1,7.923-.972,25.045,25.045,0,0,1,12.6,8.658l-1.354.1a18.754,18.754,0,0,0-12.307-6.111Z" transform="translate(-73.177 -30.406)" fill="#5cc0e9"/>
        <path id="Path_91671" data-name="Path 91671" d="M124.833,127.834a28.016,28.016,0,0,1,12.29,3.284,26.484,26.484,0,0,1,14.762,7.821h1.794a33.545,33.545,0,0,0-18.283-12.46,23.543,23.543,0,0,0-10.564,1.354Z" transform="translate(-49.537 0)" fill="#0083c4"/>
      </g>
      <text id="FORETHOUGHT" transform="translate(7 43)" fill="#002b55" font-size="17" font-family="Poppins-Bold, Poppins" font-weight="700"><tspan x="0" y="0">FORE</tspan><tspan y="0" fill="#188bbb" font-family="Poppins-Light, Poppins" font-weight="300">THOUGHT</tspan></text>
      <text id="A_GLOBAL_ATLANTIC_COMPANY" data-name="A GLOBAL ATLANTIC COMPANY" transform="translate(44 54)" fill="#188bbb" font-size="5.5" font-family="Poppins-Medium, Poppins" font-weight="500" letter-spacing="0.008em"><tspan x="0" y="0">A GLOBAL ATLANTIC COMPANY</tspan></text>
    </g>
    <g id="Group_81318" data-name="Group 81318" transform="translate(128 30.344)">
      <path id="Path_91663" data-name="Path 91663" d="M269.081,289.394a1.741,1.741,0,1,1-1.725-1.695A1.714,1.714,0,0,1,269.081,289.394Zm-3.053,0a1.326,1.326,0,0,0,1.328,1.359,1.3,1.3,0,0,0,1.3-1.343,1.323,1.323,0,0,0-1.313-1.359A1.3,1.3,0,0,0,266.027,289.394Zm1.038.87h-.4V288.57a5.689,5.689,0,0,1,.656-.046.865.865,0,0,1,.58.137.434.434,0,0,1,.183.366.421.421,0,0,1-.351.4v.015c.168.046.244.183.305.412a1.316,1.316,0,0,0,.122.412h-.412a2.055,2.055,0,0,1-.137-.412c-.031-.183-.137-.26-.351-.26h-.183v.672Zm.015-.947h.183c.214,0,.4-.076.4-.244,0-.153-.107-.26-.366-.26-.107,0-.183.015-.214.015Z" transform="translate(-265.6 -287.7)" fill="#188bbb" stroke="#fff" stroke-width="0.1"/>
    </g>
  </g>
</svg>
