<svg xmlns="http://www.w3.org/2000/svg" xmlns:xlink="http://www.w3.org/1999/xlink" width="135" height="70" viewBox="0 0 135 70">
  <defs>
    <clipPath id="clip-_94250">
      <rect width="135" height="70"/>
    </clipPath>
  </defs>
  <g id="_94250" data-name="94250" clip-path="url(#clip-_94250)">
    <g id="banner_life-seeklogo" data-name="banner life-seeklogo" transform="translate(-139.801 -142.362)">
      <path id="Path_91081" data-name="Path 91081" d="M162.7,144c5.769.16,11.192,1.834,16.536,3.881a80.919,80.919,0,0,1,12.229,6.141,133.479,133.479,0,0,0,17.759,9.172,34.732,34.732,0,0,0,10.714,2.472c4.041.266,8.082.372,12.362.532.08,1.648.027,3.4.027,5.237-1.436.532-3.137.4-4.068,2.207-.266-.93-.452-1.489-.611-2.074h-4.546c-.133,4.333-.239,8.667-.372,13.186a49.63,49.63,0,0,0,5.29.08v-5.742c.08-2.5,1.755-3.589,4.227-2.685-.213,11.777-.425,23.581-.638,35.544-1.436.213-2.818.4-4.227.611a8.264,8.264,0,0,0-1.143.08c-.824,0-1.489.08-2.313.08-.9-.133-1.808.16-2.738.027-.718.133-1.143-.027-2.18.053-.611,0-1.117-.027-1.755-.027a7.178,7.178,0,0,0-1.037-.213,45.753,45.753,0,0,1-9.916-2.579,138.5,138.5,0,0,1-16.509-8.534,85.362,85.362,0,0,0-13.638-6.7,50.917,50.917,0,0,0-15.207-3.429c-5.45-.213-10.9-.239-16.35-.346V184.2a16.474,16.474,0,0,1,1.967-.213c2.26.027,4.519.213,6.779.106a14.2,14.2,0,0,0,4.041-.824,4.659,4.659,0,0,0,.346-8.693c-.239-.106-.452-.239-.744-.372a10.43,10.43,0,0,0,1.117-.638,4.382,4.382,0,0,0,1.7-5.158,4.746,4.746,0,0,0-4.2-3.376c-2.127-.239-4.307-.239-6.46-.292-1.382-.027-2.738,0-4.28,0V144.957a12.4,12.4,0,0,1,1.675-.292l7.337-.638m27.569,40.33c.053-1.728.08-3.323.133-4.892.027-1.117,0-2.26.106-3.376a2.219,2.219,0,0,1,2.286-2.047c1.117.027,1.755.638,1.808,2.047.08,2.393.053,4.812.08,7.231,0,.346.053.665.08,1.037h5.025c0-3.057.053-5.982-.027-8.906a4.462,4.462,0,0,0-3.483-4.493,5.864,5.864,0,0,0-5.1.957c-.266.186-.532.372-.851.585-.106-.585-.16-1.037-.266-1.6h-4.812c-.186,4.573-.16,9.039-.08,13.505C178.124,184.356,179.666,184.356,181.447,184.356Zm16.111.053c.027-.585.08-1.143.08-1.675.027-2.047.027-4.121.106-6.168a2.238,2.238,0,0,1,2.34-2.313c1.249.027,1.861.824,1.888,2.472v6.62c0,.4.08.771.106,1.2h4.892c0-3.27.053-6.38-.027-9.517a3.773,3.773,0,0,0-2.393-3.483,5.536,5.536,0,0,0-5.45.186c-.452.292-.9.585-1.356.9-.16-.585-.292-1.063-.452-1.6h-4.865v13.4C194.181,184.409,195.8,184.409,197.558,184.409Zm-22.863-.239c0-3.243.053-6.407-.027-9.571-.053-2.233-1.6-3.376-3.536-3.935a11.819,11.819,0,0,0-6.38-.027,3.389,3.389,0,0,0-2.765,4.041h4.36c.665-1.648,1.09-2.047,1.967-1.834,1.063.239,1.409.984,1.2,2.659-.532.027-1.09.08-1.622.133a14.113,14.113,0,0,0-4.812.851,4.151,4.151,0,0,0-.611,6.939,5.676,5.676,0,0,0,6.726-.213,1.386,1.386,0,0,1,.4-.16c.16.425.319.8.452,1.17C171.637,184.17,173.179,184.17,174.694,184.17Zm47.508-4.945a29.186,29.186,0,0,0-.213-3.35,5.066,5.066,0,0,0-2.685-3.908,9.352,9.352,0,0,0-5.982-.984,6.027,6.027,0,0,0-4.812,3.4,9.336,9.336,0,0,0-.292,6.779,5.192,5.192,0,0,0,3.722,3.376,10.655,10.655,0,0,0,5.477.292,8.852,8.852,0,0,0,2.9-1.276,3.123,3.123,0,0,0,1.356-3.084c-1.569-.08-3.031-.16-4.413-.239-1.2,1.755-1.755,2.047-3,1.622-1.143-.372-1.436-.984-1.3-2.845,1.462,0,2.951-.027,4.413,0C218.905,179.039,220.421,179.146,222.2,179.225Z" transform="translate(0 -0.881)" fill="#0e6bac"/>
      <path id="Path_91083" data-name="Path 91083" d="M582.96,255.49h-9.331c-.611,2.18.266,4.041,2.127,4.679,2.127.744,3.7-.08,4.679-2.5a8.645,8.645,0,0,1,.877-.053c.346,0,.718.027,1.063.053a4.073,4.073,0,0,1-3.323,4.041,9.5,9.5,0,0,1-3.775.027c-2.605-.479-3.881-2.366-4.254-4.839a10.265,10.265,0,0,1,.771-5.556,4.541,4.541,0,0,1,2.446-2.419,6.522,6.522,0,0,1,6.061.292,5.126,5.126,0,0,1,2.339,3.8,10.93,10.93,0,0,0,.346,1.25C582.96,254.666,582.96,255.091,582.96,255.49Zm-2.632-1.622a3.16,3.16,0,0,0-1.542-3.562,3.546,3.546,0,0,0-3.908.213,3.147,3.147,0,0,0-1.409,3.35Z" transform="translate(-312.985 -77.465)" fill="#1f6dae"/>
      <path id="Path_91085" data-name="Path 91085" d="M144.7,176.6h.266v8.029H144.7Z" transform="translate(-0.073 -24.814)" fill="#e6e9f4"/>
      <path id="Path_91086" data-name="Path 91086" d="M485.872,243.669h8.667V245.9H483.4V227h2.5C486.085,232.477,485.713,237.98,485.872,243.669Z" transform="translate(-248.73 -61.815)" fill="#236eae"/>
      <path id="Path_91087" data-name="Path 91087" d="M551.388,227.29v1.2a1.154,1.154,0,0,1-.425.186c-.452.027-.93-.027-1.382.027-1.01.08-1.489.505-1.542,1.542-.053.8,0,1.622,0,2.5,1.01.106,1.914.186,2.924.292v1.6h-3.137V245.9h-2.393V234.707c-.771-.053-1.462-.106-2.233-.16v-1.6c.771-.053,1.489-.106,2.446-.16,0-.665-.027-1.276,0-1.861.106-3.084,1.834-4.44,4.892-3.828A5.035,5.035,0,0,1,551.388,227.29Z" transform="translate(-292.632 -61.786)" fill="#216eae"/>
      <path id="Path_91088" data-name="Path 91088" d="M529.5,262.447V249.5h2.286v12.947Z" transform="translate(-282.574 -78.334)" fill="#246eaf"/>
      <path id="Path_91089" data-name="Path 91089" d="M532.774,230.02H530.7V228h2.207C532.853,228.744,532.8,229.356,532.774,230.02Z" transform="translate(-283.455 -62.549)" fill="#256faf"/>
      <path id="Path_91090" data-name="Path 91090" d="M168.823,266.676c-.638,2.127-1.994,2.659-5.423,2.02v-3.855C166.378,264.1,168.052,264.682,168.823,266.676Z" transform="translate(-13.802 -89.368)" fill="#1e6dae"/>
      <path id="Path_91091" data-name="Path 91091" d="M167.262,239.929H163.7v-3.961c.851,0,1.648-.027,2.472,0a2.182,2.182,0,0,1,2.233,1.356A2.023,2.023,0,0,1,167.262,239.929Z" transform="translate(-14.022 -68.39)" fill="#206dae"/>
      <path id="Path_91092" data-name="Path 91092" d="M228.727,271.3a9.108,9.108,0,0,1-.16,1.329,4.256,4.256,0,0,1-.505,1.25,1.8,1.8,0,0,1-2.047.691,1.486,1.486,0,0,1-1.143-1.462,1.672,1.672,0,0,1,.984-1.755A2.9,2.9,0,0,1,228.727,271.3Z" transform="translate(-58.924 -94.074)" fill="#246eaf"/>
      <path id="Path_91093" data-name="Path 91093" d="M406.088,258.251H402.1c0-1.569.718-2.5,1.888-2.552C405.184,255.672,405.981,256.576,406.088,258.251Z" transform="translate(-189.043 -82.884)" fill="#3874b2"/>
    </g>
  </g>
</svg>
