<svg xmlns="http://www.w3.org/2000/svg" xmlns:xlink="http://www.w3.org/1999/xlink" width="135" height="70" viewBox="0 0 135 70">
  <defs>
    <clipPath id="clip-_97195">
      <rect width="135" height="70"/>
    </clipPath>
  </defs>
  <g id="_97195" data-name="97195" clip-path="url(#clip-_97195)">
    <path id="Prudential_Financial" data-name="Prudential Financial" d="M196.775,176.908v.917h-5.469v-.917a1.4,1.4,0,0,0,.978-.244,1.775,1.775,0,0,0,.214-1.069v-11.55a1.961,1.961,0,0,0-.214-1.161c-.153-.244-.489-.367-1.039-.367h-.4v-.825l4.614-.367v14.239c0,.733.214,1.131.611,1.253a2.174,2.174,0,0,0,.7.092Zm-6.478,0h.153v.917h-4.033V176.3a3.234,3.234,0,0,1-1.253,1.314,3.586,3.586,0,0,1-1.833.581,3.193,3.193,0,0,1-2.6-1.039,2.966,2.966,0,0,1-.672-1.864,3.166,3.166,0,0,1,1.772-2.842,14.413,14.413,0,0,1,4.461-1.406v-1.772c0-1.283-.7-1.925-2.078-1.925a2.953,2.953,0,0,0-1.436.367,2.849,2.849,0,0,0-.55.4,2.079,2.079,0,0,1,.458-.061c.947,0,1.406.428,1.406,1.344a1.29,1.29,0,0,1-.458.978,1.756,1.756,0,0,1-2.261.031,1.709,1.709,0,0,1-.581-1.314,2.213,2.213,0,0,1,1.222-1.956,5.574,5.574,0,0,1,2.994-.733c2.9,0,4.369,1.314,4.369,3.85v5.347c-.031.856.306,1.314.917,1.314Zm-3.972-5.042a5.093,5.093,0,0,0-2.322.886,2.608,2.608,0,0,0-.764,2.078,2.135,2.135,0,0,0,.367,1.344,1.115,1.115,0,0,0,.886.458,1.566,1.566,0,0,0,1.406-.978,4.186,4.186,0,0,0,.428-2.108Zm-75.593-5.561a3.946,3.946,0,0,1-1.833,3.514,8.009,8.009,0,0,1-4.4,1.069H103.43V175.5a1.435,1.435,0,0,0,.306,1.1,1.668,1.668,0,0,0,1.161.275h.733v.917H98.419v-.917h.275a1.662,1.662,0,0,0,1.131-.244,1.433,1.433,0,0,0,.367-1.131V164.044c0-.733-.122-1.222-.428-1.375a3.548,3.548,0,0,0-1.344-.153v-.886h6.08a8.217,8.217,0,0,1,4.339,1.008A4.152,4.152,0,0,1,110.732,166.305Zm-3.33,0c0-2.475-.978-3.728-2.872-3.728h-1.008v7.272h1.008c1.894,0,2.872-1.161,2.872-3.544Zm10.6.031c-1.375,0-2.261.825-2.689,2.475l-.061-2.169h-3.819v.917h.306c.367,0,.642.122.733.428a14.027,14.027,0,0,1,.122,2.781v4.828c0,.581-.092.947-.275,1.069a1.571,1.571,0,0,1-.917.244h-.244v.917h6.08v-.917h-.367c-.642,0-1.008-.092-1.131-.275a2.256,2.256,0,0,1-.153-1.008v-2.2a13.263,13.263,0,0,1,.306-2.75,6.632,6.632,0,0,1,.978-2.658.983.983,0,0,0-.031.244.936.936,0,0,0,.336.825,1.27,1.27,0,0,0,1.008.4,1.42,1.42,0,0,0,1.1-.489,1.5,1.5,0,0,0,.367-1.039,1.387,1.387,0,0,0-.458-1.069,1.261,1.261,0,0,0-1.192-.55Zm13.658,10.572h.306v.917h-4.094l-.061-1.436a3.016,3.016,0,0,1-.917,1.069,3.389,3.389,0,0,1-2.047.7,3.226,3.226,0,0,1-2.719-1.069,4.379,4.379,0,0,1-.642-2.628v-4.705a6.558,6.558,0,0,0-.122-1.833q-.183-.367-.917-.367h-.122v-.947h4.186V174.8c0,1.069.428,1.65,1.344,1.65.733,0,1.253-.489,1.5-1.589a8.517,8.517,0,0,0,.153-1.742v-3.392a6.064,6.064,0,0,0-.153-1.925c-.153-.214-.489-.275-1.008-.275h-.306v-.917h4.583v8.342a4.563,4.563,0,0,0,.153,1.589,1.048,1.048,0,0,0,.886.367Zm-3.728-.917a.066.066,0,0,0-.061.061Zm15.522.917h.214v.886h-4l-.061-1.406a2.878,2.878,0,0,1-.794.978,3.413,3.413,0,0,1-2.169.764,3.832,3.832,0,0,1-3.575-1.956,7.485,7.485,0,0,1-.917-3.911,6.47,6.47,0,0,1,1.222-3.911,4.276,4.276,0,0,1,3.636-1.925,2.666,2.666,0,0,1,2.444,1.039,27.578,27.578,0,0,1-.092-3.147,4.546,4.546,0,0,0-.153-1.283c-.153-.336-.55-.458-1.131-.458h-.306v-.856l4.675-.367v14.3a2.221,2.221,0,0,0,.153.947,1.025,1.025,0,0,0,.856.306Zm-4.125-5.867c0-2.353-.611-3.514-1.833-3.514-.825,0-1.436.611-1.711,1.8a16.3,16.3,0,0,0-.214,2.9c0,2.964.642,4.461,1.864,4.461.917,0,1.467-.642,1.772-1.833a7.17,7.17,0,0,0,.122-1.528v-2.292Zm14.483.917h-6.783a16.665,16.665,0,0,0,.153,2.444c.306,1.742,1.1,2.628,2.322,2.628a2.734,2.734,0,0,0,2.2-1.1,3.08,3.08,0,0,0,.825-2.047h1.131a4.137,4.137,0,0,1-1.253,2.781,4.465,4.465,0,0,1-3.392,1.467,4.957,4.957,0,0,1-4-1.711,7.094,7.094,0,0,1,.153-8.433,4.951,4.951,0,0,1,3.728-1.619,4.353,4.353,0,0,1,3.7,1.65,5.648,5.648,0,0,1,1.222,3.942Zm-3.086-.917c0-2.536-.611-3.819-1.772-3.819-1.1,0-1.711.947-1.864,2.811a9.829,9.829,0,0,0-.031,1.008Zm13.964,5.011v-6.08c0-2.414-1.1-3.667-3.361-3.667a3.362,3.362,0,0,0-1.833.489,2.749,2.749,0,0,0-1.222,1.283v-1.436H154.3v.917h.275c.4,0,.672.092.794.306a3.736,3.736,0,0,1,.214,1.589v5.561a8.146,8.146,0,0,1-.031,1.1c-.031.55-.336.794-.947.794H154.3v.917H159.9v-.917h-.214a1.376,1.376,0,0,1-1.008-.306,4.578,4.578,0,0,1-.122-1.589v-4.186a4.546,4.546,0,0,1,.458-2.261,1.455,1.455,0,0,1,1.253-.764,1.062,1.062,0,0,1,1.1.55,2.914,2.914,0,0,1,.214,1.222v8.189h4.339v-.917h-.244a.787.787,0,0,1-.978-.794Zm7.517-.642c-.122.886-.458,1.314-.978,1.314-.581,0-.825-.458-.825-1.375v-7.792h2.108v-.917h-2.108V161.6h-.947a6.364,6.364,0,0,1-1.008,3.178,3.213,3.213,0,0,1-2.781,1.833h-.306v.917h1.986v7.364c0,2.108.947,3.147,2.78,3.147a2.712,2.712,0,0,0,2.75-1.436,8.072,8.072,0,0,0,.4-3.117H172.24a16.055,16.055,0,0,1-.031,1.925Zm-83.507-2.2,1.161-1.008,1.283-3.025-1.833-.764-1.742,4.858L86.35,174.28l-1.5,2.689h1.5Zm-6.6,3.758h1.925l2.017-3.758-.367-.672Zm-10.816-6.05s-1.681,4.094-2.536,6.08a13.746,13.746,0,0,1,11.214-22,13.543,13.543,0,0,1,13.047,9.716l-7.089-1.925-6.142-3.544-2.261-.4v1.65l1.711,1.619-2.414-.214s.061.122,2.078,2.261l9.136,1.5L89.65,166.7l-4.155.214-1.711,6.294-5.622,3.758H74.433l1.253-2.444-.214-.061-3.33,2.506h-.794l3.392-4.767c.153-1.375.061-.764.275-3.208l-.55-.7-1.375,5.286L70.247,177h-.733l1.681-2.383,2.353-7.242-.611.275L71.9,170.522Zm-2.567,4.247c1.161-3.117,3.483-9.319,3.483-9.319s1.069-.581,1.069-.458l1.589-3.972,1.008-.55,1.253-2.658,2.719.428,5.53,3.086,6.2,1.711a12.591,12.591,0,0,0-11.611-7.578,12.842,12.842,0,0,0-12.986,12.436A12.371,12.371,0,0,0,68.719,175.166Zm18.455-3.728,1.681-3.147-2.353-.978-.244,2.078.244.367-.244,1.833Zm3.605.947-2.9,4.583h3.086A13,13,0,0,0,93.5,170l-1.833-.642ZM79.841,182.5a13.561,13.561,0,0,0,10.541-4.889H69.239A13.67,13.67,0,0,0,79.841,182.5ZM176.7,165.389a1.712,1.712,0,0,0,1.314-.55,1.777,1.777,0,0,0,.55-1.314,1.607,1.607,0,0,0-.55-1.283,1.9,1.9,0,0,0-1.314-.55,1.568,1.568,0,0,0-1.283.55,1.808,1.808,0,0,0,0,2.6A1.53,1.53,0,0,0,176.7,165.389Zm1.772,11.214a4.8,4.8,0,0,1-.153-1.619v-8.311h-4.247v.917h.306a.97.97,0,0,1,.7.214c.153.122.244.611.244,1.406v5.836a6.79,6.79,0,0,1-.092,1.467c-.092.275-.4.4-.825.4H174.1v.917h5.53v-.917h-.306a.979.979,0,0,1-.856-.306Z" transform="translate(-63.887 -133.75)" fill="#007ac1"/>
  </g>
</svg>
